^C:\USERS\JA-ST\SOURCE\REPOS\REVIDX\OUTOFPROCCOM\SERVER.CONTRACT\CONTRACT.IDL
C:\USERS\JA-ST\SOURCE\REPOS\REVIDX\OUTOFPROCCOM\CONTRACT\BIN\DEBUG\REVIDXCOMSERVER.TLB
C:\USERS\JA-ST\SOURCE\REPOS\REVIDX\OUTOFPROCCOM\CONTRACT\BIN\DEBUG\CONTRACT_I.C
C:\USERS\JA-ST\SOURCE\REPOS\REVIDX\OUTOFPROCCOM\CONTRACT\BIN\DEBUG\CONTRACT_H.H
