solid CATIA STL
  facet normal  0.000000e+000  0.000000e+000  1.000000e+000
    outer loop
      vertex  5.000000e-001  3.800000e-001  4.000000e-002
      vertex  7.600000e-001  3.800000e-001  4.000000e-002
      vertex  5.000000e-001  4.000000e-001  4.000000e-002
    endloop
  endfacet
  facet normal  -0.000000e+000  0.000000e+000  1.000000e+000
    outer loop
      vertex  5.000000e-001  4.000000e-001  4.000000e-002
      vertex  7.600000e-001  3.800000e-001  4.000000e-002
      vertex  7.600000e-001  4.000000e-001  4.000000e-002
    endloop
  endfacet
  facet normal -1.000000e+000  0.000000e+000  0.000000e+000
    outer loop
      vertex  7.600000e-001  3.800000e-001  4.000000e-002
      vertex  7.600000e-001  3.800000e-001  3.400000e-001
      vertex  7.600000e-001  4.000000e-001  4.000000e-002
    endloop
  endfacet
  facet normal -1.000000e+000  0.000000e+000  0.000000e+000
    outer loop
      vertex  7.600000e-001  4.000000e-001  4.000000e-002
      vertex  7.600000e-001  3.800000e-001  3.400000e-001
      vertex  7.600000e-001  4.000000e-001  3.400000e-001
    endloop
  endfacet
  facet normal  0.000000e+000  1.000000e+000  0.000000e+000
    outer loop
      vertex -7.600000e-001  3.800000e-001  3.400000e-001
      vertex  7.600000e-001  3.800000e-001  3.400000e-001
      vertex  7.600000e-001  3.800000e-001  4.000000e-002
    endloop
  endfacet
  facet normal  0.000000e+000  1.000000e+000  0.000000e+000
    outer loop
      vertex -7.600000e-001  3.800000e-001  3.400000e-001
      vertex  7.600000e-001  3.800000e-001  4.000000e-002
      vertex  5.000000e-001  3.800000e-001  4.000000e-002
    endloop
  endfacet
  facet normal  0.000000e+000  1.000000e+000  0.000000e+000
    outer loop
      vertex -7.600000e-001  3.800000e-001  3.400000e-001
      vertex  5.000000e-001  3.800000e-001  4.000000e-002
      vertex -5.000000e-001  3.800000e-001  4.000000e-002
    endloop
  endfacet
  facet normal  0.000000e+000  1.000000e+000  0.000000e+000
    outer loop
      vertex -7.600000e-001  3.800000e-001  3.400000e-001
      vertex -5.000000e-001  3.800000e-001  4.000000e-002
      vertex -7.600000e-001  3.800000e-001  4.000000e-002
    endloop
  endfacet
  facet normal -1.000000e+000  0.000000e+000  0.000000e+000
    outer loop
      vertex  5.000000e-001  3.900000e-001  3.400000e-001
      vertex  5.000000e-001  3.900000e-001  3.800000e-001
      vertex  5.000000e-001  4.000000e-001  3.400000e-001
    endloop
  endfacet
  facet normal -1.000000e+000  0.000000e+000  0.000000e+000
    outer loop
      vertex  5.000000e-001  4.000000e-001  3.400000e-001
      vertex  5.000000e-001  3.900000e-001  3.800000e-001
      vertex  5.000000e-001  4.000000e-001  3.800000e-001
    endloop
  endfacet
  facet normal  0.000000e+000  1.000000e+000  0.000000e+000
    outer loop
      vertex  5.000000e-001  4.000000e-001  3.400000e-001
      vertex  5.000000e-001  4.000000e-001  3.800000e-001
      vertex  7.600000e-001  4.000000e-001  3.400000e-001
    endloop
  endfacet
  facet normal  0.000000e+000  1.000000e+000  -0.000000e+000
    outer loop
      vertex  7.600000e-001  4.000000e-001  3.400000e-001
      vertex  5.000000e-001  4.000000e-001  3.800000e-001
      vertex  8.000000e-001  4.000000e-001  3.800000e-001
    endloop
  endfacet
  facet normal  0.000000e+000  1.000000e+000  0.000000e+000
    outer loop
      vertex  7.600000e-001  4.000000e-001  3.400000e-001
      vertex  8.000000e-001  4.000000e-001  3.800000e-001
      vertex  7.600000e-001  4.000000e-001  4.000000e-002
    endloop
  endfacet
  facet normal  -0.000000e+000  1.000000e+000  0.000000e+000
    outer loop
      vertex  7.600000e-001  4.000000e-001  4.000000e-002
      vertex  8.000000e-001  4.000000e-001  3.800000e-001
      vertex  8.000000e-001  4.000000e-001  0.000000e+000
    endloop
  endfacet
  facet normal  0.000000e+000  1.000000e+000  0.000000e+000
    outer loop
      vertex  7.600000e-001  4.000000e-001  4.000000e-002
      vertex  8.000000e-001  4.000000e-001  0.000000e+000
      vertex  5.000000e-001  4.000000e-001  4.000000e-002
    endloop
  endfacet
  facet normal  0.000000e+000  1.000000e+000  0.000000e+000
    outer loop
      vertex  5.000000e-001  4.000000e-001  4.000000e-002
      vertex  8.000000e-001  4.000000e-001  0.000000e+000
      vertex  5.000000e-001  4.000000e-001  0.000000e+000
    endloop
  endfacet
  facet normal  1.000000e+000  0.000000e+000  0.000000e+000
    outer loop
      vertex  8.000000e-001 -4.000000e-001  3.800000e-001
      vertex  8.000000e-001 -4.000000e-001  0.000000e+000
      vertex  8.000000e-001  4.000000e-001  3.800000e-001
    endloop
  endfacet
  facet normal  1.000000e+000  0.000000e+000  0.000000e+000
    outer loop
      vertex  8.000000e-001  4.000000e-001  3.800000e-001
      vertex  8.000000e-001 -4.000000e-001  0.000000e+000
      vertex  8.000000e-001  4.000000e-001  0.000000e+000
    endloop
  endfacet
  facet normal  0.000000e+000  0.000000e+000 -1.000000e+000
    outer loop
      vertex  8.000000e-001 -4.000000e-001  0.000000e+000
      vertex  5.000000e-001 -4.000000e-001  0.000000e+000
      vertex  8.000000e-001  4.000000e-001  0.000000e+000
    endloop
  endfacet
  facet normal  -0.000000e+000  0.000000e+000 -1.000000e+000
    outer loop
      vertex  8.000000e-001  4.000000e-001  0.000000e+000
      vertex  5.000000e-001 -4.000000e-001  0.000000e+000
      vertex  5.000000e-001  4.000000e-001  0.000000e+000
    endloop
  endfacet
  facet normal -1.000000e+000  -0.000000e+000  0.000000e+000
    outer loop
      vertex  5.000000e-001 -4.000000e-001  4.000000e-002
      vertex  5.000000e-001 -3.800000e-001  4.000000e-002
      vertex  5.000000e-001 -4.000000e-001  0.000000e+000
    endloop
  endfacet
  facet normal -1.000000e+000  0.000000e+000  -0.000000e+000
    outer loop
      vertex  5.000000e-001 -4.000000e-001  0.000000e+000
      vertex  5.000000e-001 -3.800000e-001  4.000000e-002
      vertex  5.000000e-001  4.000000e-001  0.000000e+000
    endloop
  endfacet
  facet normal -1.000000e+000  0.000000e+000  0.000000e+000
    outer loop
      vertex  5.000000e-001  4.000000e-001  0.000000e+000
      vertex  5.000000e-001 -3.800000e-001  4.000000e-002
      vertex  5.000000e-001  3.800000e-001  4.000000e-002
    endloop
  endfacet
  facet normal -1.000000e+000  0.000000e+000  0.000000e+000
    outer loop
      vertex  5.000000e-001  4.000000e-001  0.000000e+000
      vertex  5.000000e-001  3.800000e-001  4.000000e-002
      vertex  5.000000e-001  4.000000e-001  4.000000e-002
    endloop
  endfacet
  facet normal  0.000000e+000  0.000000e+000  1.000000e+000
    outer loop
      vertex  5.000000e-001 -4.000000e-001  4.000000e-002
      vertex  7.600000e-001 -4.000000e-001  4.000000e-002
      vertex  5.000000e-001 -3.800000e-001  4.000000e-002
    endloop
  endfacet
  facet normal  -0.000000e+000  0.000000e+000  1.000000e+000
    outer loop
      vertex  5.000000e-001 -3.800000e-001  4.000000e-002
      vertex  7.600000e-001 -4.000000e-001  4.000000e-002
      vertex  7.600000e-001 -3.800000e-001  4.000000e-002
    endloop
  endfacet
  facet normal  0.000000e+000  0.000000e+000 -1.000000e+000
    outer loop
      vertex -5.000000e-001 -3.800000e-001  4.000000e-002
      vertex -5.000000e-001  3.800000e-001  4.000000e-002
      vertex  5.000000e-001 -3.800000e-001  4.000000e-002
    endloop
  endfacet
  facet normal  0.000000e+000  0.000000e+000 -1.000000e+000
    outer loop
      vertex  5.000000e-001 -3.800000e-001  4.000000e-002
      vertex -5.000000e-001  3.800000e-001  4.000000e-002
      vertex  5.000000e-001  3.800000e-001  4.000000e-002
    endloop
  endfacet
  facet normal  0.000000e+000  0.000000e+000  1.000000e+000
    outer loop
      vertex -7.600000e-001  3.800000e-001  4.000000e-002
      vertex -5.000000e-001  3.800000e-001  4.000000e-002
      vertex -7.600000e-001  4.000000e-001  4.000000e-002
    endloop
  endfacet
  facet normal  -0.000000e+000  0.000000e+000  1.000000e+000
    outer loop
      vertex -7.600000e-001  4.000000e-001  4.000000e-002
      vertex -5.000000e-001  3.800000e-001  4.000000e-002
      vertex -5.000000e-001  4.000000e-001  4.000000e-002
    endloop
  endfacet
  facet normal  1.000000e+000  0.000000e+000  0.000000e+000
    outer loop
      vertex -7.600000e-001  3.800000e-001  3.400000e-001
      vertex -7.600000e-001  3.800000e-001  4.000000e-002
      vertex -7.600000e-001  4.000000e-001  3.400000e-001
    endloop
  endfacet
  facet normal  1.000000e+000  0.000000e+000  0.000000e+000
    outer loop
      vertex -7.600000e-001  4.000000e-001  3.400000e-001
      vertex -7.600000e-001  3.800000e-001  4.000000e-002
      vertex -7.600000e-001  4.000000e-001  4.000000e-002
    endloop
  endfacet
  facet normal  0.000000e+000  -0.000000e+000 -1.000000e+000
    outer loop
      vertex  5.000000e-001  3.900000e-001  3.400000e-001
      vertex  7.600000e-001  4.000000e-001  3.400000e-001
      vertex  7.600000e-001  3.800000e-001  3.400000e-001
    endloop
  endfacet
  facet normal  0.000000e+000  0.000000e+000 -1.000000e+000
    outer loop
      vertex  5.000000e-001  3.900000e-001  3.400000e-001
      vertex  5.000000e-001  4.000000e-001  3.400000e-001
      vertex  7.600000e-001  4.000000e-001  3.400000e-001
    endloop
  endfacet
  facet normal  -0.000000e+000  -0.000000e+000 -1.000000e+000
    outer loop
      vertex -5.000000e-001  3.900000e-001  3.400000e-001
      vertex  5.000000e-001  3.900000e-001  3.400000e-001
      vertex  7.600000e-001  3.800000e-001  3.400000e-001
    endloop
  endfacet
  facet normal  0.000000e+000  0.000000e+000 -1.000000e+000
    outer loop
      vertex -5.000000e-001  3.900000e-001  3.400000e-001
      vertex  7.600000e-001  3.800000e-001  3.400000e-001
      vertex -7.600000e-001  3.800000e-001  3.400000e-001
    endloop
  endfacet
  facet normal  0.000000e+000  0.000000e+000 -1.000000e+000
    outer loop
      vertex -5.000000e-001  3.900000e-001  3.400000e-001
      vertex -7.600000e-001  3.800000e-001  3.400000e-001
      vertex -7.600000e-001  4.000000e-001  3.400000e-001
    endloop
  endfacet
  facet normal  0.000000e+000  0.000000e+000 -1.000000e+000
    outer loop
      vertex -5.000000e-001  3.900000e-001  3.400000e-001
      vertex -7.600000e-001  4.000000e-001  3.400000e-001
      vertex -5.000000e-001  4.000000e-001  3.400000e-001
    endloop
  endfacet
  facet normal  0.000000e+000  1.000000e+000  0.000000e+000
    outer loop
      vertex -5.000000e-001  3.900000e-001  3.400000e-001
      vertex -5.000000e-001  3.900000e-001  3.800000e-001
      vertex  5.000000e-001  3.900000e-001  3.400000e-001
    endloop
  endfacet
  facet normal  0.000000e+000  1.000000e+000  -0.000000e+000
    outer loop
      vertex  5.000000e-001  3.900000e-001  3.400000e-001
      vertex -5.000000e-001  3.900000e-001  3.800000e-001
      vertex  5.000000e-001  3.900000e-001  3.800000e-001
    endloop
  endfacet
  facet normal  0.000000e+000  8.660256e-001  4.999996e-001
    outer loop
      vertex -5.000000e-001  3.900000e-001  3.800000e-001
      vertex -4.884530e-001  3.784530e-001  4.000000e-001
      vertex  5.000000e-001  3.900000e-001  3.800000e-001
    endloop
  endfacet
  facet normal  0.000000e+000  8.660256e-001  4.999996e-001
    outer loop
      vertex  5.000000e-001  3.900000e-001  3.800000e-001
      vertex -4.884530e-001  3.784530e-001  4.000000e-001
      vertex  4.884530e-001  3.784530e-001  4.000000e-001
    endloop
  endfacet
  facet normal  -0.000000e+000  0.000000e+000  1.000000e+000
    outer loop
      vertex  8.000000e-001  4.000000e-001  3.800000e-001
      vertex  5.000000e-001  4.000000e-001  3.800000e-001
      vertex  5.000000e-001  3.900000e-001  3.800000e-001
    endloop
  endfacet
  facet normal  -0.000000e+000  0.000000e+000  1.000000e+000
    outer loop
      vertex  8.000000e-001  4.000000e-001  3.800000e-001
      vertex  5.000000e-001  3.900000e-001  3.800000e-001
      vertex  5.000000e-001 -3.900000e-001  3.800000e-001
    endloop
  endfacet
  facet normal  -0.000000e+000  0.000000e+000  1.000000e+000
    outer loop
      vertex  8.000000e-001  4.000000e-001  3.800000e-001
      vertex  5.000000e-001 -3.900000e-001  3.800000e-001
      vertex  5.000000e-001 -4.000000e-001  3.800000e-001
    endloop
  endfacet
  facet normal  0.000000e+000  0.000000e+000  1.000000e+000
    outer loop
      vertex  8.000000e-001  4.000000e-001  3.800000e-001
      vertex  5.000000e-001 -4.000000e-001  3.800000e-001
      vertex  8.000000e-001 -4.000000e-001  3.800000e-001
    endloop
  endfacet
  facet normal  8.660256e-001  0.000000e+000  4.999996e-001
    outer loop
      vertex  4.884530e-001 -3.784530e-001  4.000000e-001
      vertex  5.000000e-001 -3.900000e-001  3.800000e-001
      vertex  4.884530e-001  3.784530e-001  4.000000e-001
    endloop
  endfacet
  facet normal  8.660257e-001  0.000000e+000  4.999996e-001
    outer loop
      vertex  4.884530e-001  3.784530e-001  4.000000e-001
      vertex  5.000000e-001 -3.900000e-001  3.800000e-001
      vertex  5.000000e-001  3.900000e-001  3.800000e-001
    endloop
  endfacet
  facet normal  0.000000e+000 -1.000000e+000  0.000000e+000
    outer loop
      vertex  7.600000e-001 -4.000000e-001  3.400000e-001
      vertex  5.000000e-001 -4.000000e-001  3.800000e-001
      vertex  5.000000e-001 -4.000000e-001  3.400000e-001
    endloop
  endfacet
  facet normal  0.000000e+000 -1.000000e+000  0.000000e+000
    outer loop
      vertex  5.000000e-001 -4.000000e-001  3.800000e-001
      vertex  7.600000e-001 -4.000000e-001  3.400000e-001
      vertex  8.000000e-001 -4.000000e-001  3.800000e-001
    endloop
  endfacet
  facet normal  0.000000e+000 -1.000000e+000  0.000000e+000
    outer loop
      vertex  8.000000e-001 -4.000000e-001  3.800000e-001
      vertex  7.600000e-001 -4.000000e-001  3.400000e-001
      vertex  7.600000e-001 -4.000000e-001  4.000000e-002
    endloop
  endfacet
  facet normal  0.000000e+000 -1.000000e+000  0.000000e+000
    outer loop
      vertex  8.000000e-001 -4.000000e-001  3.800000e-001
      vertex  7.600000e-001 -4.000000e-001  4.000000e-002
      vertex  8.000000e-001 -4.000000e-001  0.000000e+000
    endloop
  endfacet
  facet normal  0.000000e+000 -1.000000e+000  0.000000e+000
    outer loop
      vertex  8.000000e-001 -4.000000e-001  0.000000e+000
      vertex  7.600000e-001 -4.000000e-001  4.000000e-002
      vertex  5.000000e-001 -4.000000e-001  4.000000e-002
    endloop
  endfacet
  facet normal  0.000000e+000 -1.000000e+000  0.000000e+000
    outer loop
      vertex  8.000000e-001 -4.000000e-001  0.000000e+000
      vertex  5.000000e-001 -4.000000e-001  4.000000e-002
      vertex  5.000000e-001 -4.000000e-001  0.000000e+000
    endloop
  endfacet
  facet normal -1.000000e+000  0.000000e+000  0.000000e+000
    outer loop
      vertex  7.600000e-001 -4.000000e-001  4.000000e-002
      vertex  7.600000e-001 -4.000000e-001  3.400000e-001
      vertex  7.600000e-001 -3.800000e-001  4.000000e-002
    endloop
  endfacet
  facet normal -1.000000e+000  0.000000e+000  0.000000e+000
    outer loop
      vertex  7.600000e-001 -3.800000e-001  4.000000e-002
      vertex  7.600000e-001 -4.000000e-001  3.400000e-001
      vertex  7.600000e-001 -3.800000e-001  3.400000e-001
    endloop
  endfacet
  facet normal  0.000000e+000 -1.000000e+000  0.000000e+000
    outer loop
      vertex -7.600000e-001 -3.800000e-001  3.400000e-001
      vertex -7.600000e-001 -3.800000e-001  4.000000e-002
      vertex -5.000000e-001 -3.800000e-001  4.000000e-002
    endloop
  endfacet
  facet normal  0.000000e+000 -1.000000e+000  0.000000e+000
    outer loop
      vertex -7.600000e-001 -3.800000e-001  3.400000e-001
      vertex -5.000000e-001 -3.800000e-001  4.000000e-002
      vertex  5.000000e-001 -3.800000e-001  4.000000e-002
    endloop
  endfacet
  facet normal  0.000000e+000 -1.000000e+000  0.000000e+000
    outer loop
      vertex -7.600000e-001 -3.800000e-001  3.400000e-001
      vertex  5.000000e-001 -3.800000e-001  4.000000e-002
      vertex  7.600000e-001 -3.800000e-001  4.000000e-002
    endloop
  endfacet
  facet normal  0.000000e+000 -1.000000e+000  0.000000e+000
    outer loop
      vertex -7.600000e-001 -3.800000e-001  3.400000e-001
      vertex  7.600000e-001 -3.800000e-001  4.000000e-002
      vertex  7.600000e-001 -3.800000e-001  3.400000e-001
    endloop
  endfacet
  facet normal  0.000000e+000  0.000000e+000  1.000000e+000
    outer loop
      vertex -7.600000e-001 -4.000000e-001  4.000000e-002
      vertex -5.000000e-001 -4.000000e-001  4.000000e-002
      vertex -7.600000e-001 -3.800000e-001  4.000000e-002
    endloop
  endfacet
  facet normal  -0.000000e+000  0.000000e+000  1.000000e+000
    outer loop
      vertex -7.600000e-001 -3.800000e-001  4.000000e-002
      vertex -5.000000e-001 -4.000000e-001  4.000000e-002
      vertex -5.000000e-001 -3.800000e-001  4.000000e-002
    endloop
  endfacet
  facet normal  1.000000e+000  0.000000e+000  0.000000e+000
    outer loop
      vertex -5.000000e-001 -4.000000e-001  0.000000e+000
      vertex -5.000000e-001 -3.800000e-001  4.000000e-002
      vertex -5.000000e-001 -4.000000e-001  4.000000e-002
    endloop
  endfacet
  facet normal  1.000000e+000  0.000000e+000  0.000000e+000
    outer loop
      vertex -5.000000e-001 -3.800000e-001  4.000000e-002
      vertex -5.000000e-001 -4.000000e-001  0.000000e+000
      vertex -5.000000e-001  3.800000e-001  4.000000e-002
    endloop
  endfacet
  facet normal  1.000000e+000  0.000000e+000  0.000000e+000
    outer loop
      vertex -5.000000e-001  3.800000e-001  4.000000e-002
      vertex -5.000000e-001 -4.000000e-001  0.000000e+000
      vertex -5.000000e-001  4.000000e-001  0.000000e+000
    endloop
  endfacet
  facet normal  1.000000e+000  0.000000e+000  -0.000000e+000
    outer loop
      vertex -5.000000e-001  3.800000e-001  4.000000e-002
      vertex -5.000000e-001  4.000000e-001  0.000000e+000
      vertex -5.000000e-001  4.000000e-001  4.000000e-002
    endloop
  endfacet
  facet normal  0.000000e+000  0.000000e+000 -1.000000e+000
    outer loop
      vertex -5.000000e-001 -4.000000e-001  0.000000e+000
      vertex -8.000000e-001 -4.000000e-001  0.000000e+000
      vertex -5.000000e-001  4.000000e-001  0.000000e+000
    endloop
  endfacet
  facet normal  -0.000000e+000  0.000000e+000 -1.000000e+000
    outer loop
      vertex -5.000000e-001  4.000000e-001  0.000000e+000
      vertex -8.000000e-001 -4.000000e-001  0.000000e+000
      vertex -8.000000e-001  4.000000e-001  0.000000e+000
    endloop
  endfacet
  facet normal  0.000000e+000  1.000000e+000  -0.000000e+000
    outer loop
      vertex -5.000000e-001  4.000000e-001  3.800000e-001
      vertex -5.000000e-001  4.000000e-001  3.400000e-001
      vertex -8.000000e-001  4.000000e-001  3.800000e-001
    endloop
  endfacet
  facet normal  0.000000e+000  1.000000e+000  0.000000e+000
    outer loop
      vertex -8.000000e-001  4.000000e-001  3.800000e-001
      vertex -5.000000e-001  4.000000e-001  3.400000e-001
      vertex -7.600000e-001  4.000000e-001  3.400000e-001
    endloop
  endfacet
  facet normal  0.000000e+000  1.000000e+000  0.000000e+000
    outer loop
      vertex -8.000000e-001  4.000000e-001  3.800000e-001
      vertex -7.600000e-001  4.000000e-001  3.400000e-001
      vertex -8.000000e-001  4.000000e-001  0.000000e+000
    endloop
  endfacet
  facet normal  0.000000e+000  1.000000e+000  0.000000e+000
    outer loop
      vertex -8.000000e-001  4.000000e-001  0.000000e+000
      vertex -7.600000e-001  4.000000e-001  3.400000e-001
      vertex -7.600000e-001  4.000000e-001  4.000000e-002
    endloop
  endfacet
  facet normal  0.000000e+000  1.000000e+000  0.000000e+000
    outer loop
      vertex -8.000000e-001  4.000000e-001  0.000000e+000
      vertex -7.600000e-001  4.000000e-001  4.000000e-002
      vertex -5.000000e-001  4.000000e-001  0.000000e+000
    endloop
  endfacet
  facet normal  0.000000e+000  1.000000e+000  -0.000000e+000
    outer loop
      vertex -5.000000e-001  4.000000e-001  0.000000e+000
      vertex -7.600000e-001  4.000000e-001  4.000000e-002
      vertex -5.000000e-001  4.000000e-001  4.000000e-002
    endloop
  endfacet
  facet normal  1.000000e+000  0.000000e+000  0.000000e+000
    outer loop
      vertex -5.000000e-001  3.900000e-001  3.800000e-001
      vertex -5.000000e-001  3.900000e-001  3.400000e-001
      vertex -5.000000e-001  4.000000e-001  3.800000e-001
    endloop
  endfacet
  facet normal  1.000000e+000  0.000000e+000  0.000000e+000
    outer loop
      vertex -5.000000e-001  4.000000e-001  3.800000e-001
      vertex -5.000000e-001  3.900000e-001  3.400000e-001
      vertex -5.000000e-001  4.000000e-001  3.400000e-001
    endloop
  endfacet
  facet normal -8.660257e-001  0.000000e+000  4.999996e-001
    outer loop
      vertex -5.000000e-001 -3.900000e-001  3.800000e-001
      vertex -4.884530e-001 -3.784530e-001  4.000000e-001
      vertex -5.000000e-001  3.900000e-001  3.800000e-001
    endloop
  endfacet
  facet normal -8.660256e-001  0.000000e+000  4.999996e-001
    outer loop
      vertex -5.000000e-001  3.900000e-001  3.800000e-001
      vertex -4.884530e-001 -3.784530e-001  4.000000e-001
      vertex -4.884530e-001  3.784530e-001  4.000000e-001
    endloop
  endfacet
  facet normal -1.000000e+000  0.000000e+000  0.000000e+000
    outer loop
      vertex  5.000000e-001 -4.000000e-001  3.400000e-001
      vertex  5.000000e-001 -4.000000e-001  3.800000e-001
      vertex  5.000000e-001 -3.900000e-001  3.400000e-001
    endloop
  endfacet
  facet normal -1.000000e+000  0.000000e+000  0.000000e+000
    outer loop
      vertex  5.000000e-001 -3.900000e-001  3.400000e-001
      vertex  5.000000e-001 -4.000000e-001  3.800000e-001
      vertex  5.000000e-001 -3.900000e-001  3.800000e-001
    endloop
  endfacet
  facet normal  0.000000e+000 -8.660256e-001  4.999996e-001
    outer loop
      vertex -4.884530e-001 -3.784530e-001  4.000000e-001
      vertex -5.000000e-001 -3.900000e-001  3.800000e-001
      vertex  4.884530e-001 -3.784530e-001  4.000000e-001
    endloop
  endfacet
  facet normal  0.000000e+000 -8.660256e-001  4.999996e-001
    outer loop
      vertex  4.884530e-001 -3.784530e-001  4.000000e-001
      vertex -5.000000e-001 -3.900000e-001  3.800000e-001
      vertex  5.000000e-001 -3.900000e-001  3.800000e-001
    endloop
  endfacet
  facet normal  0.000000e+000  0.000000e+000 -1.000000e+000
    outer loop
      vertex  7.600000e-001 -3.800000e-001  3.400000e-001
      vertex  5.000000e-001 -3.900000e-001  3.400000e-001
      vertex -7.600000e-001 -3.800000e-001  3.400000e-001
    endloop
  endfacet
  facet normal  0.000000e+000  0.000000e+000 -1.000000e+000
    outer loop
      vertex  7.600000e-001 -3.800000e-001  3.400000e-001
      vertex  7.600000e-001 -4.000000e-001  3.400000e-001
      vertex  5.000000e-001 -3.900000e-001  3.400000e-001
    endloop
  endfacet
  facet normal  0.000000e+000  0.000000e+000 -1.000000e+000
    outer loop
      vertex  5.000000e-001 -3.900000e-001  3.400000e-001
      vertex  7.600000e-001 -4.000000e-001  3.400000e-001
      vertex  5.000000e-001 -4.000000e-001  3.400000e-001
    endloop
  endfacet
  facet normal  0.000000e+000  0.000000e+000 -1.000000e+000
    outer loop
      vertex -5.000000e-001 -4.000000e-001  3.400000e-001
      vertex -7.600000e-001 -4.000000e-001  3.400000e-001
      vertex -5.000000e-001 -3.900000e-001  3.400000e-001
    endloop
  endfacet
  facet normal  -0.000000e+000  0.000000e+000 -1.000000e+000
    outer loop
      vertex -5.000000e-001 -3.900000e-001  3.400000e-001
      vertex -7.600000e-001 -4.000000e-001  3.400000e-001
      vertex -7.600000e-001 -3.800000e-001  3.400000e-001
    endloop
  endfacet
  facet normal  0.000000e+000  0.000000e+000 -1.000000e+000
    outer loop
      vertex -5.000000e-001 -3.900000e-001  3.400000e-001
      vertex -7.600000e-001 -3.800000e-001  3.400000e-001
      vertex  5.000000e-001 -3.900000e-001  3.400000e-001
    endloop
  endfacet
  facet normal  0.000000e+000 -1.000000e+000  0.000000e+000
    outer loop
      vertex -8.000000e-001 -4.000000e-001  3.800000e-001
      vertex -5.000000e-001 -4.000000e-001  3.400000e-001
      vertex -5.000000e-001 -4.000000e-001  3.800000e-001
    endloop
  endfacet
  facet normal  0.000000e+000 -1.000000e+000  0.000000e+000
    outer loop
      vertex -5.000000e-001 -4.000000e-001  3.400000e-001
      vertex -8.000000e-001 -4.000000e-001  3.800000e-001
      vertex -7.600000e-001 -4.000000e-001  3.400000e-001
    endloop
  endfacet
  facet normal  -0.000000e+000 -1.000000e+000  0.000000e+000
    outer loop
      vertex -7.600000e-001 -4.000000e-001  3.400000e-001
      vertex -8.000000e-001 -4.000000e-001  3.800000e-001
      vertex -8.000000e-001 -4.000000e-001  0.000000e+000
    endloop
  endfacet
  facet normal  0.000000e+000 -1.000000e+000  0.000000e+000
    outer loop
      vertex -7.600000e-001 -4.000000e-001  3.400000e-001
      vertex -8.000000e-001 -4.000000e-001  0.000000e+000
      vertex -7.600000e-001 -4.000000e-001  4.000000e-002
    endloop
  endfacet
  facet normal  0.000000e+000 -1.000000e+000  -0.000000e+000
    outer loop
      vertex -7.600000e-001 -4.000000e-001  4.000000e-002
      vertex -8.000000e-001 -4.000000e-001  0.000000e+000
      vertex -5.000000e-001 -4.000000e-001  0.000000e+000
    endloop
  endfacet
  facet normal  0.000000e+000 -1.000000e+000  0.000000e+000
    outer loop
      vertex -7.600000e-001 -4.000000e-001  4.000000e-002
      vertex -5.000000e-001 -4.000000e-001  0.000000e+000
      vertex -5.000000e-001 -4.000000e-001  4.000000e-002
    endloop
  endfacet
  facet normal  0.000000e+000  0.000000e+000  1.000000e+000
    outer loop
      vertex -5.000000e-001 -4.000000e-001  3.800000e-001
      vertex -5.000000e-001 -3.900000e-001  3.800000e-001
      vertex -8.000000e-001 -4.000000e-001  3.800000e-001
    endloop
  endfacet
  facet normal  0.000000e+000  0.000000e+000  1.000000e+000
    outer loop
      vertex -8.000000e-001 -4.000000e-001  3.800000e-001
      vertex -5.000000e-001 -3.900000e-001  3.800000e-001
      vertex -8.000000e-001  4.000000e-001  3.800000e-001
    endloop
  endfacet
  facet normal  0.000000e+000  0.000000e+000  1.000000e+000
    outer loop
      vertex -8.000000e-001  4.000000e-001  3.800000e-001
      vertex -5.000000e-001 -3.900000e-001  3.800000e-001
      vertex -5.000000e-001  3.900000e-001  3.800000e-001
    endloop
  endfacet
  facet normal  0.000000e+000  -0.000000e+000  1.000000e+000
    outer loop
      vertex -8.000000e-001  4.000000e-001  3.800000e-001
      vertex -5.000000e-001  3.900000e-001  3.800000e-001
      vertex -5.000000e-001  4.000000e-001  3.800000e-001
    endloop
  endfacet
  facet normal  0.000000e+000 -1.000000e+000  0.000000e+000
    outer loop
      vertex -5.000000e-001 -3.900000e-001  3.800000e-001
      vertex -5.000000e-001 -3.900000e-001  3.400000e-001
      vertex  5.000000e-001 -3.900000e-001  3.800000e-001
    endloop
  endfacet
  facet normal  0.000000e+000 -1.000000e+000  -0.000000e+000
    outer loop
      vertex  5.000000e-001 -3.900000e-001  3.800000e-001
      vertex -5.000000e-001 -3.900000e-001  3.400000e-001
      vertex  5.000000e-001 -3.900000e-001  3.400000e-001
    endloop
  endfacet
  facet normal  0.000000e+000  0.000000e+000  9.999999e-001
    outer loop
      vertex -4.884530e-001 -3.784530e-001  4.000000e-001
      vertex  4.884530e-001 -3.784530e-001  4.000000e-001
      vertex -4.884530e-001  3.784530e-001  4.000000e-001
    endloop
  endfacet
  facet normal  -0.000000e+000  0.000000e+000  9.999999e-001
    outer loop
      vertex -4.884530e-001  3.784530e-001  4.000000e-001
      vertex  4.884530e-001 -3.784530e-001  4.000000e-001
      vertex  4.884530e-001  3.784530e-001  4.000000e-001
    endloop
  endfacet
  facet normal -1.000000e+000  0.000000e+000  0.000000e+000
    outer loop
      vertex -8.000000e-001 -4.000000e-001  0.000000e+000
      vertex -8.000000e-001 -4.000000e-001  3.800000e-001
      vertex -8.000000e-001  4.000000e-001  0.000000e+000
    endloop
  endfacet
  facet normal -1.000000e+000  0.000000e+000  0.000000e+000
    outer loop
      vertex -8.000000e-001  4.000000e-001  0.000000e+000
      vertex -8.000000e-001 -4.000000e-001  3.800000e-001
      vertex -8.000000e-001  4.000000e-001  3.800000e-001
    endloop
  endfacet
  facet normal  1.000000e+000  0.000000e+000  0.000000e+000
    outer loop
      vertex -7.600000e-001 -4.000000e-001  3.400000e-001
      vertex -7.600000e-001 -4.000000e-001  4.000000e-002
      vertex -7.600000e-001 -3.800000e-001  3.400000e-001
    endloop
  endfacet
  facet normal  1.000000e+000  0.000000e+000  0.000000e+000
    outer loop
      vertex -7.600000e-001 -3.800000e-001  3.400000e-001
      vertex -7.600000e-001 -4.000000e-001  4.000000e-002
      vertex -7.600000e-001 -3.800000e-001  4.000000e-002
    endloop
  endfacet
  facet normal  1.000000e+000  0.000000e+000  0.000000e+000
    outer loop
      vertex -5.000000e-001 -4.000000e-001  3.800000e-001
      vertex -5.000000e-001 -4.000000e-001  3.400000e-001
      vertex -5.000000e-001 -3.900000e-001  3.800000e-001
    endloop
  endfacet
  facet normal  1.000000e+000  0.000000e+000  0.000000e+000
    outer loop
      vertex -5.000000e-001 -3.900000e-001  3.800000e-001
      vertex -5.000000e-001 -4.000000e-001  3.400000e-001
      vertex -5.000000e-001 -3.900000e-001  3.400000e-001
    endloop
  endfacet
endsolid CATIA STL
