solid CATIA STL
  facet normal  3.826835e-001  -0.000000e+000  9.238796e-001
    outer loop
      vertex -1.000000e+000  4.800000e-001  2.981373e-001
      vertex -1.000000e+000 -4.470349e-010  2.981373e-001
      vertex -7.891851e-001  4.800000e-001  2.108149e-001
    endloop
  endfacet
  facet normal  3.826835e-001  0.000000e+000  9.238796e-001
    outer loop
      vertex -7.891851e-001  4.800000e-001  2.108149e-001
      vertex -1.000000e+000 -4.470349e-010  2.981373e-001
      vertex -7.891851e-001 -4.470349e-010  2.108149e-001
    endloop
  endfacet
  facet normal  9.238795e-001  -0.000000e+000  3.826835e-001
    outer loop
      vertex -7.891851e-001  4.800000e-001  2.108149e-001
      vertex -7.891851e-001 -4.470349e-010  2.108149e-001
      vertex -7.018627e-001  4.800000e-001  6.920638e-015
    endloop
  endfacet
  facet normal  9.238795e-001  0.000000e+000  3.826835e-001
    outer loop
      vertex -7.018627e-001  4.800000e-001  6.920638e-015
      vertex -7.891851e-001 -4.470349e-010  2.108149e-001
      vertex -7.018627e-001 -4.470349e-010  6.920638e-015
    endloop
  endfacet
  facet normal  9.238795e-001  0.000000e+000 -3.826835e-001
    outer loop
      vertex -7.018627e-001  4.800000e-001  6.920638e-015
      vertex -7.018627e-001 -4.470349e-010  6.920638e-015
      vertex -7.891851e-001  4.800000e-001 -2.108149e-001
    endloop
  endfacet
  facet normal  9.238795e-001  0.000000e+000 -3.826835e-001
    outer loop
      vertex -7.891851e-001  4.800000e-001 -2.108149e-001
      vertex -7.018627e-001 -4.470349e-010  6.920638e-015
      vertex -7.891851e-001 -4.470349e-010 -2.108149e-001
    endloop
  endfacet
  facet normal  3.826835e-001  0.000000e+000 -9.238796e-001
    outer loop
      vertex -7.891851e-001  4.800000e-001 -2.108149e-001
      vertex -7.891851e-001 -4.470349e-010 -2.108149e-001
      vertex -1.000000e+000  4.800000e-001 -2.981373e-001
    endloop
  endfacet
  facet normal  3.826835e-001  0.000000e+000 -9.238796e-001
    outer loop
      vertex -1.000000e+000  4.800000e-001 -2.981373e-001
      vertex -7.891851e-001 -4.470349e-010 -2.108149e-001
      vertex -1.000000e+000 -4.470349e-010 -2.981373e-001
    endloop
  endfacet
  facet normal -1.000000e+000  0.000000e+000  0.000000e+000
    outer loop
      vertex -1.000000e+000 -4.470349e-010 -2.981373e-001
      vertex -1.000000e+000 -4.470349e-010 -2.000000e-001
      vertex -1.000000e+000  4.800000e-001 -2.981373e-001
    endloop
  endfacet
  facet normal -1.000000e+000  0.000000e+000  0.000000e+000
    outer loop
      vertex -1.000000e+000  4.800000e-001 -2.981373e-001
      vertex -1.000000e+000 -4.470349e-010 -2.000000e-001
      vertex -1.000000e+000  4.800000e-001 -2.000000e-001
    endloop
  endfacet
  facet normal  0.000000e+000  1.000000e+000  0.000000e+000
    outer loop
      vertex -1.000000e+000  4.800000e-001 -2.000000e-001
      vertex -8.585786e-001  4.800000e-001 -1.414214e-001
      vertex -1.000000e+000  4.800000e-001 -2.981373e-001
    endloop
  endfacet
  facet normal  0.000000e+000  1.000000e+000  0.000000e+000
    outer loop
      vertex -7.891851e-001  4.800000e-001 -2.108149e-001
      vertex -1.000000e+000  4.800000e-001 -2.981373e-001
      vertex -8.585786e-001  4.800000e-001 -1.414214e-001
    endloop
  endfacet
  facet normal  -0.000000e+000  1.000000e+000  0.000000e+000
    outer loop
      vertex -7.891851e-001  4.800000e-001 -2.108149e-001
      vertex -8.585786e-001  4.800000e-001 -1.414214e-001
      vertex -8.000000e-001  4.800000e-001 -1.224647e-017
    endloop
  endfacet
  facet normal  -0.000000e+000  1.000000e+000  0.000000e+000
    outer loop
      vertex -7.891851e-001  4.800000e-001 -2.108149e-001
      vertex -8.000000e-001  4.800000e-001 -1.224647e-017
      vertex -7.891851e-001  4.800000e-001  2.108149e-001
    endloop
  endfacet
  facet normal  0.000000e+000  9.999999e-001  0.000000e+000
    outer loop
      vertex -7.891851e-001  4.800000e-001 -2.108149e-001
      vertex -7.891851e-001  4.800000e-001  2.108149e-001
      vertex -7.018627e-001  4.800000e-001  6.920638e-015
    endloop
  endfacet
  facet normal  0.000000e+000  1.000000e+000  0.000000e+000
    outer loop
      vertex -1.000000e+000  4.800000e-001  2.000000e-001
      vertex -1.000000e+000  4.800000e-001  2.981373e-001
      vertex -8.585786e-001  4.800000e-001  1.414214e-001
    endloop
  endfacet
  facet normal  0.000000e+000  1.000000e+000  -0.000000e+000
    outer loop
      vertex -8.585786e-001  4.800000e-001  1.414214e-001
      vertex -1.000000e+000  4.800000e-001  2.981373e-001
      vertex -7.891851e-001  4.800000e-001  2.108149e-001
    endloop
  endfacet
  facet normal  0.000000e+000  1.000000e+000  0.000000e+000
    outer loop
      vertex -8.585786e-001  4.800000e-001  1.414214e-001
      vertex -7.891851e-001  4.800000e-001  2.108149e-001
      vertex -8.000000e-001  4.800000e-001 -1.224647e-017
    endloop
  endfacet
  facet normal  0.000000e+000 -1.000000e+000  0.000000e+000
    outer loop
      vertex -1.000000e+000 -4.470349e-010 -2.981373e-001
      vertex -8.585786e-001 -4.470349e-010 -1.414214e-001
      vertex -1.000000e+000 -4.470349e-010 -2.000000e-001
    endloop
  endfacet
  facet normal  -0.000000e+000 -9.999999e-001  0.000000e+000
    outer loop
      vertex -7.891851e-001 -4.470349e-010 -2.108149e-001
      vertex -7.018627e-001 -4.470349e-010  6.920638e-015
      vertex -7.891851e-001 -4.470349e-010  2.108149e-001
    endloop
  endfacet
  facet normal  0.000000e+000 -1.000000e+000  -0.000000e+000
    outer loop
      vertex -7.891851e-001 -4.470349e-010 -2.108149e-001
      vertex -7.891851e-001 -4.470349e-010  2.108149e-001
      vertex -8.000000e-001 -4.470349e-010 -1.224647e-017
    endloop
  endfacet
  facet normal  0.000000e+000 -1.000000e+000  -0.000000e+000
    outer loop
      vertex -7.891851e-001 -4.470349e-010 -2.108149e-001
      vertex -8.000000e-001 -4.470349e-010 -1.224647e-017
      vertex -8.585786e-001 -4.470349e-010 -1.414214e-001
    endloop
  endfacet
  facet normal  0.000000e+000 -1.000000e+000  -0.000000e+000
    outer loop
      vertex -7.891851e-001 -4.470349e-010 -2.108149e-001
      vertex -8.585786e-001 -4.470349e-010 -1.414214e-001
      vertex -1.000000e+000 -4.470349e-010 -2.981373e-001
    endloop
  endfacet
  facet normal  0.000000e+000 -1.000000e+000  0.000000e+000
    outer loop
      vertex -8.000000e-001 -4.470349e-010 -1.224647e-017
      vertex -7.891851e-001 -4.470349e-010  2.108149e-001
      vertex -8.585786e-001 -4.470349e-010  1.414214e-001
    endloop
  endfacet
  facet normal  0.000000e+000 -1.000000e+000  0.000000e+000
    outer loop
      vertex -8.585786e-001 -4.470349e-010  1.414214e-001
      vertex -7.891851e-001 -4.470349e-010  2.108149e-001
      vertex -1.000000e+000 -4.470349e-010  2.981373e-001
    endloop
  endfacet
  facet normal  0.000000e+000 -1.000000e+000  0.000000e+000
    outer loop
      vertex -8.585786e-001 -4.470349e-010  1.414214e-001
      vertex -1.000000e+000 -4.470349e-010  2.981373e-001
      vertex -1.000000e+000 -4.470349e-010  2.000000e-001
    endloop
  endfacet
  facet normal -9.238796e-001  0.000000e+000 -3.826832e-001
    outer loop
      vertex -8.000000e-001  4.800000e-001 -1.224647e-017
      vertex -8.585786e-001 -4.470349e-010  1.414214e-001
      vertex -8.585786e-001  4.800000e-001  1.414214e-001
    endloop
  endfacet
  facet normal -3.826833e-001  -0.000000e+000 -9.238796e-001
    outer loop
      vertex -8.585786e-001  4.800000e-001  1.414214e-001
      vertex -8.585786e-001 -4.470349e-010  1.414214e-001
      vertex -1.000000e+000 -4.470349e-010  2.000000e-001
    endloop
  endfacet
  facet normal -3.826833e-001  0.000000e+000 -9.238796e-001
    outer loop
      vertex -8.585786e-001  4.800000e-001  1.414214e-001
      vertex -1.000000e+000 -4.470349e-010  2.000000e-001
      vertex -1.000000e+000  4.800000e-001  2.000000e-001
    endloop
  endfacet
  facet normal -9.238796e-001  -0.000000e+000 -3.826832e-001
    outer loop
      vertex -8.585786e-001 -4.470349e-010  1.414214e-001
      vertex -8.000000e-001  4.800000e-001 -1.224647e-017
      vertex -8.000000e-001 -4.470349e-010 -1.224647e-017
    endloop
  endfacet
  facet normal -9.238796e-001  0.000000e+000  3.826832e-001
    outer loop
      vertex -8.000000e-001 -4.470349e-010 -1.224647e-017
      vertex -8.000000e-001  4.800000e-001 -1.224647e-017
      vertex -8.585786e-001  4.800000e-001 -1.414214e-001
    endloop
  endfacet
  facet normal -9.238796e-001  0.000000e+000  3.826832e-001
    outer loop
      vertex -8.000000e-001 -4.470349e-010 -1.224647e-017
      vertex -8.585786e-001  4.800000e-001 -1.414214e-001
      vertex -8.585786e-001 -4.470349e-010 -1.414214e-001
    endloop
  endfacet
  facet normal -3.826833e-001  0.000000e+000  9.238796e-001
    outer loop
      vertex -8.585786e-001 -4.470349e-010 -1.414214e-001
      vertex -8.585786e-001  4.800000e-001 -1.414214e-001
      vertex -1.000000e+000  4.800000e-001 -2.000000e-001
    endloop
  endfacet
  facet normal -3.826833e-001  0.000000e+000  9.238796e-001
    outer loop
      vertex -8.585786e-001 -4.470349e-010 -1.414214e-001
      vertex -1.000000e+000  4.800000e-001 -2.000000e-001
      vertex -1.000000e+000 -4.470349e-010 -2.000000e-001
    endloop
  endfacet
  facet normal -1.000000e+000  0.000000e+000  0.000000e+000
    outer loop
      vertex -1.000000e+000 -4.470349e-010  2.000000e-001
      vertex -1.000000e+000 -4.470349e-010  2.981373e-001
      vertex -1.000000e+000  4.800000e-001  2.000000e-001
    endloop
  endfacet
  facet normal -1.000000e+000  0.000000e+000  0.000000e+000
    outer loop
      vertex -1.000000e+000  4.800000e-001  2.000000e-001
      vertex -1.000000e+000 -4.470349e-010  2.981373e-001
      vertex -1.000000e+000  4.800000e-001  2.981373e-001
    endloop
  endfacet
  facet normal -3.826835e-001  0.000000e+000  9.238796e-001
    outer loop
      vertex  1.000000e+000  0.000000e+000  2.981373e-001
      vertex  1.000000e+000  4.800000e-001  2.981373e-001
      vertex  7.891851e-001  0.000000e+000  2.108149e-001
    endloop
  endfacet
  facet normal -3.826835e-001  0.000000e+000  9.238796e-001
    outer loop
      vertex  7.891851e-001  0.000000e+000  2.108149e-001
      vertex  1.000000e+000  4.800000e-001  2.981373e-001
      vertex  7.891851e-001  4.800000e-001  2.108149e-001
    endloop
  endfacet
  facet normal -9.238795e-001  0.000000e+000  3.826835e-001
    outer loop
      vertex  7.891851e-001  0.000000e+000  2.108149e-001
      vertex  7.891851e-001  4.800000e-001  2.108149e-001
      vertex  7.018627e-001  0.000000e+000  6.619328e-015
    endloop
  endfacet
  facet normal -9.238795e-001  5.320971e-015  3.826835e-001
    outer loop
      vertex  7.018627e-001  0.000000e+000  6.619328e-015
      vertex  7.891851e-001  4.800000e-001  2.108149e-001
      vertex  7.018627e-001  4.800000e-001 -5.476694e-017
    endloop
  endfacet
  facet normal -9.238795e-001 -5.320971e-015 -3.826835e-001
    outer loop
      vertex  7.018627e-001  0.000000e+000  6.619328e-015
      vertex  7.018627e-001  4.800000e-001 -5.476694e-017
      vertex  7.891851e-001  0.000000e+000 -2.108149e-001
    endloop
  endfacet
  facet normal -9.238795e-001  0.000000e+000 -3.826835e-001
    outer loop
      vertex  7.891851e-001  0.000000e+000 -2.108149e-001
      vertex  7.018627e-001  4.800000e-001 -5.476694e-017
      vertex  7.891851e-001  4.800000e-001 -2.108149e-001
    endloop
  endfacet
  facet normal -3.826835e-001  -0.000000e+000 -9.238796e-001
    outer loop
      vertex  7.891851e-001  0.000000e+000 -2.108149e-001
      vertex  7.891851e-001  4.800000e-001 -2.108149e-001
      vertex  1.000000e+000  0.000000e+000 -2.981373e-001
    endloop
  endfacet
  facet normal -3.826835e-001  0.000000e+000 -9.238796e-001
    outer loop
      vertex  1.000000e+000  0.000000e+000 -2.981373e-001
      vertex  7.891851e-001  4.800000e-001 -2.108149e-001
      vertex  1.000000e+000  4.800000e-001 -2.981373e-001
    endloop
  endfacet
  facet normal  1.000000e+000  0.000000e+000  0.000000e+000
    outer loop
      vertex  1.000000e+000  0.000000e+000 -2.000000e-001
      vertex  1.000000e+000  0.000000e+000 -2.981373e-001
      vertex  1.000000e+000  4.800000e-001 -2.000000e-001
    endloop
  endfacet
  facet normal  1.000000e+000  0.000000e+000  0.000000e+000
    outer loop
      vertex  1.000000e+000  4.800000e-001 -2.000000e-001
      vertex  1.000000e+000  0.000000e+000 -2.981373e-001
      vertex  1.000000e+000  4.800000e-001 -2.981373e-001
    endloop
  endfacet
  facet normal  0.000000e+000 -1.000000e+000  0.000000e+000
    outer loop
      vertex  7.891851e-001  0.000000e+000 -2.108149e-001
      vertex  1.000000e+000  0.000000e+000 -2.981373e-001
      vertex  1.000000e+000  0.000000e+000 -2.000000e-001
    endloop
  endfacet
  facet normal  -0.000000e+000 -1.000000e+000  0.000000e+000
    outer loop
      vertex  7.891851e-001  0.000000e+000 -2.108149e-001
      vertex  1.000000e+000  0.000000e+000 -2.000000e-001
      vertex  8.585786e-001  0.000000e+000 -1.414214e-001
    endloop
  endfacet
  facet normal  -0.000000e+000 -1.000000e+000  0.000000e+000
    outer loop
      vertex  7.891851e-001  0.000000e+000 -2.108149e-001
      vertex  8.585786e-001  0.000000e+000 -1.414214e-001
      vertex  8.000000e-001  0.000000e+000 -3.673941e-017
    endloop
  endfacet
  facet normal  -0.000000e+000 -1.000000e+000  0.000000e+000
    outer loop
      vertex  7.891851e-001  0.000000e+000 -2.108149e-001
      vertex  8.000000e-001  0.000000e+000 -3.673941e-017
      vertex  7.891851e-001  0.000000e+000  2.108149e-001
    endloop
  endfacet
  facet normal  0.000000e+000 -9.999999e-001  -0.000000e+000
    outer loop
      vertex  7.891851e-001  0.000000e+000 -2.108149e-001
      vertex  7.891851e-001  0.000000e+000  2.108149e-001
      vertex  7.018627e-001  0.000000e+000  6.619328e-015
    endloop
  endfacet
  facet normal  -0.000000e+000 -1.000000e+000  0.000000e+000
    outer loop
      vertex  8.000000e-001  0.000000e+000 -3.673941e-017
      vertex  8.585786e-001  0.000000e+000  1.414214e-001
      vertex  7.891851e-001  0.000000e+000  2.108149e-001
    endloop
  endfacet
  facet normal  0.000000e+000 -1.000000e+000  0.000000e+000
    outer loop
      vertex  7.891851e-001  0.000000e+000  2.108149e-001
      vertex  8.585786e-001  0.000000e+000  1.414214e-001
      vertex  1.000000e+000  0.000000e+000  2.000000e-001
    endloop
  endfacet
  facet normal  0.000000e+000 -1.000000e+000  0.000000e+000
    outer loop
      vertex  7.891851e-001  0.000000e+000  2.108149e-001
      vertex  1.000000e+000  0.000000e+000  2.000000e-001
      vertex  1.000000e+000  0.000000e+000  2.981373e-001
    endloop
  endfacet
  facet normal  0.000000e+000  1.000000e+000  0.000000e+000
    outer loop
      vertex  7.891851e-001  4.800000e-001  2.108149e-001
      vertex  1.000000e+000  4.800000e-001  2.981373e-001
      vertex  1.000000e+000  4.800000e-001  2.000000e-001
    endloop
  endfacet
  facet normal  0.000000e+000  9.999999e-001  0.000000e+000
    outer loop
      vertex  7.891851e-001  4.800000e-001  2.108149e-001
      vertex  1.000000e+000  4.800000e-001  2.000000e-001
      vertex  9.000000e-001  4.800000e-001  1.732051e-001
    endloop
  endfacet
  facet normal  0.000000e+000  1.000000e+000  0.000000e+000
    outer loop
      vertex  7.891851e-001  4.800000e-001  2.108149e-001
      vertex  9.000000e-001  4.800000e-001  1.732051e-001
      vertex  8.267949e-001  4.800000e-001  1.000000e-001
    endloop
  endfacet
  facet normal  0.000000e+000  1.000000e+000  0.000000e+000
    outer loop
      vertex  7.891851e-001  4.800000e-001  2.108149e-001
      vertex  8.267949e-001  4.800000e-001  1.000000e-001
      vertex  8.000000e-001  4.800000e-001 -3.673941e-017
    endloop
  endfacet
  facet normal  0.000000e+000  1.000000e+000  0.000000e+000
    outer loop
      vertex  7.891851e-001  4.800000e-001  2.108149e-001
      vertex  8.000000e-001  4.800000e-001 -3.673941e-017
      vertex  7.891851e-001  4.800000e-001 -2.108149e-001
    endloop
  endfacet
  facet normal  0.000000e+000  9.999999e-001  -0.000000e+000
    outer loop
      vertex  7.891851e-001  4.800000e-001  2.108149e-001
      vertex  7.891851e-001  4.800000e-001 -2.108149e-001
      vertex  7.018627e-001  4.800000e-001 -5.476694e-017
    endloop
  endfacet
  facet normal  0.000000e+000  1.000000e+000  0.000000e+000
    outer loop
      vertex  7.891851e-001  4.800000e-001 -2.108149e-001
      vertex  8.000000e-001  4.800000e-001 -3.673941e-017
      vertex  8.246385e-001  4.800000e-001 -9.616833e-002
    endloop
  endfacet
  facet normal  0.000000e+000  9.999999e-001  0.000000e+000
    outer loop
      vertex  7.891851e-001  4.800000e-001 -2.108149e-001
      vertex  8.246385e-001  4.800000e-001 -9.616833e-002
      vertex  8.924835e-001  4.800000e-001 -1.686422e-001
    endloop
  endfacet
  facet normal  0.000000e+000  9.999999e-001  0.000000e+000
    outer loop
      vertex  7.891851e-001  4.800000e-001 -2.108149e-001
      vertex  8.924835e-001  4.800000e-001 -1.686422e-001
      vertex  1.000000e+000  4.800000e-001 -2.000000e-001
    endloop
  endfacet
  facet normal  0.000000e+000  1.000000e+000  0.000000e+000
    outer loop
      vertex  7.891851e-001  4.800000e-001 -2.108149e-001
      vertex  1.000000e+000  4.800000e-001 -2.000000e-001
      vertex  1.000000e+000  4.800000e-001 -2.981373e-001
    endloop
  endfacet
  facet normal  7.070356e-001 -1.419617e-002 -7.070354e-001
    outer loop
      vertex  8.267949e-001  4.800000e-001  1.000000e-001
      vertex  9.000000e-001  4.800000e-001  1.732051e-001
      vertex  8.585786e-001  0.000000e+000  1.414214e-001
    endloop
  endfacet
  facet normal  2.585951e-001  4.158914e-002 -9.650902e-001
    outer loop
      vertex  8.585786e-001  0.000000e+000  1.414214e-001
      vertex  9.000000e-001  4.800000e-001  1.732051e-001
      vertex  1.000000e+000  4.800000e-001  2.000000e-001
    endloop
  endfacet
  facet normal  3.826833e-001  0.000000e+000 -9.238796e-001
    outer loop
      vertex  8.585786e-001  0.000000e+000  1.414214e-001
      vertex  1.000000e+000  4.800000e-001  2.000000e-001
      vertex  1.000000e+000  0.000000e+000  2.000000e-001
    endloop
  endfacet
  facet normal  7.299762e-001 -1.280893e-002  6.833526e-001
    outer loop
      vertex  8.924835e-001  4.800000e-001 -1.686422e-001
      vertex  8.246385e-001  4.800000e-001 -9.616833e-002
      vertex  8.585786e-001  0.000000e+000 -1.414214e-001
    endloop
  endfacet
  facet normal  9.677289e-001  4.505229e-002  2.479336e-001
    outer loop
      vertex  8.585786e-001  0.000000e+000 -1.414214e-001
      vertex  8.246385e-001  4.800000e-001 -9.616833e-002
      vertex  8.000000e-001  4.800000e-001 -3.673941e-017
    endloop
  endfacet
  facet normal  9.238796e-001  0.000000e+000  3.826832e-001
    outer loop
      vertex  8.585786e-001  0.000000e+000 -1.414214e-001
      vertex  8.000000e-001  4.800000e-001 -3.673941e-017
      vertex  8.000000e-001  0.000000e+000 -3.673941e-017
    endloop
  endfacet
  facet normal  9.659259e-001  0.000000e+000 -2.588190e-001
    outer loop
      vertex  8.000000e-001  0.000000e+000 -3.673941e-017
      vertex  8.000000e-001  4.800000e-001 -3.673941e-017
      vertex  8.267949e-001  4.800000e-001  1.000000e-001
    endloop
  endfacet
  facet normal  9.235137e-001  2.814104e-002 -3.825316e-001
    outer loop
      vertex  8.000000e-001  0.000000e+000 -3.673941e-017
      vertex  8.267949e-001  4.800000e-001  1.000000e-001
      vertex  8.585786e-001  0.000000e+000  1.414214e-001
    endloop
  endfacet
  facet normal  2.798220e-001  3.464394e-002  9.594266e-001
    outer loop
      vertex  8.924835e-001  4.800000e-001 -1.686422e-001
      vertex  8.585786e-001  0.000000e+000 -1.414214e-001
      vertex  1.000000e+000  4.800000e-001 -2.000000e-001
    endloop
  endfacet
  facet normal  3.826833e-001  0.000000e+000  9.238796e-001
    outer loop
      vertex  1.000000e+000  4.800000e-001 -2.000000e-001
      vertex  8.585786e-001  0.000000e+000 -1.414214e-001
      vertex  1.000000e+000  0.000000e+000 -2.000000e-001
    endloop
  endfacet
  facet normal  1.000000e+000  0.000000e+000  0.000000e+000
    outer loop
      vertex  1.000000e+000  0.000000e+000  2.981373e-001
      vertex  1.000000e+000  0.000000e+000  2.000000e-001
      vertex  1.000000e+000  4.800000e-001  2.981373e-001
    endloop
  endfacet
  facet normal  1.000000e+000  0.000000e+000  0.000000e+000
    outer loop
      vertex  1.000000e+000  4.800000e-001  2.981373e-001
      vertex  1.000000e+000  0.000000e+000  2.000000e-001
      vertex  1.000000e+000  4.800000e-001  2.000000e-001
    endloop
  endfacet
  facet normal -1.000000e+000  -0.000000e+000  0.000000e+000
    outer loop
      vertex -1.000000e+000  0.000000e+000 -2.981373e-001
      vertex -1.000000e+000  4.800000e-001 -2.981373e-001
      vertex -1.000000e+000  0.000000e+000 -6.000000e-001
    endloop
  endfacet
  facet normal -1.000000e+000  0.000000e+000  0.000000e+000
    outer loop
      vertex -1.000000e+000  0.000000e+000 -6.000000e-001
      vertex -1.000000e+000  4.800000e-001 -2.981373e-001
      vertex -1.000000e+000  4.800000e-001 -6.000000e-001
    endloop
  endfacet
  facet normal -9.238795e-001  0.000000e+000 -3.826835e-001
    outer loop
      vertex -7.018627e-001  4.800000e-001  6.920638e-015
      vertex -7.891851e-001 -4.470349e-010  2.108149e-001
      vertex -7.891851e-001  4.800000e-001  2.108149e-001
    endloop
  endfacet
  facet normal -3.826835e-001  -0.000000e+000 -9.238796e-001
    outer loop
      vertex -7.891851e-001  4.800000e-001  2.108149e-001
      vertex -7.891851e-001 -4.470349e-010  2.108149e-001
      vertex -1.000000e+000 -4.470349e-010  2.981373e-001
    endloop
  endfacet
  facet normal -3.826835e-001  0.000000e+000 -9.238796e-001
    outer loop
      vertex -7.891851e-001  4.800000e-001  2.108149e-001
      vertex -1.000000e+000 -4.470349e-010  2.981373e-001
      vertex -1.000000e+000  4.800000e-001  2.981373e-001
    endloop
  endfacet
  facet normal -9.238795e-001  -0.000000e+000 -3.826835e-001
    outer loop
      vertex -7.891851e-001 -4.470349e-010  2.108149e-001
      vertex -7.018627e-001  4.800000e-001  6.920638e-015
      vertex -7.018627e-001 -4.470349e-010  6.920638e-015
    endloop
  endfacet
  facet normal -9.238795e-001  0.000000e+000  3.826835e-001
    outer loop
      vertex -7.018627e-001 -4.470349e-010  6.920638e-015
      vertex -7.018627e-001  4.800000e-001  6.920638e-015
      vertex -7.891851e-001  4.800000e-001 -2.108149e-001
    endloop
  endfacet
  facet normal -9.238795e-001  0.000000e+000  3.826835e-001
    outer loop
      vertex -7.018627e-001 -4.470349e-010  6.920638e-015
      vertex -7.891851e-001  4.800000e-001 -2.108149e-001
      vertex -7.891851e-001 -4.470349e-010 -2.108149e-001
    endloop
  endfacet
  facet normal -3.826835e-001  0.000000e+000  9.238796e-001
    outer loop
      vertex -7.891851e-001 -4.470349e-010 -2.108149e-001
      vertex -7.891851e-001  4.800000e-001 -2.108149e-001
      vertex -1.000000e+000  4.800000e-001 -2.981373e-001
    endloop
  endfacet
  facet normal -3.826835e-001  0.000000e+000  9.238796e-001
    outer loop
      vertex -7.891851e-001 -4.470349e-010 -2.108149e-001
      vertex -1.000000e+000  4.800000e-001 -2.981373e-001
      vertex -1.000000e+000  0.000000e+000 -2.981373e-001
    endloop
  endfacet
  facet normal  0.000000e+000  0.000000e+000  1.000000e+000
    outer loop
      vertex  1.000000e+000 -4.470349e-010  6.000000e-001
      vertex  1.000000e+000  4.800000e-001  6.000000e-001
      vertex -1.000000e+000  0.000000e+000  6.000000e-001
    endloop
  endfacet
  facet normal  0.000000e+000  0.000000e+000  1.000000e+000
    outer loop
      vertex -1.000000e+000  0.000000e+000  6.000000e-001
      vertex  1.000000e+000  4.800000e-001  6.000000e-001
      vertex -1.000000e+000  4.800000e-001  6.000000e-001
    endloop
  endfacet
  facet normal  1.000000e+000  0.000000e+000  0.000000e+000
    outer loop
      vertex  1.000000e+000 -4.470349e-010  2.981373e-001
      vertex  1.000000e+000  4.800000e-001  2.981373e-001
      vertex  1.000000e+000 -4.470349e-010  6.000000e-001
    endloop
  endfacet
  facet normal  1.000000e+000  -0.000000e+000  0.000000e+000
    outer loop
      vertex  1.000000e+000 -4.470349e-010  6.000000e-001
      vertex  1.000000e+000  4.800000e-001  2.981373e-001
      vertex  1.000000e+000  4.800000e-001  6.000000e-001
    endloop
  endfacet
  facet normal  0.000000e+000  1.000000e+000  0.000000e+000
    outer loop
      vertex -1.592949e-001  4.800000e-001 -1.163462e-001
      vertex -7.891851e-001  4.800000e-001 -2.108149e-001
      vertex -7.018627e-001  4.800000e-001  6.920638e-015
    endloop
  endfacet
  facet normal  0.000000e+000  1.000000e+000  -0.000000e+000
    outer loop
      vertex  1.256410e-001  4.800000e-001 -1.311866e-001
      vertex  9.250547e-002  4.800000e-001 -2.066763e-001
      vertex  2.267186e-002  4.800000e-001 -2.379100e-001
    endloop
  endfacet
  facet normal  0.000000e+000  1.000000e+000  0.000000e+000
    outer loop
      vertex  1.668738e-001  4.800000e-001 -1.808002e-001
      vertex  7.891851e-001  4.800000e-001 -2.108149e-001
      vertex  1.076952e-001  4.800000e-001 -2.645169e-001
    endloop
  endfacet
  facet normal  -0.000000e+000  1.000000e+000  0.000000e+000
    outer loop
      vertex  1.327791e-002  4.800000e-001 -2.927350e-001
      vertex  1.076952e-001  4.800000e-001 -2.645169e-001
      vertex  7.891851e-001  4.800000e-001 -2.108149e-001
    endloop
  endfacet
  facet normal  0.000000e+000  1.000000e+000  -0.000000e+000
    outer loop
      vertex  1.799145e-001  4.800000e-001  1.957265e-001
      vertex  6.606738e-002  4.800000e-001  5.442458e-002
      vertex -6.633030e-002  4.800000e-001  1.957265e-001
    endloop
  endfacet
  facet normal  0.000000e+000  1.000000e+000  0.000000e+000
    outer loop
      vertex -1.796474e-001  4.800000e-001  2.500000e-001
      vertex  2.557425e-002  4.800000e-001  3.099793e-002
      vertex -7.018627e-001  4.800000e-001  6.920638e-015
    endloop
  endfacet
  facet normal  0.000000e+000  1.000000e+000  -0.000000e+000
    outer loop
      vertex -1.796474e-001  4.800000e-001  2.500000e-001
      vertex -7.018627e-001  4.800000e-001  6.920638e-015
      vertex -7.891851e-001  4.800000e-001  2.108149e-001
    endloop
  endfacet
  facet normal  0.000000e+000  1.000000e+000  -0.000000e+000
    outer loop
      vertex -1.796474e-001  4.800000e-001  2.500000e-001
      vertex -7.891851e-001  4.800000e-001  2.108149e-001
      vertex -1.000000e+000  4.800000e-001  2.981373e-001
    endloop
  endfacet
  facet normal  -0.000000e+000  1.000000e+000  0.000000e+000
    outer loop
      vertex -1.796474e-001  4.800000e-001  2.500000e-001
      vertex -1.000000e+000  4.800000e-001  2.981373e-001
      vertex -1.000000e+000  4.800000e-001  6.000000e-001
    endloop
  endfacet
  facet normal  -0.000000e+000  1.000000e+000  0.000000e+000
    outer loop
      vertex -1.796474e-001  4.800000e-001  2.500000e-001
      vertex -1.000000e+000  4.800000e-001  6.000000e-001
      vertex  1.000000e+000  4.800000e-001  6.000000e-001
    endloop
  endfacet
  facet normal  0.000000e+000  1.000000e+000  0.000000e+000
    outer loop
      vertex -1.796474e-001  4.800000e-001  2.500000e-001
      vertex  1.000000e+000  4.800000e-001  6.000000e-001
      vertex  1.799145e-001  4.800000e-001  2.500000e-001
    endloop
  endfacet
  facet normal  -0.000000e+000  1.000000e+000  0.000000e+000
    outer loop
      vertex  1.731303e-001  4.800000e-001 -1.354267e-001
      vertex  6.606738e-002  4.800000e-001  5.442458e-002
      vertex  1.799145e-001  4.800000e-001  1.957265e-001
    endloop
  endfacet
  facet normal  0.000000e+000  1.000000e+000  0.000000e+000
    outer loop
      vertex  1.731303e-001  4.800000e-001 -1.354267e-001
      vertex  1.799145e-001  4.800000e-001  1.957265e-001
      vertex  7.018627e-001  4.800000e-001 -5.587936e-010
    endloop
  endfacet
  facet normal  0.000000e+000  1.000000e+000  0.000000e+000
    outer loop
      vertex  1.731303e-001  4.800000e-001 -1.354267e-001
      vertex  7.018627e-001  4.800000e-001 -5.587936e-010
      vertex  7.891851e-001  4.800000e-001 -2.108149e-001
    endloop
  endfacet
  facet normal  0.000000e+000  1.000000e+000  0.000000e+000
    outer loop
      vertex  1.731303e-001  4.800000e-001 -1.354267e-001
      vertex  7.891851e-001  4.800000e-001 -2.108149e-001
      vertex  1.668738e-001  4.800000e-001 -1.808002e-001
    endloop
  endfacet
  facet normal  0.000000e+000  1.000000e+000  0.000000e+000
    outer loop
      vertex -1.118056e-001  4.800000e-001 -1.163462e-001
      vertex  1.256410e-001  4.800000e-001 -1.311866e-001
      vertex  2.267186e-002  4.800000e-001 -2.379100e-001
    endloop
  endfacet
  facet normal  0.000000e+000  1.000000e+000  0.000000e+000
    outer loop
      vertex -1.118056e-001  4.800000e-001 -1.163462e-001
      vertex  2.267186e-002  4.800000e-001 -2.379100e-001
      vertex  1.083984e-002  4.800000e-001 -2.384615e-001
    endloop
  endfacet
  facet normal  0.000000e+000  1.000000e+000  0.000000e+000
    outer loop
      vertex -1.118056e-001  4.800000e-001 -1.163462e-001
      vertex  1.083984e-002  4.800000e-001 -2.384615e-001
      vertex -6.470800e-002  4.800000e-001 -2.139997e-001
    endloop
  endfacet
  facet normal  0.000000e+000  1.000000e+000  0.000000e+000
    outer loop
      vertex -1.118056e-001  4.800000e-001 -1.163462e-001
      vertex -6.470800e-002  4.800000e-001 -2.139997e-001
      vertex -1.048114e-001  4.800000e-001 -1.541574e-001
    endloop
  endfacet
  facet normal  0.000000e+000  1.000000e+000  0.000000e+000
    outer loop
      vertex  2.557425e-002  4.800000e-001  3.099793e-002
      vertex  1.256410e-001  4.800000e-001 -1.311866e-001
      vertex -1.118056e-001  4.800000e-001 -1.163462e-001
    endloop
  endfacet
  facet normal  0.000000e+000  1.000000e+000  -0.000000e+000
    outer loop
      vertex  2.557425e-002  4.800000e-001  3.099793e-002
      vertex -1.118056e-001  4.800000e-001 -1.163462e-001
      vertex -1.592949e-001  4.800000e-001 -1.163462e-001
    endloop
  endfacet
  facet normal  0.000000e+000  9.999999e-001  -0.000000e+000
    outer loop
      vertex  2.557425e-002  4.800000e-001  3.099793e-002
      vertex -1.592949e-001  4.800000e-001 -1.163462e-001
      vertex -7.018627e-001  4.800000e-001  6.920638e-015
    endloop
  endfacet
  facet normal  -0.000000e+000  1.000000e+000  0.000000e+000
    outer loop
      vertex -1.000000e+000  4.800000e-001 -6.000000e-001
      vertex -1.000000e+000  4.800000e-001 -2.981373e-001
      vertex -7.891851e-001  4.800000e-001 -2.108149e-001
    endloop
  endfacet
  facet normal  -0.000000e+000  1.000000e+000  0.000000e+000
    outer loop
      vertex -1.000000e+000  4.800000e-001 -6.000000e-001
      vertex -7.891851e-001  4.800000e-001 -2.108149e-001
      vertex -1.592949e-001  4.800000e-001 -1.163462e-001
    endloop
  endfacet
  facet normal  0.000000e+000  9.999999e-001  0.000000e+000
    outer loop
      vertex -1.000000e+000  4.800000e-001 -6.000000e-001
      vertex -1.592949e-001  4.800000e-001 -1.163462e-001
      vertex -1.197799e-001  4.800000e-001 -2.300268e-001
    endloop
  endfacet
  facet normal  0.000000e+000  1.000000e+000  0.000000e+000
    outer loop
      vertex -1.000000e+000  4.800000e-001 -6.000000e-001
      vertex -1.197799e-001  4.800000e-001 -2.300268e-001
      vertex -2.129639e-002  4.800000e-001 -2.896574e-001
    endloop
  endfacet
  facet normal  0.000000e+000  9.999999e-001  0.000000e+000
    outer loop
      vertex -1.000000e+000  4.800000e-001 -6.000000e-001
      vertex -2.129639e-002  4.800000e-001 -2.896574e-001
      vertex  1.327791e-002  4.800000e-001 -2.927350e-001
    endloop
  endfacet
  facet normal  -0.000000e+000  1.000000e+000  0.000000e+000
    outer loop
      vertex -1.000000e+000  4.800000e-001 -6.000000e-001
      vertex  1.327791e-002  4.800000e-001 -2.927350e-001
      vertex  7.891851e-001  4.800000e-001 -2.108149e-001
    endloop
  endfacet
  facet normal  0.000000e+000  1.000000e+000  0.000000e+000
    outer loop
      vertex -1.000000e+000  4.800000e-001 -6.000000e-001
      vertex  7.891851e-001  4.800000e-001 -2.108149e-001
      vertex  1.000000e+000  4.800000e-001 -2.981373e-001
    endloop
  endfacet
  facet normal  0.000000e+000  1.000000e+000  0.000000e+000
    outer loop
      vertex -1.000000e+000  4.800000e-001 -6.000000e-001
      vertex  1.000000e+000  4.800000e-001 -2.981373e-001
      vertex  1.000000e+000  4.800000e-001 -6.000000e-001
    endloop
  endfacet
  facet normal  0.000000e+000  9.999999e-001  -0.000000e+000
    outer loop
      vertex  1.000000e+000  4.800000e-001  6.000000e-001
      vertex  1.000000e+000  4.800000e-001  2.981373e-001
      vertex  1.799145e-001  4.800000e-001  2.500000e-001
    endloop
  endfacet
  facet normal  -0.000000e+000  9.999999e-001  0.000000e+000
    outer loop
      vertex  1.799145e-001  4.800000e-001  2.500000e-001
      vertex  1.000000e+000  4.800000e-001  2.981373e-001
      vertex  7.891851e-001  4.800000e-001  2.108149e-001
    endloop
  endfacet
  facet normal  0.000000e+000  1.000000e+000  0.000000e+000
    outer loop
      vertex  1.799145e-001  4.800000e-001  2.500000e-001
      vertex  7.891851e-001  4.800000e-001  2.108149e-001
      vertex  1.799145e-001  4.800000e-001  1.957265e-001
    endloop
  endfacet
  facet normal  -0.000000e+000  1.000000e+000  0.000000e+000
    outer loop
      vertex  1.799145e-001  4.800000e-001  1.957265e-001
      vertex  7.891851e-001  4.800000e-001  2.108149e-001
      vertex  7.018627e-001  4.800000e-001 -5.587936e-010
    endloop
  endfacet
  facet normal  0.000000e+000  0.000000e+000 -1.000000e+000
    outer loop
      vertex -1.000000e+000  0.000000e+000 -6.000000e-001
      vertex -1.000000e+000  4.800000e-001 -6.000000e-001
      vertex  1.000000e+000 -4.470349e-010 -6.000000e-001
    endloop
  endfacet
  facet normal  0.000000e+000  0.000000e+000 -1.000000e+000
    outer loop
      vertex  1.000000e+000 -4.470349e-010 -6.000000e-001
      vertex -1.000000e+000  4.800000e-001 -6.000000e-001
      vertex  1.000000e+000  4.800000e-001 -6.000000e-001
    endloop
  endfacet
  facet normal  6.134177e-010 -1.000000e+000  1.480921e-009
    outer loop
      vertex -1.000000e+000 -4.470349e-010  2.981373e-001
      vertex -7.891851e-001 -4.470349e-010  2.108149e-001
      vertex -1.000000e+000  0.000000e+000  6.000000e-001
    endloop
  endfacet
  facet normal  0.000000e+000 -1.000000e+000  0.000000e+000
    outer loop
      vertex -7.018627e-001 -4.470349e-010  6.920638e-015
      vertex -7.891851e-001 -4.470349e-010 -2.108149e-001
      vertex  1.000000e+000 -4.470349e-010 -6.000000e-001
    endloop
  endfacet
  facet normal  0.000000e+000 -1.000000e+000  0.000000e+000
    outer loop
      vertex -7.018627e-001 -4.470349e-010  6.920638e-015
      vertex  1.000000e+000 -4.470349e-010 -6.000000e-001
      vertex  1.000000e+000 -4.470349e-010 -2.981373e-001
    endloop
  endfacet
  facet normal  1.554098e-009 -1.000000e+000  8.871284e-009
    outer loop
      vertex -7.018627e-001 -4.470349e-010  6.920638e-015
      vertex  1.000000e+000 -4.470349e-010 -2.981373e-001
      vertex  7.891851e-001  0.000000e+000 -2.108149e-001
    endloop
  endfacet
  facet normal  3.184632e-010 -1.000000e+000  1.319118e-010
    outer loop
      vertex -7.018627e-001 -4.470349e-010  6.920638e-015
      vertex  7.891851e-001  0.000000e+000 -2.108149e-001
      vertex  7.018627e-001  0.000000e+000 -5.587936e-010
    endloop
  endfacet
  facet normal  3.184632e-010 -1.000000e+000  1.319120e-010
    outer loop
      vertex -7.018627e-001 -4.470349e-010  6.920638e-015
      vertex  7.018627e-001  0.000000e+000 -5.587936e-010
      vertex -7.891851e-001 -4.470349e-010  2.108149e-001
    endloop
  endfacet
  facet normal -2.120509e-009 -1.000000e+000  0.000000e+000
    outer loop
      vertex -1.000000e+000  0.000000e+000 -2.981373e-001
      vertex -1.000000e+000  0.000000e+000 -6.000000e-001
      vertex -7.891851e-001 -4.470349e-010 -2.108149e-001
    endloop
  endfacet
  facet normal -2.235174e-010 -9.999999e-001 -1.027568e-009
    outer loop
      vertex -7.891851e-001 -4.470349e-010 -2.108149e-001
      vertex -1.000000e+000  0.000000e+000 -6.000000e-001
      vertex  1.000000e+000 -4.470349e-010 -6.000000e-001
    endloop
  endfacet
  facet normal -2.235174e-010 -1.000000e+000  0.000000e+000
    outer loop
      vertex  1.000000e+000 -4.470349e-010  6.000000e-001
      vertex -1.000000e+000  0.000000e+000  6.000000e-001
      vertex  1.000000e+000 -4.470349e-010  2.981373e-001
    endloop
  endfacet
  facet normal -7.301404e-010 -1.000000e+000 -3.356645e-009
    outer loop
      vertex  1.000000e+000 -4.470349e-010  2.981373e-001
      vertex -1.000000e+000  0.000000e+000  6.000000e-001
      vertex  7.891851e-001  0.000000e+000  2.108149e-001
    endloop
  endfacet
  facet normal  2.832256e-010 -1.000000e+000  1.302062e-009
    outer loop
      vertex -1.000000e+000  0.000000e+000  6.000000e-001
      vertex -7.891851e-001 -4.470349e-010  2.108149e-001
      vertex  7.891851e-001  0.000000e+000  2.108149e-001
    endloop
  endfacet
  facet normal  2.832256e-010 -1.000000e+000 -1.173159e-010
    outer loop
      vertex  7.891851e-001  0.000000e+000  2.108149e-001
      vertex -7.891851e-001 -4.470349e-010  2.108149e-001
      vertex  7.018627e-001  0.000000e+000 -5.587936e-010
    endloop
  endfacet
  facet normal  9.238795e-001  -0.000000e+000  3.826835e-001
    outer loop
      vertex  7.018627e-001  4.800000e-001 -5.587936e-010
      vertex  7.891851e-001  0.000000e+000 -2.108149e-001
      vertex  7.891851e-001  4.800000e-001 -2.108149e-001
    endloop
  endfacet
  facet normal  3.826835e-001  0.000000e+000  9.238796e-001
    outer loop
      vertex  7.891851e-001  4.800000e-001 -2.108149e-001
      vertex  7.891851e-001  0.000000e+000 -2.108149e-001
      vertex  1.000000e+000 -4.470349e-010 -2.981373e-001
    endloop
  endfacet
  facet normal  3.826835e-001  -0.000000e+000  9.238796e-001
    outer loop
      vertex  7.891851e-001  4.800000e-001 -2.108149e-001
      vertex  1.000000e+000 -4.470349e-010 -2.981373e-001
      vertex  1.000000e+000  4.800000e-001 -2.981373e-001
    endloop
  endfacet
  facet normal  9.238795e-001  0.000000e+000  3.826835e-001
    outer loop
      vertex  7.891851e-001  0.000000e+000 -2.108149e-001
      vertex  7.018627e-001  4.800000e-001 -5.587936e-010
      vertex  7.018627e-001  0.000000e+000 -5.587936e-010
    endloop
  endfacet
  facet normal  9.238795e-001  0.000000e+000 -3.826835e-001
    outer loop
      vertex  7.018627e-001  0.000000e+000 -5.587936e-010
      vertex  7.018627e-001  4.800000e-001 -5.587936e-010
      vertex  7.891851e-001  4.800000e-001  2.108149e-001
    endloop
  endfacet
  facet normal  9.238795e-001  0.000000e+000 -3.826835e-001
    outer loop
      vertex  7.018627e-001  0.000000e+000 -5.587936e-010
      vertex  7.891851e-001  4.800000e-001  2.108149e-001
      vertex  7.891851e-001  0.000000e+000  2.108149e-001
    endloop
  endfacet
  facet normal  3.826835e-001  0.000000e+000 -9.238796e-001
    outer loop
      vertex  7.891851e-001  0.000000e+000  2.108149e-001
      vertex  7.891851e-001  4.800000e-001  2.108149e-001
      vertex  1.000000e+000  4.800000e-001  2.981373e-001
    endloop
  endfacet
  facet normal  3.826835e-001  0.000000e+000 -9.238796e-001
    outer loop
      vertex  7.891851e-001  0.000000e+000  2.108149e-001
      vertex  1.000000e+000  4.800000e-001  2.981373e-001
      vertex  1.000000e+000 -4.470349e-010  2.981373e-001
    endloop
  endfacet
  facet normal  0.000000e+000  1.000000e+000  -0.000000e+000
    outer loop
      vertex  2.267186e-002  4.800000e-001 -2.379100e-001
      vertex  1.327791e-002  4.800000e-001 -2.927350e-001
      vertex  1.083984e-002  4.800000e-001 -2.384615e-001
    endloop
  endfacet
  facet normal  0.000000e+000  1.000000e+000  0.000000e+000
    outer loop
      vertex -6.470800e-002  4.800000e-001 -2.139997e-001
      vertex -1.197799e-001  4.800000e-001 -2.300268e-001
      vertex -1.048114e-001  4.800000e-001 -1.541574e-001
    endloop
  endfacet
  facet normal  0.000000e+000  1.000000e+000  0.000000e+000
    outer loop
      vertex -1.048114e-001  4.800000e-001 -1.541574e-001
      vertex -1.197799e-001  4.800000e-001 -2.300268e-001
      vertex -1.592949e-001  4.800000e-001 -1.163462e-001
    endloop
  endfacet
  facet normal  -0.000000e+000  9.999999e-001  0.000000e+000
    outer loop
      vertex -1.048114e-001  4.800000e-001 -1.541574e-001
      vertex -1.592949e-001  4.800000e-001 -1.163462e-001
      vertex -1.118056e-001  4.800000e-001 -1.163462e-001
    endloop
  endfacet
  facet normal  0.000000e+000  9.999999e-001  0.000000e+000
    outer loop
      vertex  2.557425e-002  4.800000e-001  3.099793e-002
      vertex  1.731303e-001  4.800000e-001 -1.354267e-001
      vertex  1.256410e-001  4.800000e-001 -1.311866e-001
    endloop
  endfacet
  facet normal  0.000000e+000  1.000000e+000  0.000000e+000
    outer loop
      vertex  1.256410e-001  4.800000e-001 -1.311866e-001
      vertex  1.731303e-001  4.800000e-001 -1.354267e-001
      vertex  1.668738e-001  4.800000e-001 -1.808002e-001
    endloop
  endfacet
  facet normal  0.000000e+000  1.000000e+000  0.000000e+000
    outer loop
      vertex  1.256410e-001  4.800000e-001 -1.311866e-001
      vertex  1.668738e-001  4.800000e-001 -1.808002e-001
      vertex  1.076952e-001  4.800000e-001 -2.645169e-001
    endloop
  endfacet
  facet normal  -0.000000e+000  1.000000e+000  0.000000e+000
    outer loop
      vertex  1.731303e-001  4.800000e-001 -1.354267e-001
      vertex  2.557425e-002  4.800000e-001  3.099793e-002
      vertex  6.606738e-002  4.800000e-001  5.442458e-002
    endloop
  endfacet
  facet normal  0.000000e+000  1.000000e+000  0.000000e+000
    outer loop
      vertex  6.606738e-002  4.800000e-001  5.442458e-002
      vertex  2.557425e-002  4.800000e-001  3.099793e-002
      vertex -1.796474e-001  4.800000e-001  2.500000e-001
    endloop
  endfacet
  facet normal  0.000000e+000  1.000000e+000  0.000000e+000
    outer loop
      vertex  6.606738e-002  4.800000e-001  5.442458e-002
      vertex -1.796474e-001  4.800000e-001  2.500000e-001
      vertex -6.633030e-002  4.800000e-001  1.957265e-001
    endloop
  endfacet
  facet normal  0.000000e+000  1.000000e+000  -0.000000e+000
    outer loop
      vertex -6.633030e-002  4.800000e-001  1.957265e-001
      vertex -1.796474e-001  4.800000e-001  2.500000e-001
      vertex  1.799145e-001  4.800000e-001  2.500000e-001
    endloop
  endfacet
  facet normal  0.000000e+000  1.000000e+000  0.000000e+000
    outer loop
      vertex -6.633030e-002  4.800000e-001  1.957265e-001
      vertex  1.799145e-001  4.800000e-001  2.500000e-001
      vertex  1.799145e-001  4.800000e-001  1.957265e-001
    endloop
  endfacet
  facet normal  0.000000e+000  1.000000e+000  -0.000000e+000
    outer loop
      vertex  1.256410e-001  4.800000e-001 -1.311866e-001
      vertex  1.076952e-001  4.800000e-001 -2.645169e-001
      vertex  9.250547e-002  4.800000e-001 -2.066763e-001
    endloop
  endfacet
  facet normal  0.000000e+000  9.999999e-001  0.000000e+000
    outer loop
      vertex  9.250547e-002  4.800000e-001 -2.066763e-001
      vertex  1.076952e-001  4.800000e-001 -2.645169e-001
      vertex  1.327791e-002  4.800000e-001 -2.927350e-001
    endloop
  endfacet
  facet normal  0.000000e+000  9.999999e-001  0.000000e+000
    outer loop
      vertex  9.250547e-002  4.800000e-001 -2.066763e-001
      vertex  1.327791e-002  4.800000e-001 -2.927350e-001
      vertex  2.267186e-002  4.800000e-001 -2.379100e-001
    endloop
  endfacet
  facet normal  0.000000e+000  1.000000e+000  0.000000e+000
    outer loop
      vertex -1.197799e-001  4.800000e-001 -2.300268e-001
      vertex -6.470800e-002  4.800000e-001 -2.139997e-001
      vertex -2.129639e-002  4.800000e-001 -2.896574e-001
    endloop
  endfacet
  facet normal  0.000000e+000  9.999999e-001  -0.000000e+000
    outer loop
      vertex -2.129639e-002  4.800000e-001 -2.896574e-001
      vertex -6.470800e-002  4.800000e-001 -2.139997e-001
      vertex  1.083984e-002  4.800000e-001 -2.384615e-001
    endloop
  endfacet
  facet normal  0.000000e+000  1.000000e+000  0.000000e+000
    outer loop
      vertex -2.129639e-002  4.800000e-001 -2.896574e-001
      vertex  1.083984e-002  4.800000e-001 -2.384615e-001
      vertex  1.327791e-002  4.800000e-001 -2.927350e-001
    endloop
  endfacet
  facet normal -1.000000e+000  -0.000000e+000  0.000000e+000
    outer loop
      vertex -1.000000e+000  0.000000e+000  6.000000e-001
      vertex -1.000000e+000  4.800000e-001  6.000000e-001
      vertex -1.000000e+000 -4.470349e-010  2.981373e-001
    endloop
  endfacet
  facet normal -1.000000e+000  0.000000e+000  0.000000e+000
    outer loop
      vertex -1.000000e+000 -4.470349e-010  2.981373e-001
      vertex -1.000000e+000  4.800000e-001  6.000000e-001
      vertex -1.000000e+000  4.800000e-001  2.981373e-001
    endloop
  endfacet
  facet normal  1.000000e+000  0.000000e+000  0.000000e+000
    outer loop
      vertex  1.000000e+000 -4.470349e-010 -6.000000e-001
      vertex  1.000000e+000  4.800000e-001 -6.000000e-001
      vertex  1.000000e+000 -4.470349e-010 -2.981373e-001
    endloop
  endfacet
  facet normal  1.000000e+000  -0.000000e+000  0.000000e+000
    outer loop
      vertex  1.000000e+000 -4.470349e-010 -2.981373e-001
      vertex  1.000000e+000  4.800000e-001 -6.000000e-001
      vertex  1.000000e+000  4.800000e-001 -2.981373e-001
    endloop
  endfacet
endsolid CATIA STL
