solid CATIA STL
  facet normal -1.565576e-001 -9.124870e-001 -3.779645e-001
    outer loop
      vertex -7.700000e-001 -4.000000e-001  3.000000e-002
      vertex -7.850000e-001 -3.912132e-001  1.500000e-002
      vertex -7.700000e-001 -3.912132e-001  8.786797e-003
    endloop
  endfacet
  facet normal -3.779641e-001 -9.124871e-001 -1.565575e-001
    outer loop
      vertex -7.700000e-001 -4.000000e-001  3.000000e-002
      vertex -7.912132e-001 -3.912132e-001  3.000000e-002
      vertex -7.850000e-001 -3.912132e-001  1.500000e-002
    endloop
  endfacet
  facet normal -3.574063e-001 -3.574068e-001 -8.628563e-001
    outer loop
      vertex -7.700000e-001 -3.700000e-001  0.000000e+000
      vertex -7.700000e-001 -3.912132e-001  8.786797e-003
      vertex -7.912132e-001 -3.700000e-001  8.786797e-003
    endloop
  endfacet
  facet normal -3.574059e-001 -3.574064e-001 -8.628567e-001
    outer loop
      vertex -7.912132e-001 -3.700000e-001  8.786797e-003
      vertex -7.700000e-001 -3.912132e-001  8.786797e-003
      vertex -7.850000e-001 -3.912132e-001  1.500000e-002
    endloop
  endfacet
  facet normal -8.628564e-001 -3.574062e-001 -3.574068e-001
    outer loop
      vertex -7.912132e-001 -3.700000e-001  8.786797e-003
      vertex -7.850000e-001 -3.912132e-001  1.500000e-002
      vertex -8.000000e-001 -3.700000e-001  3.000000e-002
    endloop
  endfacet
  facet normal -8.628565e-001 -3.574069e-001 -3.574060e-001
    outer loop
      vertex -8.000000e-001 -3.700000e-001  3.000000e-002
      vertex -7.850000e-001 -3.912132e-001  1.500000e-002
      vertex -7.912132e-001 -3.912132e-001  3.000000e-002
    endloop
  endfacet
  facet normal -9.238796e-001 -3.826835e-001  0.000000e+000
    outer loop
      vertex -8.000000e-001 -3.700000e-001  5.700000e-001
      vertex -8.000000e-001 -3.700000e-001  3.000000e-002
      vertex -7.912132e-001 -3.912132e-001  5.700000e-001
    endloop
  endfacet
  facet normal -9.238796e-001 -3.826835e-001  -0.000000e+000
    outer loop
      vertex -7.912132e-001 -3.912132e-001  5.700000e-001
      vertex -8.000000e-001 -3.700000e-001  3.000000e-002
      vertex -7.912132e-001 -3.912132e-001  3.000000e-002
    endloop
  endfacet
  facet normal -3.826830e-001 -9.238797e-001  0.000000e+000
    outer loop
      vertex -7.912132e-001 -3.912132e-001  5.700000e-001
      vertex -7.912132e-001 -3.912132e-001  3.000000e-002
      vertex -7.700000e-001 -4.000000e-001  5.700000e-001
    endloop
  endfacet
  facet normal -3.826830e-001 -9.238797e-001  -0.000000e+000
    outer loop
      vertex -7.700000e-001 -4.000000e-001  5.700000e-001
      vertex -7.912132e-001 -3.912132e-001  3.000000e-002
      vertex -7.700000e-001 -4.000000e-001  3.000000e-002
    endloop
  endfacet
  facet normal -3.779640e-001 -9.124872e-001  1.565576e-001
    outer loop
      vertex -7.700000e-001 -4.000000e-001  5.700000e-001
      vertex -7.850000e-001 -3.912132e-001  5.850000e-001
      vertex -7.912132e-001 -3.912132e-001  5.700000e-001
    endloop
  endfacet
  facet normal -1.565585e-001 -9.124870e-001  3.779640e-001
    outer loop
      vertex -7.700000e-001 -4.000000e-001  5.700000e-001
      vertex -7.700000e-001 -3.912132e-001  5.912132e-001
      vertex -7.850000e-001 -3.912132e-001  5.850000e-001
    endloop
  endfacet
  facet normal -8.628563e-001 -3.574068e-001  3.574063e-001
    outer loop
      vertex -8.000000e-001 -3.700000e-001  5.700000e-001
      vertex -7.912132e-001 -3.912132e-001  5.700000e-001
      vertex -7.912132e-001 -3.700000e-001  5.912132e-001
    endloop
  endfacet
  facet normal -8.628564e-001 -3.574068e-001  3.574063e-001
    outer loop
      vertex -7.912132e-001 -3.700000e-001  5.912132e-001
      vertex -7.912132e-001 -3.912132e-001  5.700000e-001
      vertex -7.850000e-001 -3.912132e-001  5.850000e-001
    endloop
  endfacet
  facet normal -3.574062e-001 -3.574081e-001  8.628560e-001
    outer loop
      vertex -7.912132e-001 -3.700000e-001  5.912132e-001
      vertex -7.850000e-001 -3.912132e-001  5.850000e-001
      vertex -7.700000e-001 -3.700000e-001  6.000000e-001
    endloop
  endfacet
  facet normal -3.574080e-001 -3.574066e-001  8.628557e-001
    outer loop
      vertex -7.700000e-001 -3.700000e-001  6.000000e-001
      vertex -7.850000e-001 -3.912132e-001  5.850000e-001
      vertex -7.700000e-001 -3.912132e-001  5.912132e-001
    endloop
  endfacet
  facet normal -3.826830e-001  0.000000e+000  9.238797e-001
    outer loop
      vertex -7.700000e-001 -3.700000e-001  6.000000e-001
      vertex -7.700000e-001  3.700000e-001  6.000000e-001
      vertex -7.912132e-001 -3.700000e-001  5.912132e-001
    endloop
  endfacet
  facet normal -3.826830e-001  0.000000e+000  9.238797e-001
    outer loop
      vertex -7.912132e-001 -3.700000e-001  5.912132e-001
      vertex -7.700000e-001  3.700000e-001  6.000000e-001
      vertex -7.912132e-001  3.700000e-001  5.912132e-001
    endloop
  endfacet
  facet normal -9.238797e-001  0.000000e+000  3.826830e-001
    outer loop
      vertex -7.912132e-001 -3.700000e-001  5.912132e-001
      vertex -7.912132e-001  3.700000e-001  5.912132e-001
      vertex -8.000000e-001 -3.700000e-001  5.700000e-001
    endloop
  endfacet
  facet normal -9.238797e-001  0.000000e+000  3.826830e-001
    outer loop
      vertex -8.000000e-001 -3.700000e-001  5.700000e-001
      vertex -7.912132e-001  3.700000e-001  5.912132e-001
      vertex -8.000000e-001  3.700000e-001  5.700000e-001
    endloop
  endfacet
  facet normal -1.565585e-001  9.124870e-001  3.779640e-001
    outer loop
      vertex -7.700000e-001  4.000000e-001  5.700000e-001
      vertex -7.850000e-001  3.912132e-001  5.850000e-001
      vertex -7.700000e-001  3.912132e-001  5.912132e-001
    endloop
  endfacet
  facet normal -3.779640e-001  9.124872e-001  1.565576e-001
    outer loop
      vertex -7.700000e-001  4.000000e-001  5.700000e-001
      vertex -7.912132e-001  3.912132e-001  5.700000e-001
      vertex -7.850000e-001  3.912132e-001  5.850000e-001
    endloop
  endfacet
  facet normal -8.628564e-001  3.574069e-001  3.574063e-001
    outer loop
      vertex -7.912132e-001  3.912132e-001  5.700000e-001
      vertex -8.000000e-001  3.700000e-001  5.700000e-001
      vertex -7.850000e-001  3.912132e-001  5.850000e-001
    endloop
  endfacet
  facet normal -8.628563e-001  3.574068e-001  3.574063e-001
    outer loop
      vertex -7.850000e-001  3.912132e-001  5.850000e-001
      vertex -8.000000e-001  3.700000e-001  5.700000e-001
      vertex -7.912132e-001  3.700000e-001  5.912132e-001
    endloop
  endfacet
  facet normal -3.574078e-001  3.574083e-001  8.628551e-001
    outer loop
      vertex -7.850000e-001  3.912132e-001  5.850000e-001
      vertex -7.912132e-001  3.700000e-001  5.912132e-001
      vertex -7.700000e-001  3.912132e-001  5.912132e-001
    endloop
  endfacet
  facet normal -3.574063e-001  3.574068e-001  8.628563e-001
    outer loop
      vertex -7.700000e-001  3.912132e-001  5.912132e-001
      vertex -7.912132e-001  3.700000e-001  5.912132e-001
      vertex -7.700000e-001  3.700000e-001  6.000000e-001
    endloop
  endfacet
  facet normal -3.826830e-001  9.238797e-001  0.000000e+000
    outer loop
      vertex -7.700000e-001  4.000000e-001  5.700000e-001
      vertex -7.700000e-001  4.000000e-001  3.000000e-002
      vertex -7.912132e-001  3.912132e-001  5.700000e-001
    endloop
  endfacet
  facet normal -3.826830e-001  9.238797e-001  0.000000e+000
    outer loop
      vertex -7.912132e-001  3.912132e-001  5.700000e-001
      vertex -7.700000e-001  4.000000e-001  3.000000e-002
      vertex -7.912132e-001  3.912132e-001  3.000000e-002
    endloop
  endfacet
  facet normal -9.238796e-001  3.826835e-001  0.000000e+000
    outer loop
      vertex -7.912132e-001  3.912132e-001  5.700000e-001
      vertex -7.912132e-001  3.912132e-001  3.000000e-002
      vertex -8.000000e-001  3.700000e-001  5.700000e-001
    endloop
  endfacet
  facet normal -9.238796e-001  3.826835e-001  0.000000e+000
    outer loop
      vertex -8.000000e-001  3.700000e-001  5.700000e-001
      vertex -7.912132e-001  3.912132e-001  3.000000e-002
      vertex -8.000000e-001  3.700000e-001  3.000000e-002
    endloop
  endfacet
  facet normal -3.779641e-001  9.124871e-001 -1.565575e-001
    outer loop
      vertex -7.700000e-001  4.000000e-001  3.000000e-002
      vertex -7.850000e-001  3.912132e-001  1.500000e-002
      vertex -7.912132e-001  3.912132e-001  3.000000e-002
    endloop
  endfacet
  facet normal -1.565576e-001  9.124870e-001 -3.779645e-001
    outer loop
      vertex -7.700000e-001  4.000000e-001  3.000000e-002
      vertex -7.700000e-001  3.912132e-001  8.786797e-003
      vertex -7.850000e-001  3.912132e-001  1.500000e-002
    endloop
  endfacet
  facet normal -3.574058e-001  3.574069e-001 -8.628566e-001
    outer loop
      vertex -7.700000e-001  3.912132e-001  8.786797e-003
      vertex -7.700000e-001  3.700000e-001  0.000000e+000
      vertex -7.850000e-001  3.912132e-001  1.500000e-002
    endloop
  endfacet
  facet normal -3.574064e-001  3.574065e-001 -8.628566e-001
    outer loop
      vertex -7.850000e-001  3.912132e-001  1.500000e-002
      vertex -7.700000e-001  3.700000e-001  0.000000e+000
      vertex -7.912132e-001  3.700000e-001  8.786797e-003
    endloop
  endfacet
  facet normal -8.628568e-001  3.574061e-001 -3.574061e-001
    outer loop
      vertex -7.850000e-001  3.912132e-001  1.500000e-002
      vertex -7.912132e-001  3.700000e-001  8.786797e-003
      vertex -7.912132e-001  3.912132e-001  3.000000e-002
    endloop
  endfacet
  facet normal -8.628562e-001  3.574068e-001 -3.574068e-001
    outer loop
      vertex -7.912132e-001  3.912132e-001  3.000000e-002
      vertex -7.912132e-001  3.700000e-001  8.786797e-003
      vertex -8.000000e-001  3.700000e-001  3.000000e-002
    endloop
  endfacet
  facet normal -3.826830e-001  0.000000e+000 -9.238797e-001
    outer loop
      vertex -7.700000e-001  3.700000e-001  0.000000e+000
      vertex -7.700000e-001 -3.700000e-001  0.000000e+000
      vertex -7.912132e-001  3.700000e-001  8.786797e-003
    endloop
  endfacet
  facet normal -3.826830e-001  -0.000000e+000 -9.238797e-001
    outer loop
      vertex -7.912132e-001  3.700000e-001  8.786797e-003
      vertex -7.700000e-001 -3.700000e-001  0.000000e+000
      vertex -7.912132e-001 -3.700000e-001  8.786797e-003
    endloop
  endfacet
  facet normal -9.238795e-001  0.000000e+000 -3.826835e-001
    outer loop
      vertex -7.912132e-001  3.700000e-001  8.786797e-003
      vertex -7.912132e-001 -3.700000e-001  8.786797e-003
      vertex -8.000000e-001  3.700000e-001  3.000000e-002
    endloop
  endfacet
  facet normal -9.238795e-001  -0.000000e+000 -3.826835e-001
    outer loop
      vertex -8.000000e-001  3.700000e-001  3.000000e-002
      vertex -7.912132e-001 -3.700000e-001  8.786797e-003
      vertex -8.000000e-001 -3.700000e-001  3.000000e-002
    endloop
  endfacet
  facet normal  0.000000e+000 -9.238795e-001 -3.826835e-001
    outer loop
      vertex -5.000000e-001 -4.000000e-001  3.000000e-002
      vertex -7.700000e-001 -4.000000e-001  3.000000e-002
      vertex -5.000000e-001 -3.912132e-001  8.786797e-003
    endloop
  endfacet
  facet normal  -0.000000e+000 -9.238795e-001 -3.826835e-001
    outer loop
      vertex -5.000000e-001 -3.912132e-001  8.786797e-003
      vertex -7.700000e-001 -4.000000e-001  3.000000e-002
      vertex -7.700000e-001 -3.912132e-001  8.786797e-003
    endloop
  endfacet
  facet normal  0.000000e+000 -3.826834e-001 -9.238795e-001
    outer loop
      vertex -5.000000e-001 -3.912132e-001  8.786797e-003
      vertex -7.700000e-001 -3.912132e-001  8.786797e-003
      vertex -5.000000e-001 -3.700000e-001  3.725290e-010
    endloop
  endfacet
  facet normal  1.274711e-009 -3.826834e-001 -9.238795e-001
    outer loop
      vertex -5.000000e-001 -3.700000e-001  3.725290e-010
      vertex -7.700000e-001 -3.912132e-001  8.786797e-003
      vertex -7.700000e-001 -3.700000e-001  0.000000e+000
    endloop
  endfacet
  facet normal  0.000000e+000 -1.000000e+000  -0.000000e+000
    outer loop
      vertex -5.000000e-001 -4.000000e-001  3.000000e-002
      vertex -5.000000e-001 -4.000000e-001  5.700000e-001
      vertex -7.700000e-001 -4.000000e-001  3.000000e-002
    endloop
  endfacet
  facet normal  0.000000e+000 -1.000000e+000  0.000000e+000
    outer loop
      vertex -7.700000e-001 -4.000000e-001  3.000000e-002
      vertex -5.000000e-001 -4.000000e-001  5.700000e-001
      vertex -7.700000e-001 -4.000000e-001  5.700000e-001
    endloop
  endfacet
  facet normal  0.000000e+000 -9.238797e-001  3.826830e-001
    outer loop
      vertex -7.700000e-001 -4.000000e-001  5.700000e-001
      vertex -5.000000e-001 -4.000000e-001  5.700000e-001
      vertex -7.700000e-001 -3.912132e-001  5.912132e-001
    endloop
  endfacet
  facet normal  0.000000e+000 -9.238797e-001  3.826830e-001
    outer loop
      vertex -7.700000e-001 -3.912132e-001  5.912132e-001
      vertex -5.000000e-001 -4.000000e-001  5.700000e-001
      vertex -5.000000e-001 -3.912132e-001  5.912132e-001
    endloop
  endfacet
  facet normal  0.000000e+000 -3.826835e-001  9.238795e-001
    outer loop
      vertex -7.700000e-001 -3.912132e-001  5.912132e-001
      vertex -5.000000e-001 -3.912132e-001  5.912132e-001
      vertex -7.700000e-001 -3.700000e-001  6.000000e-001
    endloop
  endfacet
  facet normal  0.000000e+000 -3.826835e-001  9.238795e-001
    outer loop
      vertex -7.700000e-001 -3.700000e-001  6.000000e-001
      vertex -5.000000e-001 -3.912132e-001  5.912132e-001
      vertex -5.000000e-001 -3.700000e-001  6.000000e-001
    endloop
  endfacet
  facet normal  0.000000e+000  0.000000e+000  1.000000e+000
    outer loop
      vertex -5.000000e-001 -3.700000e-001  6.000000e-001
      vertex -5.000000e-001  3.700000e-001  6.000000e-001
      vertex -7.700000e-001 -3.700000e-001  6.000000e-001
    endloop
  endfacet
  facet normal  0.000000e+000  0.000000e+000  1.000000e+000
    outer loop
      vertex -7.700000e-001 -3.700000e-001  6.000000e-001
      vertex -5.000000e-001  3.700000e-001  6.000000e-001
      vertex -7.700000e-001  3.700000e-001  6.000000e-001
    endloop
  endfacet
  facet normal  -0.000000e+000  9.238797e-001  3.826830e-001
    outer loop
      vertex -5.000000e-001  4.000000e-001  5.700000e-001
      vertex -7.700000e-001  4.000000e-001  5.700000e-001
      vertex -5.000000e-001  3.912132e-001  5.912132e-001
    endloop
  endfacet
  facet normal  0.000000e+000  9.238797e-001  3.826830e-001
    outer loop
      vertex -5.000000e-001  3.912132e-001  5.912132e-001
      vertex -7.700000e-001  4.000000e-001  5.700000e-001
      vertex -7.700000e-001  3.912132e-001  5.912132e-001
    endloop
  endfacet
  facet normal  -0.000000e+000  3.826835e-001  9.238795e-001
    outer loop
      vertex -5.000000e-001  3.912132e-001  5.912132e-001
      vertex -7.700000e-001  3.912132e-001  5.912132e-001
      vertex -5.000000e-001  3.700000e-001  6.000000e-001
    endloop
  endfacet
  facet normal  0.000000e+000  3.826835e-001  9.238795e-001
    outer loop
      vertex -5.000000e-001  3.700000e-001  6.000000e-001
      vertex -7.700000e-001  3.912132e-001  5.912132e-001
      vertex -7.700000e-001  3.700000e-001  6.000000e-001
    endloop
  endfacet
  facet normal  0.000000e+000  1.000000e+000  0.000000e+000
    outer loop
      vertex -7.700000e-001  4.000000e-001  3.000000e-002
      vertex -7.700000e-001  4.000000e-001  5.700000e-001
      vertex -5.000000e-001  4.000000e-001  3.000000e-002
    endloop
  endfacet
  facet normal  0.000000e+000  1.000000e+000  -0.000000e+000
    outer loop
      vertex -5.000000e-001  4.000000e-001  3.000000e-002
      vertex -7.700000e-001  4.000000e-001  5.700000e-001
      vertex -5.000000e-001  4.000000e-001  5.700000e-001
    endloop
  endfacet
  facet normal  0.000000e+000  9.238795e-001 -3.826835e-001
    outer loop
      vertex -7.700000e-001  4.000000e-001  3.000000e-002
      vertex -5.000000e-001  4.000000e-001  3.000000e-002
      vertex -7.700000e-001  3.912132e-001  8.786797e-003
    endloop
  endfacet
  facet normal  0.000000e+000  9.238795e-001 -3.826835e-001
    outer loop
      vertex -7.700000e-001  3.912132e-001  8.786797e-003
      vertex -5.000000e-001  4.000000e-001  3.000000e-002
      vertex -5.000000e-001  3.912132e-001  8.786797e-003
    endloop
  endfacet
  facet normal  0.000000e+000  3.826834e-001 -9.238795e-001
    outer loop
      vertex -7.700000e-001  3.912132e-001  8.786797e-003
      vertex -5.000000e-001  3.912132e-001  8.786797e-003
      vertex -7.700000e-001  3.700000e-001  0.000000e+000
    endloop
  endfacet
  facet normal  0.000000e+000  3.826834e-001 -9.238795e-001
    outer loop
      vertex -7.700000e-001  3.700000e-001  0.000000e+000
      vertex -5.000000e-001  3.912132e-001  8.786797e-003
      vertex -5.000000e-001  3.700000e-001  0.000000e+000
    endloop
  endfacet
  facet normal  1.379737e-009 -5.034176e-010 -1.000000e+000
    outer loop
      vertex -5.000000e-001 -3.700000e-001  3.725290e-010
      vertex -7.700000e-001 -3.700000e-001  0.000000e+000
      vertex -5.000000e-001  3.700000e-001  0.000000e+000
    endloop
  endfacet
  facet normal  -0.000000e+000  0.000000e+000 -1.000000e+000
    outer loop
      vertex -5.000000e-001  3.700000e-001  0.000000e+000
      vertex -7.700000e-001 -3.700000e-001  0.000000e+000
      vertex -7.700000e-001  3.700000e-001  0.000000e+000
    endloop
  endfacet
  facet normal  1.000000e+000  0.000000e+000  -0.000000e+000
    outer loop
      vertex -5.000000e-001 -4.000000e-001  3.000000e-002
      vertex -5.000000e-001 -3.912132e-001  8.786797e-003
      vertex -5.000000e-001 -3.800000e-001  6.000000e-002
    endloop
  endfacet
  facet normal  1.000000e+000  0.000000e+000  0.000000e+000
    outer loop
      vertex -5.000000e-001  3.912132e-001  8.786797e-003
      vertex -5.000000e-001  4.000000e-001  3.000000e-002
      vertex -5.000000e-001  3.800000e-001  6.000000e-002
    endloop
  endfacet
  facet normal  1.000000e+000  0.000000e+000  0.000000e+000
    outer loop
      vertex -5.000000e-001 -3.700000e-001  3.725290e-010
      vertex -5.000000e-001  3.700000e-001  0.000000e+000
      vertex -5.000000e-001  3.400000e-001  2.000000e-002
    endloop
  endfacet
  facet normal  1.000000e+000  0.000000e+000  0.000000e+000
    outer loop
      vertex -5.000000e-001 -3.700000e-001  3.725290e-010
      vertex -5.000000e-001  3.400000e-001  2.000000e-002
      vertex -5.000000e-001 -3.400000e-001  2.000000e-002
    endloop
  endfacet
  facet normal  1.000000e+000  0.000000e+000  0.000000e+000
    outer loop
      vertex -5.000000e-001 -3.700000e-001  3.725290e-010
      vertex -5.000000e-001 -3.400000e-001  2.000000e-002
      vertex -5.000000e-001 -3.682843e-001  3.171573e-002
    endloop
  endfacet
  facet normal  1.000000e+000  0.000000e+000  0.000000e+000
    outer loop
      vertex -5.000000e-001 -3.700000e-001  3.725290e-010
      vertex -5.000000e-001 -3.682843e-001  3.171573e-002
      vertex -5.000000e-001 -3.800000e-001  6.000000e-002
    endloop
  endfacet
  facet normal  1.000000e+000  0.000000e+000  0.000000e+000
    outer loop
      vertex -5.000000e-001 -3.700000e-001  3.725290e-010
      vertex -5.000000e-001 -3.800000e-001  6.000000e-002
      vertex -5.000000e-001 -3.912132e-001  8.786797e-003
    endloop
  endfacet
  facet normal  1.000000e+000  0.000000e+000  0.000000e+000
    outer loop
      vertex -5.000000e-001  3.700000e-001  0.000000e+000
      vertex -5.000000e-001  3.912132e-001  8.786797e-003
      vertex -5.000000e-001  3.800000e-001  6.000000e-002
    endloop
  endfacet
  facet normal  1.000000e+000  0.000000e+000  0.000000e+000
    outer loop
      vertex -5.000000e-001  3.700000e-001  0.000000e+000
      vertex -5.000000e-001  3.800000e-001  6.000000e-002
      vertex -5.000000e-001  3.682843e-001  3.171573e-002
    endloop
  endfacet
  facet normal  1.000000e+000  0.000000e+000  0.000000e+000
    outer loop
      vertex -5.000000e-001  3.700000e-001  0.000000e+000
      vertex -5.000000e-001  3.682843e-001  3.171573e-002
      vertex -5.000000e-001  3.400000e-001  2.000000e-002
    endloop
  endfacet
  facet normal  9.999999e-001  -0.000000e+000  0.000000e+000
    outer loop
      vertex -5.000000e-001  3.700000e-001  6.000000e-001
      vertex -5.000000e-001 -3.700000e-001  6.000000e-001
      vertex -5.000000e-001 -3.400000e-001  5.800000e-001
    endloop
  endfacet
  facet normal  1.000000e+000  0.000000e+000  0.000000e+000
    outer loop
      vertex -5.000000e-001  3.700000e-001  6.000000e-001
      vertex -5.000000e-001 -3.400000e-001  5.800000e-001
      vertex -5.000000e-001  3.400000e-001  5.800000e-001
    endloop
  endfacet
  facet normal  1.000000e+000  -0.000000e+000  0.000000e+000
    outer loop
      vertex -5.000000e-001  3.700000e-001  6.000000e-001
      vertex -5.000000e-001  3.400000e-001  5.800000e-001
      vertex -5.000000e-001  3.682843e-001  5.682843e-001
    endloop
  endfacet
  facet normal  1.000000e+000  -0.000000e+000  0.000000e+000
    outer loop
      vertex -5.000000e-001  3.700000e-001  6.000000e-001
      vertex -5.000000e-001  3.682843e-001  5.682843e-001
      vertex -5.000000e-001  3.800000e-001  5.400000e-001
    endloop
  endfacet
  facet normal  1.000000e+000  0.000000e+000  -0.000000e+000
    outer loop
      vertex -5.000000e-001  3.700000e-001  6.000000e-001
      vertex -5.000000e-001  3.800000e-001  5.400000e-001
      vertex -5.000000e-001  3.912132e-001  5.912132e-001
    endloop
  endfacet
  facet normal  1.000000e+000  -0.000000e+000  0.000000e+000
    outer loop
      vertex -5.000000e-001 -3.700000e-001  6.000000e-001
      vertex -5.000000e-001 -3.912132e-001  5.912132e-001
      vertex -5.000000e-001 -3.800000e-001  5.400000e-001
    endloop
  endfacet
  facet normal  1.000000e+000  0.000000e+000  0.000000e+000
    outer loop
      vertex -5.000000e-001 -3.700000e-001  6.000000e-001
      vertex -5.000000e-001 -3.800000e-001  5.400000e-001
      vertex -5.000000e-001 -3.682843e-001  5.682843e-001
    endloop
  endfacet
  facet normal  1.000000e+000  0.000000e+000  -0.000000e+000
    outer loop
      vertex -5.000000e-001 -3.700000e-001  6.000000e-001
      vertex -5.000000e-001 -3.682843e-001  5.682843e-001
      vertex -5.000000e-001 -3.400000e-001  5.800000e-001
    endloop
  endfacet
  facet normal  1.000000e+000  -0.000000e+000  0.000000e+000
    outer loop
      vertex -5.000000e-001 -3.912132e-001  5.912132e-001
      vertex -5.000000e-001 -4.000000e-001  5.700000e-001
      vertex -5.000000e-001 -3.800000e-001  5.400000e-001
    endloop
  endfacet
  facet normal  1.000000e+000  0.000000e+000  0.000000e+000
    outer loop
      vertex -5.000000e-001 -3.800000e-001  5.400000e-001
      vertex -5.000000e-001 -4.000000e-001  5.700000e-001
      vertex -5.000000e-001 -4.000000e-001  3.000000e-002
    endloop
  endfacet
  facet normal  9.999999e-001  0.000000e+000  0.000000e+000
    outer loop
      vertex -5.000000e-001 -3.800000e-001  5.400000e-001
      vertex -5.000000e-001 -4.000000e-001  3.000000e-002
      vertex -5.000000e-001 -3.800000e-001  6.000000e-002
    endloop
  endfacet
  facet normal  1.000000e+000  0.000000e+000  0.000000e+000
    outer loop
      vertex -5.000000e-001  3.912132e-001  5.912132e-001
      vertex -5.000000e-001  3.800000e-001  5.400000e-001
      vertex -5.000000e-001  4.000000e-001  5.700000e-001
    endloop
  endfacet
  facet normal  1.000000e+000  0.000000e+000  0.000000e+000
    outer loop
      vertex -5.000000e-001  4.000000e-001  5.700000e-001
      vertex -5.000000e-001  3.800000e-001  5.400000e-001
      vertex -5.000000e-001  3.800000e-001  6.000000e-002
    endloop
  endfacet
  facet normal  1.000000e+000  -0.000000e+000  0.000000e+000
    outer loop
      vertex -5.000000e-001  4.000000e-001  5.700000e-001
      vertex -5.000000e-001  3.800000e-001  6.000000e-002
      vertex -5.000000e-001  4.000000e-001  3.000000e-002
    endloop
  endfacet
  facet normal  3.826830e-001 -9.238797e-001  0.000000e+000
    outer loop
      vertex  7.700000e-001 -4.000000e-001  5.700000e-001
      vertex  7.700000e-001 -4.000000e-001  3.000000e-002
      vertex  7.912132e-001 -3.912132e-001  5.700000e-001
    endloop
  endfacet
  facet normal  3.826830e-001 -9.238797e-001  0.000000e+000
    outer loop
      vertex  7.912132e-001 -3.912132e-001  5.700000e-001
      vertex  7.700000e-001 -4.000000e-001  3.000000e-002
      vertex  7.912132e-001 -3.912132e-001  3.000000e-002
    endloop
  endfacet
  facet normal  9.238796e-001 -3.826835e-001  0.000000e+000
    outer loop
      vertex  7.912132e-001 -3.912132e-001  5.700000e-001
      vertex  7.912132e-001 -3.912132e-001  3.000000e-002
      vertex  8.000000e-001 -3.700000e-001  5.700000e-001
    endloop
  endfacet
  facet normal  9.238796e-001 -3.826835e-001  0.000000e+000
    outer loop
      vertex  8.000000e-001 -3.700000e-001  5.700000e-001
      vertex  7.912132e-001 -3.912132e-001  3.000000e-002
      vertex  8.000000e-001 -3.700000e-001  3.000000e-002
    endloop
  endfacet
  facet normal  3.779641e-001 -9.124871e-001 -1.565575e-001
    outer loop
      vertex  7.700000e-001 -4.000000e-001  3.000000e-002
      vertex  7.850000e-001 -3.912132e-001  1.500000e-002
      vertex  7.912132e-001 -3.912132e-001  3.000000e-002
    endloop
  endfacet
  facet normal  1.565576e-001 -9.124870e-001 -3.779645e-001
    outer loop
      vertex  7.700000e-001 -4.000000e-001  3.000000e-002
      vertex  7.700000e-001 -3.912132e-001  8.786797e-003
      vertex  7.850000e-001 -3.912132e-001  1.500000e-002
    endloop
  endfacet
  facet normal  8.628562e-001 -3.574068e-001 -3.574068e-001
    outer loop
      vertex  8.000000e-001 -3.700000e-001  3.000000e-002
      vertex  7.912132e-001 -3.912132e-001  3.000000e-002
      vertex  7.912132e-001 -3.700000e-001  8.786797e-003
    endloop
  endfacet
  facet normal  8.628568e-001 -3.574061e-001 -3.574061e-001
    outer loop
      vertex  7.912132e-001 -3.700000e-001  8.786797e-003
      vertex  7.912132e-001 -3.912132e-001  3.000000e-002
      vertex  7.850000e-001 -3.912132e-001  1.500000e-002
    endloop
  endfacet
  facet normal  3.574064e-001 -3.574065e-001 -8.628566e-001
    outer loop
      vertex  7.912132e-001 -3.700000e-001  8.786797e-003
      vertex  7.850000e-001 -3.912132e-001  1.500000e-002
      vertex  7.700000e-001 -3.700000e-001  0.000000e+000
    endloop
  endfacet
  facet normal  3.574058e-001 -3.574069e-001 -8.628566e-001
    outer loop
      vertex  7.700000e-001 -3.700000e-001  0.000000e+000
      vertex  7.850000e-001 -3.912132e-001  1.500000e-002
      vertex  7.700000e-001 -3.912132e-001  8.786797e-003
    endloop
  endfacet
  facet normal  1.565585e-001 -9.124870e-001  3.779640e-001
    outer loop
      vertex  7.700000e-001 -4.000000e-001  5.700000e-001
      vertex  7.850000e-001 -3.912132e-001  5.850000e-001
      vertex  7.700000e-001 -3.912132e-001  5.912132e-001
    endloop
  endfacet
  facet normal  3.779640e-001 -9.124872e-001  1.565576e-001
    outer loop
      vertex  7.700000e-001 -4.000000e-001  5.700000e-001
      vertex  7.912132e-001 -3.912132e-001  5.700000e-001
      vertex  7.850000e-001 -3.912132e-001  5.850000e-001
    endloop
  endfacet
  facet normal  3.574063e-001 -3.574068e-001  8.628563e-001
    outer loop
      vertex  7.700000e-001 -3.700000e-001  6.000000e-001
      vertex  7.700000e-001 -3.912132e-001  5.912132e-001
      vertex  7.912132e-001 -3.700000e-001  5.912132e-001
    endloop
  endfacet
  facet normal  3.574078e-001 -3.574083e-001  8.628551e-001
    outer loop
      vertex  7.912132e-001 -3.700000e-001  5.912132e-001
      vertex  7.700000e-001 -3.912132e-001  5.912132e-001
      vertex  7.850000e-001 -3.912132e-001  5.850000e-001
    endloop
  endfacet
  facet normal  8.628563e-001 -3.574068e-001  3.574063e-001
    outer loop
      vertex  7.912132e-001 -3.700000e-001  5.912132e-001
      vertex  7.850000e-001 -3.912132e-001  5.850000e-001
      vertex  8.000000e-001 -3.700000e-001  5.700000e-001
    endloop
  endfacet
  facet normal  8.628564e-001 -3.574069e-001  3.574063e-001
    outer loop
      vertex  8.000000e-001 -3.700000e-001  5.700000e-001
      vertex  7.850000e-001 -3.912132e-001  5.850000e-001
      vertex  7.912132e-001 -3.912132e-001  5.700000e-001
    endloop
  endfacet
  facet normal  0.000000e+000 -9.238795e-001 -3.826835e-001
    outer loop
      vertex  7.700000e-001 -4.000000e-001  3.000000e-002
      vertex  5.000000e-001 -4.000000e-001  3.000000e-002
      vertex  7.700000e-001 -3.912132e-001  8.786797e-003
    endloop
  endfacet
  facet normal  -0.000000e+000 -9.238795e-001 -3.826835e-001
    outer loop
      vertex  7.700000e-001 -3.912132e-001  8.786797e-003
      vertex  5.000000e-001 -4.000000e-001  3.000000e-002
      vertex  5.000000e-001 -3.912132e-001  8.786797e-003
    endloop
  endfacet
  facet normal  0.000000e+000 -3.826834e-001 -9.238795e-001
    outer loop
      vertex  7.700000e-001 -3.912132e-001  8.786797e-003
      vertex  5.000000e-001 -3.912132e-001  8.786797e-003
      vertex  7.700000e-001 -3.700000e-001  0.000000e+000
    endloop
  endfacet
  facet normal  -0.000000e+000 -3.826834e-001 -9.238795e-001
    outer loop
      vertex  7.700000e-001 -3.700000e-001  0.000000e+000
      vertex  5.000000e-001 -3.912132e-001  8.786797e-003
      vertex  5.000000e-001 -3.700000e-001  0.000000e+000
    endloop
  endfacet
  facet normal  9.238795e-001  0.000000e+000 -3.826835e-001
    outer loop
      vertex  8.000000e-001  3.700000e-001  3.000000e-002
      vertex  8.000000e-001 -3.700000e-001  3.000000e-002
      vertex  7.912132e-001  3.700000e-001  8.786797e-003
    endloop
  endfacet
  facet normal  9.238795e-001  0.000000e+000 -3.826835e-001
    outer loop
      vertex  7.912132e-001  3.700000e-001  8.786797e-003
      vertex  8.000000e-001 -3.700000e-001  3.000000e-002
      vertex  7.912132e-001 -3.700000e-001  8.786797e-003
    endloop
  endfacet
  facet normal  3.826830e-001  0.000000e+000 -9.238797e-001
    outer loop
      vertex  7.912132e-001  3.700000e-001  8.786797e-003
      vertex  7.912132e-001 -3.700000e-001  8.786797e-003
      vertex  7.700000e-001  3.700000e-001  0.000000e+000
    endloop
  endfacet
  facet normal  3.826830e-001  0.000000e+000 -9.238797e-001
    outer loop
      vertex  7.700000e-001  3.700000e-001  0.000000e+000
      vertex  7.912132e-001 -3.700000e-001  8.786797e-003
      vertex  7.700000e-001 -3.700000e-001  0.000000e+000
    endloop
  endfacet
  facet normal  9.238797e-001  0.000000e+000  3.826830e-001
    outer loop
      vertex  8.000000e-001 -3.700000e-001  5.700000e-001
      vertex  8.000000e-001  3.700000e-001  5.700000e-001
      vertex  7.912132e-001 -3.700000e-001  5.912132e-001
    endloop
  endfacet
  facet normal  9.238797e-001  -0.000000e+000  3.826830e-001
    outer loop
      vertex  7.912132e-001 -3.700000e-001  5.912132e-001
      vertex  8.000000e-001  3.700000e-001  5.700000e-001
      vertex  7.912132e-001  3.700000e-001  5.912132e-001
    endloop
  endfacet
  facet normal  3.826830e-001  0.000000e+000  9.238797e-001
    outer loop
      vertex  7.912132e-001 -3.700000e-001  5.912132e-001
      vertex  7.912132e-001  3.700000e-001  5.912132e-001
      vertex  7.700000e-001 -3.700000e-001  6.000000e-001
    endloop
  endfacet
  facet normal  3.826830e-001  -0.000000e+000  9.238797e-001
    outer loop
      vertex  7.700000e-001 -3.700000e-001  6.000000e-001
      vertex  7.912132e-001  3.700000e-001  5.912132e-001
      vertex  7.700000e-001  3.700000e-001  6.000000e-001
    endloop
  endfacet
  facet normal  0.000000e+000 -9.238797e-001  3.826830e-001
    outer loop
      vertex  5.000000e-001 -4.000000e-001  5.700000e-001
      vertex  7.700000e-001 -4.000000e-001  5.700000e-001
      vertex  5.000000e-001 -3.912132e-001  5.912132e-001
    endloop
  endfacet
  facet normal  0.000000e+000 -9.238797e-001  3.826830e-001
    outer loop
      vertex  5.000000e-001 -3.912132e-001  5.912132e-001
      vertex  7.700000e-001 -4.000000e-001  5.700000e-001
      vertex  7.700000e-001 -3.912132e-001  5.912132e-001
    endloop
  endfacet
  facet normal  0.000000e+000 -3.826835e-001  9.238795e-001
    outer loop
      vertex  5.000000e-001 -3.912132e-001  5.912132e-001
      vertex  7.700000e-001 -3.912132e-001  5.912132e-001
      vertex  5.000000e-001 -3.700000e-001  6.000000e-001
    endloop
  endfacet
  facet normal  0.000000e+000 -3.826835e-001  9.238795e-001
    outer loop
      vertex  5.000000e-001 -3.700000e-001  6.000000e-001
      vertex  7.700000e-001 -3.912132e-001  5.912132e-001
      vertex  7.700000e-001 -3.700000e-001  6.000000e-001
    endloop
  endfacet
  facet normal  1.565576e-001  9.124870e-001 -3.779645e-001
    outer loop
      vertex  7.700000e-001  4.000000e-001  3.000000e-002
      vertex  7.850000e-001  3.912132e-001  1.500000e-002
      vertex  7.700000e-001  3.912132e-001  8.786797e-003
    endloop
  endfacet
  facet normal  3.779641e-001  9.124871e-001 -1.565575e-001
    outer loop
      vertex  7.700000e-001  4.000000e-001  3.000000e-002
      vertex  7.912132e-001  3.912132e-001  3.000000e-002
      vertex  7.850000e-001  3.912132e-001  1.500000e-002
    endloop
  endfacet
  facet normal  8.628565e-001  3.574069e-001 -3.574060e-001
    outer loop
      vertex  7.912132e-001  3.912132e-001  3.000000e-002
      vertex  8.000000e-001  3.700000e-001  3.000000e-002
      vertex  7.850000e-001  3.912132e-001  1.500000e-002
    endloop
  endfacet
  facet normal  8.628564e-001  3.574062e-001 -3.574068e-001
    outer loop
      vertex  7.850000e-001  3.912132e-001  1.500000e-002
      vertex  8.000000e-001  3.700000e-001  3.000000e-002
      vertex  7.912132e-001  3.700000e-001  8.786797e-003
    endloop
  endfacet
  facet normal  3.574059e-001  3.574064e-001 -8.628567e-001
    outer loop
      vertex  7.850000e-001  3.912132e-001  1.500000e-002
      vertex  7.912132e-001  3.700000e-001  8.786797e-003
      vertex  7.700000e-001  3.912132e-001  8.786797e-003
    endloop
  endfacet
  facet normal  3.574063e-001  3.574068e-001 -8.628563e-001
    outer loop
      vertex  7.700000e-001  3.912132e-001  8.786797e-003
      vertex  7.912132e-001  3.700000e-001  8.786797e-003
      vertex  7.700000e-001  3.700000e-001  0.000000e+000
    endloop
  endfacet
  facet normal  3.779640e-001  9.124872e-001  1.565576e-001
    outer loop
      vertex  7.700000e-001  4.000000e-001  5.700000e-001
      vertex  7.850000e-001  3.912132e-001  5.850000e-001
      vertex  7.912132e-001  3.912132e-001  5.700000e-001
    endloop
  endfacet
  facet normal  1.565585e-001  9.124870e-001  3.779640e-001
    outer loop
      vertex  7.700000e-001  4.000000e-001  5.700000e-001
      vertex  7.700000e-001  3.912132e-001  5.912132e-001
      vertex  7.850000e-001  3.912132e-001  5.850000e-001
    endloop
  endfacet
  facet normal  3.574080e-001  3.574066e-001  8.628557e-001
    outer loop
      vertex  7.700000e-001  3.912132e-001  5.912132e-001
      vertex  7.700000e-001  3.700000e-001  6.000000e-001
      vertex  7.850000e-001  3.912132e-001  5.850000e-001
    endloop
  endfacet
  facet normal  3.574062e-001  3.574081e-001  8.628560e-001
    outer loop
      vertex  7.850000e-001  3.912132e-001  5.850000e-001
      vertex  7.700000e-001  3.700000e-001  6.000000e-001
      vertex  7.912132e-001  3.700000e-001  5.912132e-001
    endloop
  endfacet
  facet normal  8.628564e-001  3.574068e-001  3.574063e-001
    outer loop
      vertex  7.850000e-001  3.912132e-001  5.850000e-001
      vertex  7.912132e-001  3.700000e-001  5.912132e-001
      vertex  7.912132e-001  3.912132e-001  5.700000e-001
    endloop
  endfacet
  facet normal  8.628563e-001  3.574068e-001  3.574063e-001
    outer loop
      vertex  7.912132e-001  3.912132e-001  5.700000e-001
      vertex  7.912132e-001  3.700000e-001  5.912132e-001
      vertex  8.000000e-001  3.700000e-001  5.700000e-001
    endloop
  endfacet
  facet normal  0.000000e+000  9.238795e-001 -3.826835e-001
    outer loop
      vertex  5.000000e-001  4.000000e-001  3.000000e-002
      vertex  7.700000e-001  4.000000e-001  3.000000e-002
      vertex  5.000000e-001  3.912132e-001  8.786797e-003
    endloop
  endfacet
  facet normal  0.000000e+000  9.238795e-001 -3.826835e-001
    outer loop
      vertex  5.000000e-001  3.912132e-001  8.786797e-003
      vertex  7.700000e-001  4.000000e-001  3.000000e-002
      vertex  7.700000e-001  3.912132e-001  8.786797e-003
    endloop
  endfacet
  facet normal  0.000000e+000  3.826834e-001 -9.238795e-001
    outer loop
      vertex  5.000000e-001  3.912132e-001  8.786797e-003
      vertex  7.700000e-001  3.912132e-001  8.786797e-003
      vertex  5.000000e-001  3.700000e-001  3.725290e-010
    endloop
  endfacet
  facet normal -1.274711e-009  3.826834e-001 -9.238795e-001
    outer loop
      vertex  5.000000e-001  3.700000e-001  3.725290e-010
      vertex  7.700000e-001  3.912132e-001  8.786797e-003
      vertex  7.700000e-001  3.700000e-001  0.000000e+000
    endloop
  endfacet
  facet normal  9.238796e-001  3.826835e-001  -0.000000e+000
    outer loop
      vertex  8.000000e-001  3.700000e-001  5.700000e-001
      vertex  8.000000e-001  3.700000e-001  3.000000e-002
      vertex  7.912132e-001  3.912132e-001  5.700000e-001
    endloop
  endfacet
  facet normal  9.238796e-001  3.826835e-001  0.000000e+000
    outer loop
      vertex  7.912132e-001  3.912132e-001  5.700000e-001
      vertex  8.000000e-001  3.700000e-001  3.000000e-002
      vertex  7.912132e-001  3.912132e-001  3.000000e-002
    endloop
  endfacet
  facet normal  3.826830e-001  9.238797e-001  -0.000000e+000
    outer loop
      vertex  7.912132e-001  3.912132e-001  5.700000e-001
      vertex  7.912132e-001  3.912132e-001  3.000000e-002
      vertex  7.700000e-001  4.000000e-001  5.700000e-001
    endloop
  endfacet
  facet normal  3.826830e-001  9.238797e-001  0.000000e+000
    outer loop
      vertex  7.700000e-001  4.000000e-001  5.700000e-001
      vertex  7.912132e-001  3.912132e-001  3.000000e-002
      vertex  7.700000e-001  4.000000e-001  3.000000e-002
    endloop
  endfacet
  facet normal  -0.000000e+000  9.238797e-001  3.826830e-001
    outer loop
      vertex  7.700000e-001  4.000000e-001  5.700000e-001
      vertex  5.000000e-001  4.000000e-001  5.700000e-001
      vertex  7.700000e-001  3.912132e-001  5.912132e-001
    endloop
  endfacet
  facet normal  0.000000e+000  9.238797e-001  3.826830e-001
    outer loop
      vertex  7.700000e-001  3.912132e-001  5.912132e-001
      vertex  5.000000e-001  4.000000e-001  5.700000e-001
      vertex  5.000000e-001  3.912132e-001  5.912132e-001
    endloop
  endfacet
  facet normal  -0.000000e+000  3.826835e-001  9.238795e-001
    outer loop
      vertex  7.700000e-001  3.912132e-001  5.912132e-001
      vertex  5.000000e-001  3.912132e-001  5.912132e-001
      vertex  7.700000e-001  3.700000e-001  6.000000e-001
    endloop
  endfacet
  facet normal  0.000000e+000  3.826835e-001  9.238795e-001
    outer loop
      vertex  7.700000e-001  3.700000e-001  6.000000e-001
      vertex  5.000000e-001  3.912132e-001  5.912132e-001
      vertex  5.000000e-001  3.700000e-001  6.000000e-001
    endloop
  endfacet
  facet normal  0.000000e+000 -3.826828e-001  9.238799e-001
    outer loop
      vertex  5.000000e-001 -3.400000e-001  5.800000e-001
      vertex -5.000000e-001 -3.400000e-001  5.800000e-001
      vertex  5.000000e-001 -3.682843e-001  5.682843e-001
    endloop
  endfacet
  facet normal  0.000000e+000 -3.826828e-001  9.238799e-001
    outer loop
      vertex  5.000000e-001 -3.682843e-001  5.682843e-001
      vertex -5.000000e-001 -3.400000e-001  5.800000e-001
      vertex -5.000000e-001 -3.682843e-001  5.682843e-001
    endloop
  endfacet
  facet normal  0.000000e+000 -9.238796e-001  3.826831e-001
    outer loop
      vertex  5.000000e-001 -3.682843e-001  5.682843e-001
      vertex -5.000000e-001 -3.682843e-001  5.682843e-001
      vertex  5.000000e-001 -3.800000e-001  5.400000e-001
    endloop
  endfacet
  facet normal  0.000000e+000 -9.238796e-001  3.826831e-001
    outer loop
      vertex  5.000000e-001 -3.800000e-001  5.400000e-001
      vertex -5.000000e-001 -3.682843e-001  5.682843e-001
      vertex -5.000000e-001 -3.800000e-001  5.400000e-001
    endloop
  endfacet
  facet normal  0.000000e+000  3.826828e-001  9.238799e-001
    outer loop
      vertex -5.000000e-001  3.400000e-001  5.800000e-001
      vertex  5.000000e-001  3.400000e-001  5.800000e-001
      vertex -5.000000e-001  3.682843e-001  5.682843e-001
    endloop
  endfacet
  facet normal  -0.000000e+000  3.826828e-001  9.238799e-001
    outer loop
      vertex -5.000000e-001  3.682843e-001  5.682843e-001
      vertex  5.000000e-001  3.400000e-001  5.800000e-001
      vertex  5.000000e-001  3.682843e-001  5.682843e-001
    endloop
  endfacet
  facet normal  0.000000e+000  9.238796e-001  3.826831e-001
    outer loop
      vertex -5.000000e-001  3.682843e-001  5.682843e-001
      vertex  5.000000e-001  3.682843e-001  5.682843e-001
      vertex -5.000000e-001  3.800000e-001  5.400000e-001
    endloop
  endfacet
  facet normal  -0.000000e+000  9.238796e-001  3.826831e-001
    outer loop
      vertex -5.000000e-001  3.800000e-001  5.400000e-001
      vertex  5.000000e-001  3.682843e-001  5.682843e-001
      vertex  5.000000e-001  3.800000e-001  5.400000e-001
    endloop
  endfacet
  facet normal  -0.000000e+000 -3.826833e-001 -9.238796e-001
    outer loop
      vertex -5.000000e-001 -3.400000e-001  2.000000e-002
      vertex  5.000000e-001 -3.400000e-001  2.000000e-002
      vertex -5.000000e-001 -3.682843e-001  3.171573e-002
    endloop
  endfacet
  facet normal  0.000000e+000 -3.826833e-001 -9.238796e-001
    outer loop
      vertex -5.000000e-001 -3.682843e-001  3.171573e-002
      vertex  5.000000e-001 -3.400000e-001  2.000000e-002
      vertex  5.000000e-001 -3.682843e-001  3.171573e-002
    endloop
  endfacet
  facet normal  -0.000000e+000 -9.238797e-001 -3.826829e-001
    outer loop
      vertex -5.000000e-001 -3.682843e-001  3.171573e-002
      vertex  5.000000e-001 -3.682843e-001  3.171573e-002
      vertex -5.000000e-001 -3.800000e-001  6.000000e-002
    endloop
  endfacet
  facet normal  0.000000e+000 -9.238797e-001 -3.826829e-001
    outer loop
      vertex -5.000000e-001 -3.800000e-001  6.000000e-002
      vertex  5.000000e-001 -3.682843e-001  3.171573e-002
      vertex  5.000000e-001 -3.800000e-001  6.000000e-002
    endloop
  endfacet
  facet normal  0.000000e+000  3.826833e-001 -9.238796e-001
    outer loop
      vertex  5.000000e-001  3.400000e-001  2.000000e-002
      vertex -5.000000e-001  3.400000e-001  2.000000e-002
      vertex  5.000000e-001  3.682843e-001  3.171573e-002
    endloop
  endfacet
  facet normal  0.000000e+000  3.826833e-001 -9.238796e-001
    outer loop
      vertex  5.000000e-001  3.682843e-001  3.171573e-002
      vertex -5.000000e-001  3.400000e-001  2.000000e-002
      vertex -5.000000e-001  3.682843e-001  3.171573e-002
    endloop
  endfacet
  facet normal  0.000000e+000  9.238797e-001 -3.826829e-001
    outer loop
      vertex  5.000000e-001  3.682843e-001  3.171573e-002
      vertex -5.000000e-001  3.682843e-001  3.171573e-002
      vertex  5.000000e-001  3.800000e-001  6.000000e-002
    endloop
  endfacet
  facet normal  0.000000e+000  9.238797e-001 -3.826829e-001
    outer loop
      vertex  5.000000e-001  3.800000e-001  6.000000e-002
      vertex -5.000000e-001  3.682843e-001  3.171573e-002
      vertex -5.000000e-001  3.800000e-001  6.000000e-002
    endloop
  endfacet
  facet normal -9.999999e-001  -0.000000e+000  0.000000e+000
    outer loop
      vertex -8.000000e-001 -3.700000e-001  5.700000e-001
      vertex -8.000000e-001  3.700000e-001  5.700000e-001
      vertex -8.000000e-001 -3.700000e-001  3.000000e-002
    endloop
  endfacet
  facet normal -9.999999e-001  0.000000e+000  0.000000e+000
    outer loop
      vertex -8.000000e-001 -3.700000e-001  3.000000e-002
      vertex -8.000000e-001  3.700000e-001  5.700000e-001
      vertex -8.000000e-001  3.700000e-001  3.000000e-002
    endloop
  endfacet
  facet normal  0.000000e+000  0.000000e+000 -1.000000e+000
    outer loop
      vertex  7.700000e-001 -3.700000e-001  0.000000e+000
      vertex  5.000000e-001 -3.700000e-001  0.000000e+000
      vertex  7.700000e-001  3.700000e-001  0.000000e+000
    endloop
  endfacet
  facet normal -1.379737e-009  5.034176e-010 -1.000000e+000
    outer loop
      vertex  7.700000e-001  3.700000e-001  0.000000e+000
      vertex  5.000000e-001 -3.700000e-001  0.000000e+000
      vertex  5.000000e-001  3.700000e-001  3.725290e-010
    endloop
  endfacet
  facet normal  0.000000e+000  0.000000e+000  1.000000e+000
    outer loop
      vertex  7.700000e-001 -3.700000e-001  6.000000e-001
      vertex  7.700000e-001  3.700000e-001  6.000000e-001
      vertex  5.000000e-001 -3.700000e-001  6.000000e-001
    endloop
  endfacet
  facet normal  0.000000e+000  0.000000e+000  1.000000e+000
    outer loop
      vertex  5.000000e-001 -3.700000e-001  6.000000e-001
      vertex  7.700000e-001  3.700000e-001  6.000000e-001
      vertex  5.000000e-001  3.700000e-001  6.000000e-001
    endloop
  endfacet
  facet normal  0.000000e+000  1.000000e+000  0.000000e+000
    outer loop
      vertex  5.000000e-001  4.000000e-001  3.000000e-002
      vertex  5.000000e-001  4.000000e-001  5.700000e-001
      vertex  7.700000e-001  4.000000e-001  3.000000e-002
    endloop
  endfacet
  facet normal  0.000000e+000  1.000000e+000  -0.000000e+000
    outer loop
      vertex  7.700000e-001  4.000000e-001  3.000000e-002
      vertex  5.000000e-001  4.000000e-001  5.700000e-001
      vertex  7.700000e-001  4.000000e-001  5.700000e-001
    endloop
  endfacet
  facet normal  9.999999e-001  0.000000e+000  0.000000e+000
    outer loop
      vertex  8.000000e-001 -3.700000e-001  3.000000e-002
      vertex  8.000000e-001  3.700000e-001  3.000000e-002
      vertex  8.000000e-001 -3.700000e-001  5.700000e-001
    endloop
  endfacet
  facet normal  9.999999e-001  -0.000000e+000  0.000000e+000
    outer loop
      vertex  8.000000e-001 -3.700000e-001  5.700000e-001
      vertex  8.000000e-001  3.700000e-001  3.000000e-002
      vertex  8.000000e-001  3.700000e-001  5.700000e-001
    endloop
  endfacet
  facet normal  0.000000e+000 -1.000000e+000  -0.000000e+000
    outer loop
      vertex  7.700000e-001 -4.000000e-001  3.000000e-002
      vertex  7.700000e-001 -4.000000e-001  5.700000e-001
      vertex  5.000000e-001 -4.000000e-001  3.000000e-002
    endloop
  endfacet
  facet normal  0.000000e+000 -1.000000e+000  0.000000e+000
    outer loop
      vertex  5.000000e-001 -4.000000e-001  3.000000e-002
      vertex  7.700000e-001 -4.000000e-001  5.700000e-001
      vertex  5.000000e-001 -4.000000e-001  5.700000e-001
    endloop
  endfacet
  facet normal -1.000000e+000  0.000000e+000  0.000000e+000
    outer loop
      vertex  5.000000e-001 -3.700000e-001  0.000000e+000
      vertex  5.000000e-001 -3.912132e-001  8.786797e-003
      vertex  5.000000e-001 -3.400000e-001  2.000000e-002
    endloop
  endfacet
  facet normal -1.000000e+000  0.000000e+000  -0.000000e+000
    outer loop
      vertex  5.000000e-001 -3.912132e-001  5.912132e-001
      vertex  5.000000e-001 -3.700000e-001  6.000000e-001
      vertex  5.000000e-001 -3.400000e-001  5.800000e-001
    endloop
  endfacet
  facet normal -1.000000e+000  0.000000e+000  0.000000e+000
    outer loop
      vertex  5.000000e-001  4.000000e-001  5.700000e-001
      vertex  5.000000e-001  4.000000e-001  3.000000e-002
      vertex  5.000000e-001  3.800000e-001  6.000000e-002
    endloop
  endfacet
  facet normal -1.000000e+000  0.000000e+000  0.000000e+000
    outer loop
      vertex  5.000000e-001  4.000000e-001  5.700000e-001
      vertex  5.000000e-001  3.800000e-001  6.000000e-002
      vertex  5.000000e-001  3.800000e-001  5.400000e-001
    endloop
  endfacet
  facet normal -1.000000e+000  0.000000e+000  0.000000e+000
    outer loop
      vertex  5.000000e-001  4.000000e-001  5.700000e-001
      vertex  5.000000e-001  3.800000e-001  5.400000e-001
      vertex  5.000000e-001  3.682843e-001  5.682843e-001
    endloop
  endfacet
  facet normal -1.000000e+000  0.000000e+000  0.000000e+000
    outer loop
      vertex  5.000000e-001  4.000000e-001  5.700000e-001
      vertex  5.000000e-001  3.682843e-001  5.682843e-001
      vertex  5.000000e-001  3.400000e-001  5.800000e-001
    endloop
  endfacet
  facet normal -1.000000e+000  0.000000e+000  0.000000e+000
    outer loop
      vertex  5.000000e-001  4.000000e-001  5.700000e-001
      vertex  5.000000e-001  3.400000e-001  5.800000e-001
      vertex  5.000000e-001  3.912132e-001  5.912132e-001
    endloop
  endfacet
  facet normal -1.000000e+000  0.000000e+000  0.000000e+000
    outer loop
      vertex  5.000000e-001  4.000000e-001  3.000000e-002
      vertex  5.000000e-001  3.912132e-001  8.786797e-003
      vertex  5.000000e-001  3.400000e-001  2.000000e-002
    endloop
  endfacet
  facet normal -1.000000e+000  0.000000e+000  0.000000e+000
    outer loop
      vertex  5.000000e-001  4.000000e-001  3.000000e-002
      vertex  5.000000e-001  3.400000e-001  2.000000e-002
      vertex  5.000000e-001  3.682843e-001  3.171573e-002
    endloop
  endfacet
  facet normal -1.000000e+000  0.000000e+000  0.000000e+000
    outer loop
      vertex  5.000000e-001  4.000000e-001  3.000000e-002
      vertex  5.000000e-001  3.682843e-001  3.171573e-002
      vertex  5.000000e-001  3.800000e-001  6.000000e-002
    endloop
  endfacet
  facet normal -1.000000e+000  0.000000e+000  0.000000e+000
    outer loop
      vertex  5.000000e-001 -4.000000e-001  3.000000e-002
      vertex  5.000000e-001 -4.000000e-001  5.700000e-001
      vertex  5.000000e-001 -3.800000e-001  5.400000e-001
    endloop
  endfacet
  facet normal -1.000000e+000  0.000000e+000  -0.000000e+000
    outer loop
      vertex  5.000000e-001 -4.000000e-001  3.000000e-002
      vertex  5.000000e-001 -3.800000e-001  5.400000e-001
      vertex  5.000000e-001 -3.800000e-001  6.000000e-002
    endloop
  endfacet
  facet normal -1.000000e+000  0.000000e+000  -0.000000e+000
    outer loop
      vertex  5.000000e-001 -4.000000e-001  3.000000e-002
      vertex  5.000000e-001 -3.800000e-001  6.000000e-002
      vertex  5.000000e-001 -3.682843e-001  3.171573e-002
    endloop
  endfacet
  facet normal -1.000000e+000  0.000000e+000  -0.000000e+000
    outer loop
      vertex  5.000000e-001 -4.000000e-001  3.000000e-002
      vertex  5.000000e-001 -3.682843e-001  3.171573e-002
      vertex  5.000000e-001 -3.400000e-001  2.000000e-002
    endloop
  endfacet
  facet normal -1.000000e+000  -0.000000e+000  0.000000e+000
    outer loop
      vertex  5.000000e-001 -4.000000e-001  3.000000e-002
      vertex  5.000000e-001 -3.400000e-001  2.000000e-002
      vertex  5.000000e-001 -3.912132e-001  8.786797e-003
    endloop
  endfacet
  facet normal -1.000000e+000  0.000000e+000  -0.000000e+000
    outer loop
      vertex  5.000000e-001 -4.000000e-001  5.700000e-001
      vertex  5.000000e-001 -3.912132e-001  5.912132e-001
      vertex  5.000000e-001 -3.400000e-001  5.800000e-001
    endloop
  endfacet
  facet normal -1.000000e+000  0.000000e+000  0.000000e+000
    outer loop
      vertex  5.000000e-001 -4.000000e-001  5.700000e-001
      vertex  5.000000e-001 -3.400000e-001  5.800000e-001
      vertex  5.000000e-001 -3.682843e-001  5.682843e-001
    endloop
  endfacet
  facet normal -9.999999e-001  -0.000000e+000  0.000000e+000
    outer loop
      vertex  5.000000e-001 -4.000000e-001  5.700000e-001
      vertex  5.000000e-001 -3.682843e-001  5.682843e-001
      vertex  5.000000e-001 -3.800000e-001  5.400000e-001
    endloop
  endfacet
  facet normal -1.000000e+000  0.000000e+000  0.000000e+000
    outer loop
      vertex  5.000000e-001  3.912132e-001  8.786797e-003
      vertex  5.000000e-001  3.700000e-001  3.725290e-010
      vertex  5.000000e-001  3.400000e-001  2.000000e-002
    endloop
  endfacet
  facet normal -1.000000e+000  0.000000e+000  -0.000000e+000
    outer loop
      vertex  5.000000e-001  3.400000e-001  2.000000e-002
      vertex  5.000000e-001  3.700000e-001  3.725290e-010
      vertex  5.000000e-001 -3.700000e-001  0.000000e+000
    endloop
  endfacet
  facet normal -1.000000e+000  0.000000e+000  0.000000e+000
    outer loop
      vertex  5.000000e-001  3.400000e-001  2.000000e-002
      vertex  5.000000e-001 -3.700000e-001  0.000000e+000
      vertex  5.000000e-001 -3.400000e-001  2.000000e-002
    endloop
  endfacet
  facet normal -1.000000e+000  0.000000e+000  0.000000e+000
    outer loop
      vertex  5.000000e-001  3.912132e-001  5.912132e-001
      vertex  5.000000e-001  3.400000e-001  5.800000e-001
      vertex  5.000000e-001  3.700000e-001  6.000000e-001
    endloop
  endfacet
  facet normal -9.999999e-001  0.000000e+000  0.000000e+000
    outer loop
      vertex  5.000000e-001  3.700000e-001  6.000000e-001
      vertex  5.000000e-001  3.400000e-001  5.800000e-001
      vertex  5.000000e-001 -3.400000e-001  5.800000e-001
    endloop
  endfacet
  facet normal -1.000000e+000  0.000000e+000  0.000000e+000
    outer loop
      vertex  5.000000e-001  3.700000e-001  6.000000e-001
      vertex  5.000000e-001 -3.400000e-001  5.800000e-001
      vertex  5.000000e-001 -3.700000e-001  6.000000e-001
    endloop
  endfacet
  facet normal  0.000000e+000  0.000000e+000 -1.000000e+000
    outer loop
      vertex -5.000000e-001 -3.400000e-001  2.000000e-002
      vertex -5.000000e-001  3.400000e-001  2.000000e-002
      vertex  5.000000e-001 -3.400000e-001  2.000000e-002
    endloop
  endfacet
  facet normal  0.000000e+000  0.000000e+000 -1.000000e+000
    outer loop
      vertex  5.000000e-001 -3.400000e-001  2.000000e-002
      vertex -5.000000e-001  3.400000e-001  2.000000e-002
      vertex  5.000000e-001  3.400000e-001  2.000000e-002
    endloop
  endfacet
  facet normal  0.000000e+000  0.000000e+000  1.000000e+000
    outer loop
      vertex -5.000000e-001 -3.400000e-001  5.800000e-001
      vertex  5.000000e-001 -3.400000e-001  5.800000e-001
      vertex -5.000000e-001  3.400000e-001  5.800000e-001
    endloop
  endfacet
  facet normal  -0.000000e+000  0.000000e+000  1.000000e+000
    outer loop
      vertex -5.000000e-001  3.400000e-001  5.800000e-001
      vertex  5.000000e-001 -3.400000e-001  5.800000e-001
      vertex  5.000000e-001  3.400000e-001  5.800000e-001
    endloop
  endfacet
  facet normal  0.000000e+000 -1.000000e+000  0.000000e+000
    outer loop
      vertex -5.000000e-001 -3.800000e-001  6.000000e-002
      vertex  5.000000e-001 -3.800000e-001  6.000000e-002
      vertex -5.000000e-001 -3.800000e-001  5.400000e-001
    endloop
  endfacet
  facet normal  0.000000e+000 -1.000000e+000  0.000000e+000
    outer loop
      vertex -5.000000e-001 -3.800000e-001  5.400000e-001
      vertex  5.000000e-001 -3.800000e-001  6.000000e-002
      vertex  5.000000e-001 -3.800000e-001  5.400000e-001
    endloop
  endfacet
  facet normal  0.000000e+000  1.000000e+000  0.000000e+000
    outer loop
      vertex -5.000000e-001  3.800000e-001  5.400000e-001
      vertex  5.000000e-001  3.800000e-001  5.400000e-001
      vertex -5.000000e-001  3.800000e-001  6.000000e-002
    endloop
  endfacet
  facet normal  0.000000e+000  1.000000e+000  0.000000e+000
    outer loop
      vertex -5.000000e-001  3.800000e-001  6.000000e-002
      vertex  5.000000e-001  3.800000e-001  5.400000e-001
      vertex  5.000000e-001  3.800000e-001  6.000000e-002
    endloop
  endfacet
endsolid CATIA STL
