solid CATIA STL
  facet normal  0.000000e+000 -1.000000e+000  0.000000e+000
    outer loop
      vertex -8.000000e-001  7.450581e-010  1.500000e-001
      vertex -8.000000e-001  7.450581e-010 -1.500000e-001
      vertex -5.500000e-001  7.450581e-010  1.500000e-001
    endloop
  endfacet
  facet normal  0.000000e+000 -1.000000e+000  -0.000000e+000
    outer loop
      vertex -5.500000e-001  7.450581e-010  1.500000e-001
      vertex -8.000000e-001  7.450581e-010 -1.500000e-001
      vertex -5.500000e-001  7.450581e-010 -1.500000e-001
    endloop
  endfacet
  facet normal -1.000000e+000  -0.000000e+000  0.000000e+000
    outer loop
      vertex -8.000000e-001  7.450581e-010  1.500000e-001
      vertex -8.000000e-001  2.000000e-001  1.500000e-001
      vertex -8.000000e-001  7.450581e-010 -1.500000e-001
    endloop
  endfacet
  facet normal -1.000000e+000  0.000000e+000  0.000000e+000
    outer loop
      vertex -8.000000e-001  7.450581e-010 -1.500000e-001
      vertex -8.000000e-001  2.000000e-001  1.500000e-001
      vertex -8.000000e-001  2.000000e-001 -1.500000e-001
    endloop
  endfacet
  facet normal  0.000000e+000  9.999999e-001  0.000000e+000
    outer loop
      vertex -8.000000e-001  2.000000e-001  1.500000e-001
      vertex -5.975443e-001  2.000000e-001  1.500000e-001
      vertex -8.000000e-001  2.000000e-001 -1.500000e-001
    endloop
  endfacet
  facet normal  0.000000e+000  9.999999e-001  0.000000e+000
    outer loop
      vertex -8.000000e-001  2.000000e-001 -1.500000e-001
      vertex -5.975443e-001  2.000000e-001  1.500000e-001
      vertex -5.975443e-001  2.000000e-001 -1.500000e-001
    endloop
  endfacet
  facet normal  0.000000e+000  9.999999e-001  0.000000e+000
    outer loop
      vertex  5.975443e-001  2.000000e-001  1.500000e-001
      vertex  8.000000e-001  2.000000e-001  1.500000e-001
      vertex  5.975443e-001  2.000000e-001 -1.500000e-001
    endloop
  endfacet
  facet normal  0.000000e+000  9.999999e-001  0.000000e+000
    outer loop
      vertex  5.975443e-001  2.000000e-001 -1.500000e-001
      vertex  8.000000e-001  2.000000e-001  1.500000e-001
      vertex  8.000000e-001  2.000000e-001 -1.500000e-001
    endloop
  endfacet
  facet normal  1.000000e+000  0.000000e+000  0.000000e+000
    outer loop
      vertex  8.000000e-001  7.450581e-010 -1.500000e-001
      vertex  8.000000e-001  2.000000e-001 -1.500000e-001
      vertex  8.000000e-001  7.450581e-010  1.500000e-001
    endloop
  endfacet
  facet normal  1.000000e+000  -0.000000e+000  0.000000e+000
    outer loop
      vertex  8.000000e-001  7.450581e-010  1.500000e-001
      vertex  8.000000e-001  2.000000e-001 -1.500000e-001
      vertex  8.000000e-001  2.000000e-001  1.500000e-001
    endloop
  endfacet
  facet normal  0.000000e+000 -1.000000e+000  0.000000e+000
    outer loop
      vertex  5.500000e-001  7.450581e-010  1.500000e-001
      vertex  5.500000e-001  7.450581e-010 -1.500000e-001
      vertex  8.000000e-001  7.450581e-010  1.500000e-001
    endloop
  endfacet
  facet normal  0.000000e+000 -1.000000e+000  -0.000000e+000
    outer loop
      vertex  8.000000e-001  7.450581e-010  1.500000e-001
      vertex  5.500000e-001  7.450581e-010 -1.500000e-001
      vertex  8.000000e-001  7.450581e-010 -1.500000e-001
    endloop
  endfacet
  facet normal  0.000000e+000  0.000000e+000 -1.000000e+000
    outer loop
      vertex  8.000000e-001  7.450581e-010 -1.500000e-001
      vertex  5.500000e-001  7.450581e-010 -1.500000e-001
      vertex  5.500000e-001  2.000000e-002 -1.500000e-001
    endloop
  endfacet
  facet normal  0.000000e+000  0.000000e+000 -1.000000e+000
    outer loop
      vertex  8.000000e-001  7.450581e-010 -1.500000e-001
      vertex  5.500000e-001  2.000000e-002 -1.500000e-001
      vertex  5.754431e-001  2.000000e-002 -1.500000e-001
    endloop
  endfacet
  facet normal  0.000000e+000  0.000000e+000 -1.000000e+000
    outer loop
      vertex  8.000000e-001  7.450581e-010 -1.500000e-001
      vertex  5.754431e-001  2.000000e-002 -1.500000e-001
      vertex  5.975443e-001  2.000000e-001 -1.500000e-001
    endloop
  endfacet
  facet normal  0.000000e+000  0.000000e+000 -1.000000e+000
    outer loop
      vertex  8.000000e-001  7.450581e-010 -1.500000e-001
      vertex  5.975443e-001  2.000000e-001 -1.500000e-001
      vertex  8.000000e-001  2.000000e-001 -1.500000e-001
    endloop
  endfacet
  facet normal  0.000000e+000  0.000000e+000 -1.000000e+000
    outer loop
      vertex -8.000000e-001  7.450581e-010 -1.500000e-001
      vertex -8.000000e-001  2.000000e-001 -1.500000e-001
      vertex -5.975443e-001  2.000000e-001 -1.500000e-001
    endloop
  endfacet
  facet normal  0.000000e+000  -0.000000e+000 -1.000000e+000
    outer loop
      vertex -8.000000e-001  7.450581e-010 -1.500000e-001
      vertex -5.975443e-001  2.000000e-001 -1.500000e-001
      vertex -5.754431e-001  2.000000e-002 -1.500000e-001
    endloop
  endfacet
  facet normal  0.000000e+000  -0.000000e+000 -1.000000e+000
    outer loop
      vertex -8.000000e-001  7.450581e-010 -1.500000e-001
      vertex -5.754431e-001  2.000000e-002 -1.500000e-001
      vertex -5.500000e-001  2.000000e-002 -1.500000e-001
    endloop
  endfacet
  facet normal  0.000000e+000  -0.000000e+000 -1.000000e+000
    outer loop
      vertex -8.000000e-001  7.450581e-010 -1.500000e-001
      vertex -5.500000e-001  2.000000e-002 -1.500000e-001
      vertex -5.500000e-001  7.450581e-010 -1.500000e-001
    endloop
  endfacet
  facet normal  1.000000e+000  0.000000e+000  0.000000e+000
    outer loop
      vertex -5.500000e-001  7.450581e-010 -1.500000e-001
      vertex -5.500000e-001  2.000000e-002 -1.500000e-001
      vertex -5.500000e-001  7.450581e-010  1.500000e-001
    endloop
  endfacet
  facet normal  1.000000e+000  -0.000000e+000  0.000000e+000
    outer loop
      vertex -5.500000e-001  7.450581e-010  1.500000e-001
      vertex -5.500000e-001  2.000000e-002 -1.500000e-001
      vertex -5.500000e-001  2.000000e-002  1.500000e-001
    endloop
  endfacet
  facet normal  0.000000e+000  -0.000000e+000  1.000000e+000
    outer loop
      vertex -8.000000e-001  7.450581e-010  1.500000e-001
      vertex -5.500000e-001  7.450581e-010  1.500000e-001
      vertex -5.500000e-001  2.000000e-002  1.500000e-001
    endloop
  endfacet
  facet normal  0.000000e+000  0.000000e+000  1.000000e+000
    outer loop
      vertex -8.000000e-001  7.450581e-010  1.500000e-001
      vertex -5.500000e-001  2.000000e-002  1.500000e-001
      vertex -5.754431e-001  2.000000e-002  1.500000e-001
    endloop
  endfacet
  facet normal  0.000000e+000  0.000000e+000  1.000000e+000
    outer loop
      vertex -8.000000e-001  7.450581e-010  1.500000e-001
      vertex -5.754431e-001  2.000000e-002  1.500000e-001
      vertex -5.975443e-001  2.000000e-001  1.500000e-001
    endloop
  endfacet
  facet normal  0.000000e+000  0.000000e+000  1.000000e+000
    outer loop
      vertex -8.000000e-001  7.450581e-010  1.500000e-001
      vertex -5.975443e-001  2.000000e-001  1.500000e-001
      vertex -8.000000e-001  2.000000e-001  1.500000e-001
    endloop
  endfacet
  facet normal -9.925461e-001 -1.218705e-001  0.000000e+000
    outer loop
      vertex -5.987722e-001  2.100000e-001  3.689958e-001
      vertex -5.987722e-001  2.100000e-001 -3.689958e-001
      vertex -5.975443e-001  2.000000e-001 -1.500000e-001
    endloop
  endfacet
  facet normal -9.925461e-001 -1.218694e-001 -1.631586e-007
    outer loop
      vertex -5.944248e-001  1.745939e-001  3.944248e-001
      vertex -5.987722e-001  2.100000e-001  3.689958e-001
      vertex -5.754431e-001  2.000000e-002  3.754431e-001
    endloop
  endfacet
  facet normal -9.925461e-001 -1.218693e-001  -0.000000e+000
    outer loop
      vertex -5.754431e-001  2.000000e-002 -3.754431e-001
      vertex -5.754431e-001  2.000000e-002 -1.500000e-001
      vertex -5.975443e-001  2.000000e-001 -1.500000e-001
    endloop
  endfacet
  facet normal -9.925462e-001 -1.218694e-001  4.782866e-008
    outer loop
      vertex -5.754431e-001  2.000000e-002 -3.754431e-001
      vertex -5.975443e-001  2.000000e-001 -1.500000e-001
      vertex -5.987722e-001  2.100000e-001 -3.689958e-001
    endloop
  endfacet
  facet normal -9.925462e-001 -1.218694e-001 -1.330676e-006
    outer loop
      vertex -5.754431e-001  2.000000e-002 -3.754431e-001
      vertex -5.987722e-001  2.100000e-001 -3.689958e-001
      vertex -5.965440e-001  1.918530e-001 -3.869783e-001
    endloop
  endfacet
  facet normal -9.925462e-001 -1.218691e-001  2.871510e-006
    outer loop
      vertex -5.754431e-001  2.000000e-002 -3.754431e-001
      vertex -5.965440e-001  1.918530e-001 -3.869783e-001
      vertex -5.944248e-001  1.745939e-001 -3.944248e-001
    endloop
  endfacet
  facet normal -9.925460e-001 -1.218704e-001  -0.000000e+000
    outer loop
      vertex -5.975443e-001  2.000000e-001 -1.500000e-001
      vertex -5.975443e-001  2.000000e-001  1.500000e-001
      vertex -5.987722e-001  2.100000e-001  3.689958e-001
    endloop
  endfacet
  facet normal -9.925461e-001 -1.218694e-001 -5.056404e-008
    outer loop
      vertex -5.987722e-001  2.100000e-001  3.689958e-001
      vertex -5.975443e-001  2.000000e-001  1.500000e-001
      vertex -5.754431e-001  2.000000e-002  1.500000e-001
    endloop
  endfacet
  facet normal -9.925461e-001 -1.218694e-001  0.000000e+000
    outer loop
      vertex -5.987722e-001  2.100000e-001  3.689958e-001
      vertex -5.754431e-001  2.000000e-002  1.500000e-001
      vertex -5.754431e-001  2.000000e-002  3.754431e-001
    endloop
  endfacet
  facet normal  9.925462e-001 -1.218693e-001  1.364654e-006
    outer loop
      vertex  5.754431e-001  2.000000e-002 -3.754431e-001
      vertex  5.944248e-001  1.745939e-001 -3.944248e-001
      vertex  5.965427e-001  1.918426e-001 -3.869579e-001
    endloop
  endfacet
  facet normal  9.925461e-001 -1.218694e-001 -1.506079e-007
    outer loop
      vertex  5.987722e-001  2.100000e-001  3.689958e-001
      vertex  5.944248e-001  1.745939e-001  3.944248e-001
      vertex  5.754431e-001  2.000000e-002  3.754431e-001
    endloop
  endfacet
  facet normal  9.925461e-001 -1.218694e-001  0.000000e+000
    outer loop
      vertex  5.987722e-001  2.100000e-001  3.689958e-001
      vertex  5.754431e-001  2.000000e-002  3.754431e-001
      vertex  5.754431e-001  2.000000e-002  1.500000e-001
    endloop
  endfacet
  facet normal  9.925461e-001 -1.218693e-001 -4.689997e-008
    outer loop
      vertex  5.987722e-001  2.100000e-001  3.689958e-001
      vertex  5.754431e-001  2.000000e-002  1.500000e-001
      vertex  5.975443e-001  2.000000e-001  1.500000e-001
    endloop
  endfacet
  facet normal  9.925460e-001 -1.218704e-001  0.000000e+000
    outer loop
      vertex  5.987722e-001  2.100000e-001  3.689958e-001
      vertex  5.975443e-001  2.000000e-001  1.500000e-001
      vertex  5.975443e-001  2.000000e-001 -1.500000e-001
    endloop
  endfacet
  facet normal  9.925461e-001 -1.218705e-001  0.000000e+000
    outer loop
      vertex  5.987722e-001  2.100000e-001  3.689958e-001
      vertex  5.975443e-001  2.000000e-001 -1.500000e-001
      vertex  5.987722e-001  2.100000e-001 -3.689958e-001
    endloop
  endfacet
  facet normal  9.925461e-001 -1.218694e-001 -5.083657e-007
    outer loop
      vertex  5.965427e-001  1.918426e-001 -3.869579e-001
      vertex  5.987722e-001  2.100000e-001 -3.689958e-001
      vertex  5.754431e-001  2.000000e-002 -3.754431e-001
    endloop
  endfacet
  facet normal  9.925462e-001 -1.218694e-001  4.436282e-008
    outer loop
      vertex  5.754431e-001  2.000000e-002 -3.754431e-001
      vertex  5.987722e-001  2.100000e-001 -3.689958e-001
      vertex  5.975443e-001  2.000000e-001 -1.500000e-001
    endloop
  endfacet
  facet normal  9.925461e-001 -1.218693e-001  0.000000e+000
    outer loop
      vertex  5.754431e-001  2.000000e-002 -3.754431e-001
      vertex  5.975443e-001  2.000000e-001 -1.500000e-001
      vertex  5.754431e-001  2.000000e-002 -1.500000e-001
    endloop
  endfacet
  facet normal -1.000000e+000  -0.000000e+000  0.000000e+000
    outer loop
      vertex  5.500000e-001  7.450581e-010  1.500000e-001
      vertex  5.500000e-001  2.000000e-002  1.500000e-001
      vertex  5.500000e-001  7.450581e-010 -1.500000e-001
    endloop
  endfacet
  facet normal -1.000000e+000  0.000000e+000  0.000000e+000
    outer loop
      vertex  5.500000e-001  7.450581e-010 -1.500000e-001
      vertex  5.500000e-001  2.000000e-002  1.500000e-001
      vertex  5.500000e-001  2.000000e-002 -1.500000e-001
    endloop
  endfacet
  facet normal  0.000000e+000 -9.999999e-001  0.000000e+000
    outer loop
      vertex -5.754431e-001  2.000000e-002 -1.500000e-001
      vertex -5.754431e-001  2.000000e-002 -3.754431e-001
      vertex -5.500000e-001  2.000000e-002 -1.500000e-001
    endloop
  endfacet
  facet normal  0.000000e+000 -1.000000e+000  0.000000e+000
    outer loop
      vertex  5.754431e-001  2.000000e-002  3.754431e-001
      vertex -5.754431e-001  2.000000e-002  3.754431e-001
      vertex -5.754431e-001  2.000000e-002  1.500000e-001
    endloop
  endfacet
  facet normal  0.000000e+000 -9.999999e-001  0.000000e+000
    outer loop
      vertex  5.754431e-001  2.000000e-002  3.754431e-001
      vertex -5.754431e-001  2.000000e-002  1.500000e-001
      vertex -5.500000e-001  2.000000e-002  1.500000e-001
    endloop
  endfacet
  facet normal  0.000000e+000 -1.000000e+000  0.000000e+000
    outer loop
      vertex  5.754431e-001  2.000000e-002  3.754431e-001
      vertex -5.500000e-001  2.000000e-002  1.500000e-001
      vertex  5.500000e-001  2.000000e-002  1.500000e-001
    endloop
  endfacet
  facet normal  0.000000e+000 -9.999999e-001  0.000000e+000
    outer loop
      vertex  5.754431e-001  2.000000e-002  3.754431e-001
      vertex  5.500000e-001  2.000000e-002  1.500000e-001
      vertex  5.754431e-001  2.000000e-002  1.500000e-001
    endloop
  endfacet
  facet normal  -0.000000e+000 -9.999999e-001  -0.000000e+000
    outer loop
      vertex  5.754431e-001  2.000000e-002 -3.754431e-001
      vertex  5.754431e-001  2.000000e-002 -1.500000e-001
      vertex  5.500000e-001  2.000000e-002 -1.500000e-001
    endloop
  endfacet
  facet normal  -0.000000e+000 -1.000000e+000  -0.000000e+000
    outer loop
      vertex  5.754431e-001  2.000000e-002 -3.754431e-001
      vertex  5.500000e-001  2.000000e-002 -1.500000e-001
      vertex -5.500000e-001  2.000000e-002 -1.500000e-001
    endloop
  endfacet
  facet normal  0.000000e+000 -1.000000e+000  -0.000000e+000
    outer loop
      vertex  5.754431e-001  2.000000e-002 -3.754431e-001
      vertex -5.500000e-001  2.000000e-002 -1.500000e-001
      vertex -5.754431e-001  2.000000e-002 -3.754431e-001
    endloop
  endfacet
  facet normal  0.000000e+000 -1.000000e+000  0.000000e+000
    outer loop
      vertex -5.500000e-001  2.000000e-002 -1.500000e-001
      vertex  5.500000e-001  2.000000e-002 -1.500000e-001
      vertex -5.500000e-001  2.000000e-002  1.500000e-001
    endloop
  endfacet
  facet normal  0.000000e+000 -1.000000e+000  0.000000e+000
    outer loop
      vertex -5.500000e-001  2.000000e-002  1.500000e-001
      vertex  5.500000e-001  2.000000e-002 -1.500000e-001
      vertex  5.500000e-001  2.000000e-002  1.500000e-001
    endloop
  endfacet
  facet normal  0.000000e+000  1.000000e+000  0.000000e+000
    outer loop
      vertex -5.120659e-001  7.000000e-001 -3.120660e-001
      vertex -5.120659e-001  7.000000e-001  3.120660e-001
      vertex -2.620660e-001  7.000000e-001 -3.120660e-001
    endloop
  endfacet
  facet normal  0.000000e+000  1.000000e+000  -0.000000e+000
    outer loop
      vertex -2.620660e-001  7.000000e-001 -3.120660e-001
      vertex -5.120659e-001  7.000000e-001  3.120660e-001
      vertex -2.620660e-001  7.000000e-001  3.120660e-001
    endloop
  endfacet
  facet normal  0.000000e+000  1.000000e+000  0.000000e+000
    outer loop
      vertex -2.620660e-001  7.000000e-001 -3.120660e-001
      vertex -2.620660e-001  7.000000e-001  3.120660e-001
      vertex  5.120659e-001  7.000000e-001 -3.120660e-001
    endloop
  endfacet
  facet normal  0.000000e+000  1.000000e+000  -0.000000e+000
    outer loop
      vertex  5.120659e-001  7.000000e-001 -3.120660e-001
      vertex -2.620660e-001  7.000000e-001  3.120660e-001
      vertex  5.120659e-001  7.000000e-001  3.120660e-001
    endloop
  endfacet
  facet normal  0.000000e+000  9.351349e-001 -3.542918e-001
    outer loop
      vertex  5.120659e-001  7.000000e-001 -3.120660e-001
      vertex  5.120659e-001  6.924686e-001 -3.319446e-001
      vertex -2.620660e-001  7.000000e-001 -3.120660e-001
    endloop
  endfacet
  facet normal  0.000000e+000  4.656161e-001 -8.849868e-001
    outer loop
      vertex  5.120659e-001  6.736561e-001 -3.418424e-001
      vertex -5.120659e-001  6.736561e-001 -3.418424e-001
      vertex  5.120659e-001  6.924686e-001 -3.319446e-001
    endloop
  endfacet
  facet normal  0.000000e+000  4.656161e-001 -8.849868e-001
    outer loop
      vertex  5.120659e-001  6.924686e-001 -3.319446e-001
      vertex -5.120659e-001  6.736561e-001 -3.418424e-001
      vertex -5.120659e-001  6.924686e-001 -3.319446e-001
    endloop
  endfacet
  facet normal  0.000000e+000  9.351349e-001 -3.542918e-001
    outer loop
      vertex  5.120659e-001  6.924686e-001 -3.319446e-001
      vertex -5.120659e-001  6.924686e-001 -3.319446e-001
      vertex -2.620660e-001  7.000000e-001 -3.120660e-001
    endloop
  endfacet
  facet normal  0.000000e+000  9.351349e-001 -3.542918e-001
    outer loop
      vertex -2.620660e-001  7.000000e-001 -3.120660e-001
      vertex -5.120659e-001  6.924686e-001 -3.319446e-001
      vertex -5.120659e-001  7.000000e-001 -3.120660e-001
    endloop
  endfacet
  facet normal -3.491503e-001  9.215656e-001 -1.697379e-001
    outer loop
      vertex -5.120659e-001  7.000000e-001 -3.120660e-001
      vertex -5.320420e-001  6.910111e-001 -3.197792e-001
      vertex -5.319446e-001  6.924686e-001 -3.120660e-001
    endloop
  endfacet
  facet normal -2.731926e-001  8.995618e-001 -3.408144e-001
    outer loop
      vertex -5.120659e-001  7.000000e-001 -3.120660e-001
      vertex -5.120659e-001  6.924686e-001 -3.319446e-001
      vertex -5.320420e-001  6.910111e-001 -3.197792e-001
    endloop
  endfacet
  facet normal -3.344618e-001  4.388009e-001 -8.340197e-001
    outer loop
      vertex -5.120659e-001  6.736561e-001 -3.418424e-001
      vertex -5.320420e-001  6.866986e-001 -3.269695e-001
      vertex -5.120659e-001  6.924686e-001 -3.319446e-001
    endloop
  endfacet
  facet normal -3.203748e-001  4.560940e-001 -8.302640e-001
    outer loop
      vertex -5.120659e-001  6.736561e-001 -3.418424e-001
      vertex -5.329664e-001  6.751325e-001 -3.329664e-001
      vertex -5.320420e-001  6.866986e-001 -3.269695e-001
    endloop
  endfacet
  facet normal -3.517895e-001  8.027637e-001 -4.814713e-001
    outer loop
      vertex -5.320420e-001  6.910111e-001 -3.197792e-001
      vertex -5.120659e-001  6.924686e-001 -3.319446e-001
      vertex -5.320420e-001  6.866986e-001 -3.269695e-001
    endloop
  endfacet
  facet normal -8.823885e-001  4.642477e-001 -7.658075e-002
    outer loop
      vertex -5.418423e-001  6.736561e-001 -3.120660e-001
      vertex -5.319446e-001  6.924686e-001 -3.120660e-001
      vertex -5.320420e-001  6.910111e-001 -3.197792e-001
    endloop
  endfacet
  facet normal -8.872550e-001  3.955845e-001 -2.372586e-001
    outer loop
      vertex -5.418423e-001  6.736561e-001 -3.120660e-001
      vertex -5.320420e-001  6.910111e-001 -3.197792e-001
      vertex -5.320420e-001  6.866986e-001 -3.269695e-001
    endloop
  endfacet
  facet normal -8.954254e-001  2.592371e-001 -3.619525e-001
    outer loop
      vertex -5.418423e-001  6.736561e-001 -3.120660e-001
      vertex -5.320420e-001  6.866986e-001 -3.269695e-001
      vertex -5.329664e-001  6.751325e-001 -3.329664e-001
    endloop
  endfacet
  facet normal -8.849874e-001  4.656150e-001  0.000000e+000
    outer loop
      vertex -5.418423e-001  6.736561e-001 -3.120660e-001
      vertex -5.418423e-001  6.736561e-001  3.120660e-001
      vertex -5.319446e-001  6.924686e-001 -3.120660e-001
    endloop
  endfacet
  facet normal -8.849874e-001  4.656150e-001  0.000000e+000
    outer loop
      vertex -5.319446e-001  6.924686e-001 -3.120660e-001
      vertex -5.418423e-001  6.736561e-001  3.120660e-001
      vertex -5.319446e-001  6.924686e-001  3.120660e-001
    endloop
  endfacet
  facet normal -3.542913e-001  9.351351e-001  0.000000e+000
    outer loop
      vertex -5.319446e-001  6.924686e-001 -3.120660e-001
      vertex -5.319446e-001  6.924686e-001  3.120660e-001
      vertex -5.120659e-001  7.000000e-001 -3.120660e-001
    endloop
  endfacet
  facet normal -3.542913e-001  9.351351e-001  0.000000e+000
    outer loop
      vertex -5.120659e-001  7.000000e-001 -3.120660e-001
      vertex -5.319446e-001  6.924686e-001  3.120660e-001
      vertex -5.120659e-001  7.000000e-001  3.120660e-001
    endloop
  endfacet
  facet normal -3.203748e-001  4.560940e-001  8.302640e-001
    outer loop
      vertex -5.120659e-001  6.736561e-001  3.418424e-001
      vertex -5.320420e-001  6.866986e-001  3.269695e-001
      vertex -5.329664e-001  6.751325e-001  3.329664e-001
    endloop
  endfacet
  facet normal -3.344618e-001  4.388009e-001  8.340197e-001
    outer loop
      vertex -5.120659e-001  6.736561e-001  3.418424e-001
      vertex -5.120659e-001  6.924686e-001  3.319446e-001
      vertex -5.320420e-001  6.866986e-001  3.269695e-001
    endloop
  endfacet
  facet normal -2.731926e-001  8.995618e-001  3.408143e-001
    outer loop
      vertex -5.120659e-001  7.000000e-001  3.120660e-001
      vertex -5.320420e-001  6.910111e-001  3.197792e-001
      vertex -5.120659e-001  6.924686e-001  3.319446e-001
    endloop
  endfacet
  facet normal -3.491503e-001  9.215656e-001  1.697379e-001
    outer loop
      vertex -5.120659e-001  7.000000e-001  3.120660e-001
      vertex -5.319446e-001  6.924686e-001  3.120660e-001
      vertex -5.320420e-001  6.910111e-001  3.197792e-001
    endloop
  endfacet
  facet normal -3.517895e-001  8.027637e-001  4.814712e-001
    outer loop
      vertex -5.320420e-001  6.910111e-001  3.197792e-001
      vertex -5.320420e-001  6.866986e-001  3.269695e-001
      vertex -5.120659e-001  6.924686e-001  3.319446e-001
    endloop
  endfacet
  facet normal -8.954254e-001  2.592371e-001  3.619525e-001
    outer loop
      vertex -5.418423e-001  6.736561e-001  3.120660e-001
      vertex -5.329664e-001  6.751325e-001  3.329664e-001
      vertex -5.320420e-001  6.866986e-001  3.269695e-001
    endloop
  endfacet
  facet normal -8.872550e-001  3.955845e-001  2.372585e-001
    outer loop
      vertex -5.418423e-001  6.736561e-001  3.120660e-001
      vertex -5.320420e-001  6.866986e-001  3.269695e-001
      vertex -5.320420e-001  6.910111e-001  3.197792e-001
    endloop
  endfacet
  facet normal -8.823885e-001  4.642477e-001  7.658075e-002
    outer loop
      vertex -5.418423e-001  6.736561e-001  3.120660e-001
      vertex -5.320420e-001  6.910111e-001  3.197792e-001
      vertex -5.319446e-001  6.924686e-001  3.120660e-001
    endloop
  endfacet
  facet normal  0.000000e+000  9.351349e-001  3.542918e-001
    outer loop
      vertex -5.120659e-001  7.000000e-001  3.120660e-001
      vertex -5.120659e-001  6.924686e-001  3.319446e-001
      vertex -2.620660e-001  7.000000e-001  3.120660e-001
    endloop
  endfacet
  facet normal  0.000000e+000  4.656161e-001  8.849868e-001
    outer loop
      vertex -5.120659e-001  6.736561e-001  3.418424e-001
      vertex  5.120659e-001  6.736561e-001  3.418424e-001
      vertex -5.120659e-001  6.924686e-001  3.319446e-001
    endloop
  endfacet
  facet normal  -0.000000e+000  4.656161e-001  8.849868e-001
    outer loop
      vertex -5.120659e-001  6.924686e-001  3.319446e-001
      vertex  5.120659e-001  6.736561e-001  3.418424e-001
      vertex  5.120659e-001  6.924686e-001  3.319446e-001
    endloop
  endfacet
  facet normal  0.000000e+000  9.351349e-001  3.542918e-001
    outer loop
      vertex -5.120659e-001  6.924686e-001  3.319446e-001
      vertex  5.120659e-001  6.924686e-001  3.319446e-001
      vertex -2.620660e-001  7.000000e-001  3.120660e-001
    endloop
  endfacet
  facet normal  -0.000000e+000  9.351349e-001  3.542918e-001
    outer loop
      vertex -2.620660e-001  7.000000e-001  3.120660e-001
      vertex  5.120659e-001  6.924686e-001  3.319446e-001
      vertex  5.120659e-001  7.000000e-001  3.120660e-001
    endloop
  endfacet
  facet normal  3.243958e-001  4.404363e-001  8.371280e-001
    outer loop
      vertex  5.120659e-001  6.736561e-001  3.418424e-001
      vertex  5.329664e-001  6.751325e-001  3.329664e-001
      vertex  5.120659e-001  6.924686e-001  3.319446e-001
    endloop
  endfacet
  facet normal -1.209577e-001  9.852632e-001 -1.209365e-001
    outer loop
      vertex  5.120659e-001  6.736561e-001  3.418424e-001
      vertex  5.155106e-001  6.740482e-001  3.415913e-001
      vertex  5.329664e-001  6.751325e-001  3.329664e-001
    endloop
  endfacet
  facet normal  3.491503e-001  9.215656e-001  1.697379e-001
    outer loop
      vertex  5.120659e-001  7.000000e-001  3.120660e-001
      vertex  5.320420e-001  6.910111e-001  3.197792e-001
      vertex  5.319446e-001  6.924686e-001  3.120660e-001
    endloop
  endfacet
  facet normal  2.731926e-001  8.995618e-001  3.408144e-001
    outer loop
      vertex  5.120659e-001  7.000000e-001  3.120660e-001
      vertex  5.120659e-001  6.924686e-001  3.319446e-001
      vertex  5.320420e-001  6.910111e-001  3.197792e-001
    endloop
  endfacet
  facet normal  3.517895e-001  8.027637e-001  4.814712e-001
    outer loop
      vertex  5.120659e-001  6.924686e-001  3.319446e-001
      vertex  5.320420e-001  6.866986e-001  3.269695e-001
      vertex  5.320420e-001  6.910111e-001  3.197792e-001
    endloop
  endfacet
  facet normal  8.287592e-001  5.542818e-001  7.700554e-002
    outer loop
      vertex  5.320420e-001  6.866986e-001  3.269695e-001
      vertex  5.411955e-001  6.742833e-001  3.178214e-001
      vertex  5.416587e-001  6.739886e-001  3.149574e-001
    endloop
  endfacet
  facet normal  8.713539e-001  4.207765e-001  2.523679e-001
    outer loop
      vertex  5.320420e-001  6.866986e-001  3.269695e-001
      vertex  5.416587e-001  6.739886e-001  3.149574e-001
      vertex  5.320420e-001  6.910111e-001  3.197792e-001
    endloop
  endfacet
  facet normal  3.366681e-001  4.544976e-001  8.246736e-001
    outer loop
      vertex  5.120659e-001  6.924686e-001  3.319446e-001
      vertex  5.329664e-001  6.751325e-001  3.329664e-001
      vertex  5.320420e-001  6.866986e-001  3.269695e-001
    endloop
  endfacet
  facet normal  8.458469e-001  2.972575e-001  4.429233e-001
    outer loop
      vertex  5.320420e-001  6.866986e-001  3.269695e-001
      vertex  5.329664e-001  6.751325e-001  3.329664e-001
      vertex  5.411955e-001  6.742833e-001  3.178214e-001
    endloop
  endfacet
  facet normal  8.848059e-001  4.655195e-001 -2.025244e-002
    outer loop
      vertex  5.418423e-001  6.736561e-001  3.120660e-001
      vertex  5.319446e-001  6.924686e-001  3.120660e-001
      vertex  5.417857e-001  6.738268e-001  3.135134e-001
    endloop
  endfacet
  facet normal  8.791584e-001  4.701463e-001  7.773616e-002
    outer loop
      vertex  5.417857e-001  6.738268e-001  3.135134e-001
      vertex  5.319446e-001  6.924686e-001  3.120660e-001
      vertex  5.320420e-001  6.910111e-001  3.197792e-001
    endloop
  endfacet
  facet normal  8.731332e-001  4.869754e-001  2.221203e-002
    outer loop
      vertex  5.417857e-001  6.738268e-001  3.135134e-001
      vertex  5.320420e-001  6.910111e-001  3.197792e-001
      vertex  5.416587e-001  6.739886e-001  3.149574e-001
    endloop
  endfacet
  facet normal  8.849874e-001  4.656150e-001  -0.000000e+000
    outer loop
      vertex  5.418423e-001  6.736561e-001  3.120660e-001
      vertex  5.418423e-001  6.736561e-001 -3.120660e-001
      vertex  5.319446e-001  6.924686e-001  3.120660e-001
    endloop
  endfacet
  facet normal  8.849874e-001  4.656150e-001  0.000000e+000
    outer loop
      vertex  5.319446e-001  6.924686e-001  3.120660e-001
      vertex  5.418423e-001  6.736561e-001 -3.120660e-001
      vertex  5.319446e-001  6.924686e-001 -3.120660e-001
    endloop
  endfacet
  facet normal  3.542913e-001  9.351351e-001  -0.000000e+000
    outer loop
      vertex  5.319446e-001  6.924686e-001  3.120660e-001
      vertex  5.319446e-001  6.924686e-001 -3.120660e-001
      vertex  5.120659e-001  7.000000e-001  3.120660e-001
    endloop
  endfacet
  facet normal  3.542913e-001  9.351351e-001  0.000000e+000
    outer loop
      vertex  5.120659e-001  7.000000e-001  3.120660e-001
      vertex  5.319446e-001  6.924686e-001 -3.120660e-001
      vertex  5.120659e-001  7.000000e-001 -3.120660e-001
    endloop
  endfacet
  facet normal  2.731926e-001  8.995618e-001 -3.408143e-001
    outer loop
      vertex  5.120659e-001  7.000000e-001 -3.120660e-001
      vertex  5.320420e-001  6.910111e-001 -3.197792e-001
      vertex  5.120659e-001  6.924686e-001 -3.319446e-001
    endloop
  endfacet
  facet normal  3.491503e-001  9.215656e-001 -1.697379e-001
    outer loop
      vertex  5.120659e-001  7.000000e-001 -3.120660e-001
      vertex  5.319446e-001  6.924686e-001 -3.120660e-001
      vertex  5.320420e-001  6.910111e-001 -3.197792e-001
    endloop
  endfacet
  facet normal  3.366681e-001  4.544976e-001 -8.246736e-001
    outer loop
      vertex  5.120659e-001  6.924686e-001 -3.319446e-001
      vertex  5.320420e-001  6.866986e-001 -3.269695e-001
      vertex  5.329664e-001  6.751325e-001 -3.329664e-001
    endloop
  endfacet
  facet normal  3.243958e-001  4.404363e-001 -8.371280e-001
    outer loop
      vertex  5.120659e-001  6.736561e-001 -3.418424e-001
      vertex  5.120659e-001  6.924686e-001 -3.319446e-001
      vertex  5.329664e-001  6.751325e-001 -3.329664e-001
    endloop
  endfacet
  facet normal  3.517895e-001  8.027637e-001 -4.814712e-001
    outer loop
      vertex  5.120659e-001  6.924686e-001 -3.319446e-001
      vertex  5.320420e-001  6.910111e-001 -3.197792e-001
      vertex  5.320420e-001  6.866986e-001 -3.269695e-001
    endloop
  endfacet
  facet normal  8.954254e-001  2.592371e-001 -3.619525e-001
    outer loop
      vertex  5.418423e-001  6.736561e-001 -3.120660e-001
      vertex  5.329664e-001  6.751325e-001 -3.329664e-001
      vertex  5.320420e-001  6.866986e-001 -3.269695e-001
    endloop
  endfacet
  facet normal  8.872550e-001  3.955845e-001 -2.372585e-001
    outer loop
      vertex  5.418423e-001  6.736561e-001 -3.120660e-001
      vertex  5.320420e-001  6.866986e-001 -3.269695e-001
      vertex  5.320420e-001  6.910111e-001 -3.197792e-001
    endloop
  endfacet
  facet normal  8.823885e-001  4.642477e-001 -7.658075e-002
    outer loop
      vertex  5.418423e-001  6.736561e-001 -3.120660e-001
      vertex  5.320420e-001  6.910111e-001 -3.197792e-001
      vertex  5.319446e-001  6.924686e-001 -3.120660e-001
    endloop
  endfacet
  facet normal  0.000000e+000  1.218693e-001 -9.925461e-001
    outer loop
      vertex -5.689958e-001  2.100000e-001 -3.987722e-001
      vertex -5.120659e-001  6.736561e-001 -3.418424e-001
      vertex  5.689958e-001  2.100000e-001 -3.987722e-001
    endloop
  endfacet
  facet normal  0.000000e+000  1.218693e-001 -9.925461e-001
    outer loop
      vertex  5.689958e-001  2.100000e-001 -3.987722e-001
      vertex -5.120659e-001  6.736561e-001 -3.418424e-001
      vertex  5.120659e-001  6.736561e-001 -3.418424e-001
    endloop
  endfacet
  facet normal -3.764645e-001  1.583025e-001 -9.128060e-001
    outer loop
      vertex -5.120659e-001  6.736561e-001 -3.418424e-001
      vertex -5.689958e-001  2.100000e-001 -3.987722e-001
      vertex -5.329664e-001  6.751325e-001 -3.329664e-001
    endloop
  endfacet
  facet normal -3.764644e-001  1.583025e-001 -9.128061e-001
    outer loop
      vertex -5.329664e-001  6.751325e-001 -3.329664e-001
      vertex -5.689958e-001  2.100000e-001 -3.987722e-001
      vertex -5.944248e-001  1.745939e-001 -3.944248e-001
    endloop
  endfacet
  facet normal -7.711658e-001  1.700171e-001 -6.135123e-001
    outer loop
      vertex -5.329664e-001  6.751325e-001 -3.329664e-001
      vertex -5.944248e-001  1.745939e-001 -3.944248e-001
      vertex -5.965440e-001  1.918530e-001 -3.869783e-001
    endloop
  endfacet
  facet normal -9.513785e-001  1.498575e-001 -2.691125e-001
    outer loop
      vertex -5.987722e-001  2.100000e-001 -3.689958e-001
      vertex -5.418423e-001  6.736561e-001 -3.120660e-001
      vertex -5.965440e-001  1.918530e-001 -3.869783e-001
    endloop
  endfacet
  facet normal -9.123402e-001  1.620447e-001 -3.760014e-001
    outer loop
      vertex -5.965440e-001  1.918530e-001 -3.869783e-001
      vertex -5.418423e-001  6.736561e-001 -3.120660e-001
      vertex -5.329664e-001  6.751325e-001 -3.329664e-001
    endloop
  endfacet
  facet normal -9.925461e-001  1.218694e-001  0.000000e+000
    outer loop
      vertex -5.418423e-001  6.736561e-001 -3.120660e-001
      vertex -5.987722e-001  2.100000e-001 -3.689958e-001
      vertex -5.418423e-001  6.736561e-001  3.120660e-001
    endloop
  endfacet
  facet normal -9.925461e-001  1.218694e-001  0.000000e+000
    outer loop
      vertex -5.418423e-001  6.736561e-001  3.120660e-001
      vertex -5.987722e-001  2.100000e-001 -3.689958e-001
      vertex -5.987722e-001  2.100000e-001  3.689958e-001
    endloop
  endfacet
  facet normal -9.128062e-001  1.583025e-001  3.764638e-001
    outer loop
      vertex -5.418423e-001  6.736561e-001  3.120660e-001
      vertex -5.987722e-001  2.100000e-001  3.689958e-001
      vertex -5.329664e-001  6.751325e-001  3.329664e-001
    endloop
  endfacet
  facet normal -9.128061e-001  1.583025e-001  3.764644e-001
    outer loop
      vertex -5.329664e-001  6.751325e-001  3.329664e-001
      vertex -5.987722e-001  2.100000e-001  3.689958e-001
      vertex -5.944248e-001  1.745939e-001  3.944248e-001
    endloop
  endfacet
  facet normal -3.764644e-001  1.583025e-001  9.128061e-001
    outer loop
      vertex -5.329664e-001  6.751325e-001  3.329664e-001
      vertex -5.944248e-001  1.745939e-001  3.944248e-001
      vertex -5.120659e-001  6.736561e-001  3.418424e-001
    endloop
  endfacet
  facet normal -3.764644e-001  1.583024e-001  9.128060e-001
    outer loop
      vertex -5.120659e-001  6.736561e-001  3.418424e-001
      vertex -5.944248e-001  1.745939e-001  3.944248e-001
      vertex -5.689958e-001  2.100000e-001  3.987722e-001
    endloop
  endfacet
  facet normal  0.000000e+000  1.218693e-001  9.925461e-001
    outer loop
      vertex -5.120659e-001  6.736561e-001  3.418424e-001
      vertex -5.689958e-001  2.100000e-001  3.987722e-001
      vertex  5.120659e-001  6.736561e-001  3.418424e-001
    endloop
  endfacet
  facet normal  0.000000e+000  1.218693e-001  9.925461e-001
    outer loop
      vertex  5.120659e-001  6.736561e-001  3.418424e-001
      vertex -5.689958e-001  2.100000e-001  3.987722e-001
      vertex  5.689958e-001  2.100000e-001  3.987722e-001
    endloop
  endfacet
  facet normal  5.750664e-002  1.286207e-001  9.900250e-001
    outer loop
      vertex  5.689958e-001  2.100000e-001  3.987722e-001
      vertex  5.155106e-001  6.740482e-001  3.415913e-001
      vertex  5.120659e-001  6.736561e-001  3.418424e-001
    endloop
  endfacet
  facet normal  9.918944e-001  1.247523e-001  2.413165e-002
    outer loop
      vertex  5.987722e-001  2.100000e-001  3.689958e-001
      vertex  5.418423e-001  6.736561e-001  3.120660e-001
      vertex  5.417857e-001  6.738268e-001  3.135134e-001
    endloop
  endfacet
  facet normal  9.136430e-001  1.571008e-001  3.749345e-001
    outer loop
      vertex  5.944248e-001  1.745939e-001  3.944248e-001
      vertex  5.987722e-001  2.100000e-001  3.689958e-001
      vertex  5.417857e-001  6.738268e-001  3.135134e-001
    endloop
  endfacet
  facet normal  9.904355e-001  1.164308e-001  7.403606e-002
    outer loop
      vertex  5.944248e-001  1.745939e-001  3.944248e-001
      vertex  5.417857e-001  6.738268e-001  3.135134e-001
      vertex  5.416587e-001  6.739886e-001  3.149574e-001
    endloop
  endfacet
  facet normal  9.811714e-001  1.268469e-001  1.456454e-001
    outer loop
      vertex  5.944248e-001  1.745939e-001  3.944248e-001
      vertex  5.416587e-001  6.739886e-001  3.149574e-001
      vertex  5.411955e-001  6.742833e-001  3.178214e-001
    endloop
  endfacet
  facet normal  8.706214e-001  1.638542e-001  4.638645e-001
    outer loop
      vertex  5.944248e-001  1.745939e-001  3.944248e-001
      vertex  5.411955e-001  6.742833e-001  3.178214e-001
      vertex  5.329664e-001  6.751325e-001  3.329664e-001
    endloop
  endfacet
  facet normal  4.290436e-001  1.617955e-001  8.886753e-001
    outer loop
      vertex  5.944248e-001  1.745939e-001  3.944248e-001
      vertex  5.329664e-001  6.751325e-001  3.329664e-001
      vertex  5.155106e-001  6.740482e-001  3.415913e-001
    endloop
  endfacet
  facet normal  3.731613e-001  1.557091e-001  9.146066e-001
    outer loop
      vertex  5.944248e-001  1.745939e-001  3.944248e-001
      vertex  5.155106e-001  6.740482e-001  3.415913e-001
      vertex  5.689958e-001  2.100000e-001  3.987722e-001
    endloop
  endfacet
  facet normal  9.925461e-001  1.218694e-001  0.000000e+000
    outer loop
      vertex  5.987722e-001  2.100000e-001 -3.689958e-001
      vertex  5.418423e-001  6.736561e-001 -3.120660e-001
      vertex  5.987722e-001  2.100000e-001  3.689958e-001
    endloop
  endfacet
  facet normal  9.925461e-001  1.218694e-001  0.000000e+000
    outer loop
      vertex  5.987722e-001  2.100000e-001  3.689958e-001
      vertex  5.418423e-001  6.736561e-001 -3.120660e-001
      vertex  5.418423e-001  6.736561e-001  3.120660e-001
    endloop
  endfacet
  facet normal  9.128062e-001  1.583025e-001 -3.764638e-001
    outer loop
      vertex  5.418423e-001  6.736561e-001 -3.120660e-001
      vertex  5.987722e-001  2.100000e-001 -3.689958e-001
      vertex  5.329664e-001  6.751325e-001 -3.329664e-001
    endloop
  endfacet
  facet normal  9.487850e-001  1.555321e-001 -2.749849e-001
    outer loop
      vertex  5.329664e-001  6.751325e-001 -3.329664e-001
      vertex  5.987722e-001  2.100000e-001 -3.689958e-001
      vertex  5.965427e-001  1.918426e-001 -3.869579e-001
    endloop
  endfacet
  facet normal  7.725606e-001  1.699740e-001 -6.117671e-001
    outer loop
      vertex  5.329664e-001  6.751325e-001 -3.329664e-001
      vertex  5.965427e-001  1.918426e-001 -3.869579e-001
      vertex  5.944248e-001  1.745939e-001 -3.944248e-001
    endloop
  endfacet
  facet normal  3.764644e-001  1.583024e-001 -9.128060e-001
    outer loop
      vertex  5.689958e-001  2.100000e-001 -3.987722e-001
      vertex  5.120659e-001  6.736561e-001 -3.418424e-001
      vertex  5.944248e-001  1.745939e-001 -3.944248e-001
    endloop
  endfacet
  facet normal  3.764644e-001  1.583025e-001 -9.128061e-001
    outer loop
      vertex  5.944248e-001  1.745939e-001 -3.944248e-001
      vertex  5.120659e-001  6.736561e-001 -3.418424e-001
      vertex  5.329664e-001  6.751325e-001 -3.329664e-001
    endloop
  endfacet
  facet normal  7.530393e-008 -1.218693e-001 -9.925461e-001
    outer loop
      vertex  5.689958e-001  2.100000e-001 -3.987722e-001
      vertex  5.944248e-001  1.745939e-001 -3.944248e-001
      vertex  5.754431e-001  2.000000e-002 -3.754431e-001
    endloop
  endfacet
  facet normal -7.530393e-008 -1.218693e-001 -9.925461e-001
    outer loop
      vertex -5.944248e-001  1.745939e-001 -3.944248e-001
      vertex -5.689958e-001  2.100000e-001 -3.987722e-001
      vertex -5.754431e-001  2.000000e-002 -3.754431e-001
    endloop
  endfacet
  facet normal  0.000000e+000 -1.218693e-001 -9.925461e-001
    outer loop
      vertex -5.754431e-001  2.000000e-002 -3.754431e-001
      vertex -5.689958e-001  2.100000e-001 -3.987722e-001
      vertex  5.689958e-001  2.100000e-001 -3.987722e-001
    endloop
  endfacet
  facet normal  0.000000e+000 -1.218693e-001 -9.925462e-001
    outer loop
      vertex -5.754431e-001  2.000000e-002 -3.754431e-001
      vertex  5.689958e-001  2.100000e-001 -3.987722e-001
      vertex  5.754431e-001  2.000000e-002 -3.754431e-001
    endloop
  endfacet
  facet normal -7.530393e-008 -1.218693e-001  9.925461e-001
    outer loop
      vertex -5.689958e-001  2.100000e-001  3.987722e-001
      vertex -5.944248e-001  1.745939e-001  3.944248e-001
      vertex -5.754431e-001  2.000000e-002  3.754431e-001
    endloop
  endfacet
  facet normal  7.530393e-008 -1.218693e-001  9.925461e-001
    outer loop
      vertex  5.944248e-001  1.745939e-001  3.944248e-001
      vertex  5.689958e-001  2.100000e-001  3.987722e-001
      vertex  5.754431e-001  2.000000e-002  3.754431e-001
    endloop
  endfacet
  facet normal  0.000000e+000 -1.218693e-001  9.925461e-001
    outer loop
      vertex  5.754431e-001  2.000000e-002  3.754431e-001
      vertex  5.689958e-001  2.100000e-001  3.987722e-001
      vertex -5.689958e-001  2.100000e-001  3.987722e-001
    endloop
  endfacet
  facet normal  0.000000e+000 -1.218693e-001  9.925462e-001
    outer loop
      vertex  5.754431e-001  2.000000e-002  3.754431e-001
      vertex -5.689958e-001  2.100000e-001  3.987722e-001
      vertex -5.754431e-001  2.000000e-002  3.754431e-001
    endloop
  endfacet
  facet normal  0.000000e+000  0.000000e+000  1.000000e+000
    outer loop
      vertex  8.000000e-001  7.450581e-010  1.500000e-001
      vertex  8.000000e-001  2.000000e-001  1.500000e-001
      vertex  5.975443e-001  2.000000e-001  1.500000e-001
    endloop
  endfacet
  facet normal  0.000000e+000  0.000000e+000  1.000000e+000
    outer loop
      vertex  8.000000e-001  7.450581e-010  1.500000e-001
      vertex  5.975443e-001  2.000000e-001  1.500000e-001
      vertex  5.754431e-001  2.000000e-002  1.500000e-001
    endloop
  endfacet
  facet normal  0.000000e+000  0.000000e+000  1.000000e+000
    outer loop
      vertex  8.000000e-001  7.450581e-010  1.500000e-001
      vertex  5.754431e-001  2.000000e-002  1.500000e-001
      vertex  5.500000e-001  2.000000e-002  1.500000e-001
    endloop
  endfacet
  facet normal  0.000000e+000  0.000000e+000  1.000000e+000
    outer loop
      vertex  8.000000e-001  7.450581e-010  1.500000e-001
      vertex  5.500000e-001  2.000000e-002  1.500000e-001
      vertex  5.500000e-001  7.450581e-010  1.500000e-001
    endloop
  endfacet
endsolid CATIA STL
