^D:\WORKSPACE\REVIDX\REVIDXCOMCLIENT\REVIDXCOMCLIENT\STDAFX.CPP
D:\WORKSPACE\REVIDX\REVIDXCOMCLIENT\REVIDXCOMCLIENT\DEBUG\REVIDXCOMCLIENT.PCH
D:\WORKSPACE\REVIDX\REVIDXCOMCLIENT\REVIDXCOMCLIENT\DEBUG\VC143.PDB
D:\WORKSPACE\REVIDX\REVIDXCOMCLIENT\REVIDXCOMCLIENT\DEBUG\VC143.IDB
D:\WORKSPACE\REVIDX\REVIDXCOMCLIENT\REVIDXCOMCLIENT\DEBUG\STDAFX.OBJ
^D:\WORKSPACE\REVIDX\REVIDXCOMCLIENT\REVIDXCOMCLIENT\REVIDXCOMCLIENT.CPP
D:\WORKSPACE\REVIDX\REVIDXCOMCLIENT\REVIDXCOMCLIENT\DEBUG\VC143.PDB
D:\WORKSPACE\REVIDX\REVIDXCOMCLIENT\REVIDXCOMCLIENT\DEBUG\VC143.IDB
D:\WORKSPACE\REVIDX\REVIDXCOMCLIENT\REVIDXCOMCLIENT\DEBUG\REVIDXCOMCLIENT.OBJ
