^D:\WORKSPACE\REVIDX\REVIDXCOMCLIENT\REVIDXCOMCLIENT\DEBUG\REVIDXCOMCLIENT.OBJ|D:\WORKSPACE\REVIDX\REVIDXCOMCLIENT\REVIDXCOMCLIENT\DEBUG\STDAFX.OBJ
D:\WORKSPACE\REVIDX\REVIDXCOMCLIENT\REVIDXCOMCLIENT\DEBUG\REVIDXCOMCLIENT.ILK
D:\WORKSPACE\REVIDX\REVIDXSERVER\REVIDXCOMWRAPPER\BIN\DEBUG\NET472\REVIDXCOMCLIENT.EXE
D:\WORKSPACE\REVIDX\REVIDXSERVER\REVIDXCOMWRAPPER\BIN\DEBUG\NET472\REVIDXCOMCLIENT.PDB
